min_mex_tb.vcd
$date
	Sun Mar 30 11:17:06 2025
$end
$version
	Icarus Verilog
$end
$timescale
	1ps
$end
$scope module min_mex_tb $end
$var event 1 ! _ivl_0 $end
$var wire 1 " outValid $end
$var wire 5 # data_out [4:0] $end
$var parameter 32 $ ADDR_WIDTH $end
$var parameter 32 % DATA_WIDTH $end
$var reg 4 & addr [3:0] $end
$var reg 1 ' clk $end
$var reg 5 ( data [4:0] $end
$var reg 1 ) dataValid $end
$var reg 1 * read $end
$var reg 1 + reset $end
$var reg 32 , seed [31:0] $end
$scope module dut $end
$var wire 4 - addr [3:0] $end
$var wire 1 ' clk $end
$var wire 5 . data [4:0] $end
$var wire 1 ) dataValid $end
$var wire 1 * read $end
$var wire 1 + reset $end
$var wire 1 / we $end
$var wire 3 0 temp_addr [2:0] $end
$var wire 4 1 state [3:0] $end
$var wire 1 2 resetComplete $end
$var wire 1 3 re $end
$var wire 1 " outValid $end
$var wire 5 4 mx [4:0] $end
$var wire 5 5 mn [4:0] $end
$var wire 1 6 dp_done $end
$var wire 5 7 data_out [4:0] $end
$var wire 8 8 an [7:0] $end
$var wire 7 9 a_to_g [6:0] $end
$var parameter 32 : ADDR_WIDTH $end
$var parameter 32 ; DATA_WIDTH $end
$scope module control_unit $end
$var wire 1 ' clk $end
$var wire 1 ) dataValid $end
$var wire 1 * read $end
$var wire 1 + reset $end
$var wire 1 2 resetComplete $end
$var wire 1 " outValid $end
$var wire 1 6 dp_done $end
$var parameter 4 < S_DONE $end
$var parameter 4 = S_IDLE $end
$var parameter 4 > S_READ $end
$var parameter 4 ? S_READ_INTERMEDIATE_1 $end
$var parameter 4 @ S_READ_INTERMEDIATE_2 $end
$var parameter 4 A S_RUN $end
$var parameter 4 B S_RUN_INTERMEDIATE_1 $end
$var parameter 4 C S_RUN_INTERMEDIATE_2 $end
$var reg 4 D nxt_state [3:0] $end
$var reg 4 E state [3:0] $end
$upscope $end
$scope module datapath_unit $end
$var wire 4 F addr [3:0] $end
$var wire 1 ' clk $end
$var wire 5 G data_in [4:0] $end
$var wire 6 H mem_data [5:0] $end
$var wire 1 + reset $end
$var wire 1 3 rew $end
$var wire 4 I state [3:0] $end
$var wire 1 / wew $end
$var wire 5 J tmp_2 [4:0] $end
$var wire 5 K tmp_1 [4:0] $end
$var wire 5 L sm [4:0] $end
$var wire 4 M mem_addr [3:0] $end
$var wire 5 N gre [4:0] $end
$var wire 5 O data_mem [4:0] $end
$var parameter 32 P ADDR_WIDTH $end
$var parameter 32 Q DATA_WIDTH $end
$var parameter 4 R S_DONE $end
$var parameter 4 S S_IDLE $end
$var parameter 4 T S_READ $end
$var parameter 4 U S_READ_INTERMEDIATE_1 $end
$var parameter 4 V S_READ_INTERMEDIATE_2 $end
$var parameter 4 W S_RUN $end
$var parameter 4 X S_RUN_INTERMEDIATE_1 $end
$var parameter 4 Y S_RUN_INTERMEDIATE_2 $end
$var parameter 36 Z depth $end
$var reg 5 [ data_out [4:0] $end
$var reg 1 6 dp_done $end
$var reg 5 \ in1 [4:0] $end
$var reg 5 ] in2 [4:0] $end
$var reg 5 ^ in3 [4:0] $end
$var reg 5 _ mn [4:0] $end
$var reg 5 ` mx [4:0] $end
$var reg 1 a re $end
$var reg 5 b resetAddr [4:0] $end
$var reg 1 2 resetComplete $end
$var reg 1 c resetting $end
$var reg 4 d temp_addr [3:0] $end
$var reg 3 e tempaddr [2:0] $end
$var reg 1 f we $end
$scope module cmp $end
$var wire 5 g A [4:0] $end
$var wire 1 h A_gt_B $end
$var wire 5 i B [4:0] $end
$var wire 1 j eq0 $end
$var wire 1 k eq1 $end
$var wire 1 l eq2 $end
$var wire 1 m eq3 $end
$var wire 1 n eq4 $end
$var wire 1 o eq4_and_eq3 $end
$var wire 1 p eq4_and_gt3 $end
$var wire 1 q eq4_eq3_and_eq2 $end
$var wire 1 r eq4_eq3_and_gt2 $end
$var wire 1 s eq4_eq3_eq2_and_eq1 $end
$var wire 1 t eq4_eq3_eq2_and_gt1 $end
$var wire 1 u eq4_eq3_eq2_eq1_and_gt0 $end
$var wire 1 v gt0 $end
$var wire 1 w gt1 $end
$var wire 1 x gt2 $end
$var wire 1 y gt3 $end
$var wire 1 z gt4 $end
$var wire 1 { not_B0 $end
$var wire 1 | not_B1 $end
$var wire 1 } not_B2 $end
$var wire 1 ~ not_B3 $end
$var wire 1 !" not_B4 $end
$var wire 1 "" or_temp1 $end
$var wire 1 #" or_temp2 $end
$var wire 1 $" or_temp3 $end
$var wire 5 %" smaller [4:0] $end
$var wire 5 &" greater [4:0] $end
$scope module greater_mux $end
$var wire 5 '" in0 [4:0] $end
$var wire 5 (" in1 [4:0] $end
$var wire 1 h sel $end
$var wire 5 )" out [4:0] $end
$scope module mux0 $end
$var wire 1 *" and_in0 $end
$var wire 1 +" and_in1 $end
$var wire 1 ," in0 $end
$var wire 1 -" in1 $end
$var wire 1 ." not_sel $end
$var wire 1 /" out $end
$var wire 1 h sel $end
$upscope $end
$scope module mux1 $end
$var wire 1 0" and_in0 $end
$var wire 1 1" and_in1 $end
$var wire 1 2" in0 $end
$var wire 1 3" in1 $end
$var wire 1 4" not_sel $end
$var wire 1 5" out $end
$var wire 1 h sel $end
$upscope $end
$scope module mux2 $end
$var wire 1 6" and_in0 $end
$var wire 1 7" and_in1 $end
$var wire 1 8" in0 $end
$var wire 1 9" in1 $end
$var wire 1 :" not_sel $end
$var wire 1 ;" out $end
$var wire 1 h sel $end
$upscope $end
$scope module mux3 $end
$var wire 1 <" and_in0 $end
$var wire 1 =" and_in1 $end
$var wire 1 >" in0 $end
$var wire 1 ?" in1 $end
$var wire 1 @" not_sel $end
$var wire 1 A" out $end
$var wire 1 h sel $end
$upscope $end
$scope module mux4 $end
$var wire 1 B" and_in0 $end
$var wire 1 C" and_in1 $end
$var wire 1 D" in0 $end
$var wire 1 E" in1 $end
$var wire 1 F" not_sel $end
$var wire 1 G" out $end
$var wire 1 h sel $end
$upscope $end
$upscope $end
$scope module smaller_mux $end
$var wire 5 H" in0 [4:0] $end
$var wire 5 I" in1 [4:0] $end
$var wire 1 h sel $end
$var wire 5 J" out [4:0] $end
$scope module mux0 $end
$var wire 1 K" and_in0 $end
$var wire 1 L" and_in1 $end
$var wire 1 M" in0 $end
$var wire 1 N" in1 $end
$var wire 1 O" not_sel $end
$var wire 1 P" out $end
$var wire 1 h sel $end
$upscope $end
$scope module mux1 $end
$var wire 1 Q" and_in0 $end
$var wire 1 R" and_in1 $end
$var wire 1 S" in0 $end
$var wire 1 T" in1 $end
$var wire 1 U" not_sel $end
$var wire 1 V" out $end
$var wire 1 h sel $end
$upscope $end
$scope module mux2 $end
$var wire 1 W" and_in0 $end
$var wire 1 X" and_in1 $end
$var wire 1 Y" in0 $end
$var wire 1 Z" in1 $end
$var wire 1 [" not_sel $end
$var wire 1 \" out $end
$var wire 1 h sel $end
$upscope $end
$scope module mux3 $end
$var wire 1 ]" and_in0 $end
$var wire 1 ^" and_in1 $end
$var wire 1 _" in0 $end
$var wire 1 `" in1 $end
$var wire 1 a" not_sel $end
$var wire 1 b" out $end
$var wire 1 h sel $end
$upscope $end
$scope module mux4 $end
$var wire 1 c" and_in0 $end
$var wire 1 d" and_in1 $end
$var wire 1 e" in0 $end
$var wire 1 f" in1 $end
$var wire 1 g" not_sel $end
$var wire 1 h" out $end
$var wire 1 h sel $end
$upscope $end
$upscope $end
$upscope $end
$scope module cmp_2 $end
$var wire 5 i" A [4:0] $end
$var wire 1 j" A_gt_B $end
$var wire 5 k" B [4:0] $end
$var wire 1 l" eq0 $end
$var wire 1 m" eq1 $end
$var wire 1 n" eq2 $end
$var wire 1 o" eq3 $end
$var wire 1 p" eq4 $end
$var wire 1 q" eq4_and_eq3 $end
$var wire 1 r" eq4_and_gt3 $end
$var wire 1 s" eq4_eq3_and_eq2 $end
$var wire 1 t" eq4_eq3_and_gt2 $end
$var wire 1 u" eq4_eq3_eq2_and_eq1 $end
$var wire 1 v" eq4_eq3_eq2_and_gt1 $end
$var wire 1 w" eq4_eq3_eq2_eq1_and_gt0 $end
$var wire 1 x" gt0 $end
$var wire 1 y" gt1 $end
$var wire 1 z" gt2 $end
$var wire 1 {" gt3 $end
$var wire 1 |" gt4 $end
$var wire 1 }" not_B0 $end
$var wire 1 ~" not_B1 $end
$var wire 1 !# not_B2 $end
$var wire 1 "# not_B3 $end
$var wire 1 ## not_B4 $end
$var wire 1 $# or_temp1 $end
$var wire 1 %# or_temp2 $end
$var wire 1 &# or_temp3 $end
$var wire 5 '# smaller [4:0] $end
$var wire 5 (# greater [4:0] $end
$scope module greater_mux $end
$var wire 5 )# in0 [4:0] $end
$var wire 5 *# in1 [4:0] $end
$var wire 1 j" sel $end
$var wire 5 +# out [4:0] $end
$scope module mux0 $end
$var wire 1 ,# and_in0 $end
$var wire 1 -# and_in1 $end
$var wire 1 .# in0 $end
$var wire 1 /# in1 $end
$var wire 1 0# not_sel $end
$var wire 1 1# out $end
$var wire 1 j" sel $end
$upscope $end
$scope module mux1 $end
$var wire 1 2# and_in0 $end
$var wire 1 3# and_in1 $end
$var wire 1 4# in0 $end
$var wire 1 5# in1 $end
$var wire 1 6# not_sel $end
$var wire 1 7# out $end
$var wire 1 j" sel $end
$upscope $end
$scope module mux2 $end
$var wire 1 8# and_in0 $end
$var wire 1 9# and_in1 $end
$var wire 1 :# in0 $end
$var wire 1 ;# in1 $end
$var wire 1 <# not_sel $end
$var wire 1 =# out $end
$var wire 1 j" sel $end
$upscope $end
$scope module mux3 $end
$var wire 1 ># and_in0 $end
$var wire 1 ?# and_in1 $end
$var wire 1 @# in0 $end
$var wire 1 A# in1 $end
$var wire 1 B# not_sel $end
$var wire 1 C# out $end
$var wire 1 j" sel $end
$upscope $end
$scope module mux4 $end
$var wire 1 D# and_in0 $end
$var wire 1 E# and_in1 $end
$var wire 1 F# in0 $end
$var wire 1 G# in1 $end
$var wire 1 H# not_sel $end
$var wire 1 I# out $end
$var wire 1 j" sel $end
$upscope $end
$upscope $end
$scope module smaller_mux $end
$var wire 5 J# in0 [4:0] $end
$var wire 5 K# in1 [4:0] $end
$var wire 1 j" sel $end
$var wire 5 L# out [4:0] $end
$scope module mux0 $end
$var wire 1 M# and_in0 $end
$var wire 1 N# and_in1 $end
$var wire 1 O# in0 $end
$var wire 1 P# in1 $end
$var wire 1 Q# not_sel $end
$var wire 1 R# out $end
$var wire 1 j" sel $end
$upscope $end
$scope module mux1 $end
$var wire 1 S# and_in0 $end
$var wire 1 T# and_in1 $end
$var wire 1 U# in0 $end
$var wire 1 V# in1 $end
$var wire 1 W# not_sel $end
$var wire 1 X# out $end
$var wire 1 j" sel $end
$upscope $end
$scope module mux2 $end
$var wire 1 Y# and_in0 $end
$var wire 1 Z# and_in1 $end
$var wire 1 [# in0 $end
$var wire 1 \# in1 $end
$var wire 1 ]# not_sel $end
$var wire 1 ^# out $end
$var wire 1 j" sel $end
$upscope $end
$scope module mux3 $end
$var wire 1 _# and_in0 $end
$var wire 1 `# and_in1 $end
$var wire 1 a# in0 $end
$var wire 1 b# in1 $end
$var wire 1 c# not_sel $end
$var wire 1 d# out $end
$var wire 1 j" sel $end
$upscope $end
$scope module mux4 $end
$var wire 1 e# and_in0 $end
$var wire 1 f# and_in1 $end
$var wire 1 g# in0 $end
$var wire 1 h# in1 $end
$var wire 1 i# not_sel $end
$var wire 1 j# out $end
$var wire 1 j" sel $end
$upscope $end
$upscope $end
$upscope $end
$scope module m $end
$var wire 4 k# addr [3:0] $end
$var wire 1 ' clk $end
$var wire 6 l# data [5:0] $end
$var wire 1 a readEnable $end
$var wire 1 f writeEnable $end
$var parameter 32 m# ADDR_WIDTH $end
$var parameter 33 n# DATA_WIDTH $end
$var reg 6 o# temp_data [5:0] $end
$upscope $end
$upscope $end
$scope module u_seven_segment_display $end
$var wire 1 ' clk $end
$var wire 5 p# number1 [4:0] $end
$var wire 5 q# number2 [4:0] $end
$var wire 1 + reset $end
$var wire 4 r# number2_tens [3:0] $end
$var wire 4 s# number2_ones [3:0] $end
$var wire 4 t# number1_tens [3:0] $end
$var wire 4 u# number1_ones [3:0] $end
$var wire 3 v# display_select [2:0] $end
$var parameter 7 w# A $end
$var parameter 7 x# B $end
$var parameter 7 y# C $end
$var parameter 7 z# D $end
$var parameter 7 {# E $end
$var parameter 7 |# EIGHT $end
$var parameter 7 }# F $end
$var parameter 7 ~# FIVE $end
$var parameter 7 !$ FOUR $end
$var parameter 7 "$ NINE $end
$var parameter 7 #$ ONE $end
$var parameter 7 $$ SEVEN $end
$var parameter 7 %$ SIX $end
$var parameter 7 &$ THREE $end
$var parameter 7 '$ TWO $end
$var parameter 7 ($ ZERO $end
$var reg 7 )$ a_to_g [6:0] $end
$var reg 8 *$ an [7:0] $end
$var reg 4 +$ digit_to_display [3:0] $end
$var reg 20 ,$ refresh_counter [19:0] $end
$upscope $end
$upscope $end
$scope begin $ivl_for_loop0 $end
$var integer 32 -$ i [31:0] $end
$upscope $end
$upscope $end
$enddefinitions $end
$comment Show the parameter values. $end
$dumpall
b1 ($
b10010 '$
b110 &$
b100000 %$
b1111 $$
b1001111 #$
b100 "$
b1001100 !$
b100100 ~#
b111000 }#
b0 |#
b110000 {#
b1000010 z#
b110001 y#
b1100000 x#
b1000 w#
b110 n#
b100 m#
b10000 Z
b110 Y
b101 X
b100 W
b11 V
b10 U
b1 T
b0 S
b111 R
b101 Q
b100 P
b110 C
b101 B
b100 A
b11 @
b10 ?
b1 >
b0 =
b111 <
b101 ;
b100 :
b101 %
b100 $
$end
#0
$dumpvars
bx -$
b0 ,$
b1 +$
b11111110 *$
b1001111 )$
b0 v#
b0 u#
b0 t#
b1 s#
b11 r#
b11111 q#
b0 p#
bx o#
bx l#
b0 k#
xj#
xi#
xh#
xg#
xf#
xe#
xd#
xc#
xb#
xa#
x`#
x_#
x^#
x]#
x\#
x[#
xZ#
xY#
xX#
xW#
xV#
xU#
xT#
xS#
xR#
xQ#
xP#
xO#
xN#
xM#
bx L#
bx K#
bx J#
xI#
xH#
xG#
xF#
xE#
xD#
xC#
xB#
xA#
x@#
x?#
x>#
x=#
x<#
x;#
x:#
x9#
x8#
x7#
x6#
x5#
x4#
x3#
x2#
x1#
x0#
x/#
x.#
x-#
x,#
bx +#
bx *#
bx )#
bx (#
bx '#
x&#
x%#
x$#
x##
x"#
x!#
x~"
x}"
x|"
x{"
xz"
xy"
xx"
xw"
xv"
xu"
xt"
xs"
xr"
xq"
xp"
xo"
xn"
xm"
xl"
bx k"
xj"
bx i"
xh"
xg"
xf"
xe"
xd"
xc"
xb"
xa"
x`"
x_"
x^"
x]"
x\"
x["
xZ"
xY"
xX"
xW"
xV"
xU"
xT"
xS"
xR"
xQ"
xP"
xO"
xN"
xM"
xL"
xK"
bx J"
bx I"
bx H"
xG"
xF"
xE"
xD"
xC"
xB"
xA"
x@"
x?"
x>"
x="
x<"
x;"
x:"
x9"
x8"
x7"
x6"
x5"
x4"
x3"
x2"
x1"
x0"
x/"
x."
x-"
x,"
x+"
x*"
bx )"
bx ("
bx '"
bx &"
bx %"
x$"
x#"
x""
x!"
x~
x}
x|
x{
xz
xy
xx
xw
xv
xu
xt
xs
xr
xq
xp
xo
xn
xm
xl
xk
xj
bx i
xh
bx g
xf
bx e
b0 d
xc
b0 b
xa
b0 `
b11111 _
bx ^
bx ]
bx \
bx [
b0 O
bx N
b0 M
bx L
bx K
bx J
b0 I
bx H
b0 G
b0 F
b0 E
bx D
b1001111 9
b11111110 8
bx 7
06
b11111 5
b0 4
x3
x2
b0 1
bx 0
x/
b0 .
b0 -
b100001001110111110111001001 ,
1+
0*
0)
b0 (
0'
b0 &
bx #
0"
1!
$end
#5000
b0 H
b0 l#
b0 #
b0 7
b0 [
02
b0 0
b0 e
03
0a
1/
1f
1c
b0 D
1'
#10000
0'
0+
#15000
b1 M
b1 k#
b1 b
b1 ,$
1'
#20000
0'
#25000
b10 M
b10 k#
b10 b
b10 ,$
1'
#30000
0'
#35000
b11 M
b11 k#
b11 b
b11 ,$
1'
#40000
0'
#45000
b100 M
b100 k#
b100 b
b100 ,$
1'
#50000
0'
#55000
b101 M
b101 k#
b101 b
b101 ,$
1'
#60000
0'
#65000
b110 M
b110 k#
b110 b
b110 ,$
1'
#70000
0'
#75000
b111 M
b111 k#
b111 b
b111 ,$
1'
#80000
0'
#85000
b1000 M
b1000 k#
b1000 b
b1000 ,$
1'
#90000
0'
#95000
b1001 M
b1001 k#
b1001 b
b1001 ,$
1'
#100000
0'
#105000
b1010 M
b1010 k#
b1010 b
b1010 ,$
1'
#110000
0'
#115000
b1011 M
b1011 k#
b1011 b
b1011 ,$
1'
#120000
0'
#125000
b1100 M
b1100 k#
b1100 b
b1100 ,$
1'
#130000
0'
#135000
b1101 M
b1101 k#
b1101 b
b1101 ,$
1'
#140000
0'
#145000
b1110 M
b1110 k#
b1110 b
b1110 ,$
1'
#150000
0'
#155000
b1111 M
b1111 k#
b1111 b
b1111 ,$
1'
#160000
0'
#165000
b0 M
b0 k#
b100000 H
b100000 l#
0c
b10000 ,$
1'
#170000
0'
#175000
12
b10001 ,$
1'
#180000
0'
1)
#185000
b10010 ,$
b1 D
1'
#190000
b100101 H
b100101 l#
b101 O
0'
1*
b101 (
b101 .
b101 G
b11010010110010111110111011110110 ,
#195000
b1 1
b1 E
b1 I
b10011 ,$
1'
#200000
0'
0*
#205000
b10100 ,$
1'
#210000
b101110 H
b101110 l#
b1 M
b1 k#
b1110 O
0'
b1110 (
b1110 .
b1110 G
b10111011001101101100011111111 ,
b1 &
b1 -
b1 F
#215000
b10101 ,$
1'
#220000
0'
1*
#225000
b10110 ,$
b10 D
1'
#230000
0'
0*
#235000
b10 1
b10 E
b10 I
b10111 ,$
b1 D
1'
#240000
b111110 H
b111110 l#
b10 M
b10 k#
b11110 O
0'
b11110 (
b11110 .
b11110 G
b11001111010111111011011100110100 ,
b10 &
b10 -
b10 F
#245000
b11000 ,$
b1 1
b1 E
b1 I
b11 D
1'
#250000
0'
1*
#255000
b11 1
b11 E
b11 I
b11001 ,$
b10 D
1'
#260000
0'
0*
#265000
b11010 ,$
b10 1
b10 E
b10 I
b1 D
1'
#270000
b100110 H
b100110 l#
b11 M
b11 k#
b110 O
0'
b110 (
b110 .
b110 G
b10100011001001110101100010100101 ,
b11 &
b11 -
b11 F
#275000
b1 1
b1 E
b1 I
b11011 ,$
b11 D
1'
#280000
0'
1*
#285000
b11100 ,$
b11 1
b11 E
b11 I
b10 D
1'
#290000
0'
0*
#295000
b10 1
b10 E
b10 I
b11101 ,$
b1 D
1'
#300000
b111101 H
b111101 l#
b100 M
b100 k#
b11101 O
0'
b11101 (
b11101 .
b11101 G
b11111110101001110101110100100010 ,
b100 &
b100 -
b100 F
#305000
b11110 ,$
b1 1
b1 E
b1 I
b11 D
1'
#310000
0'
1*
#315000
b11 1
b11 E
b11 I
b11111 ,$
b10 D
1'
#320000
0'
0*
#325000
b100000 ,$
b10 1
b10 E
b10 I
b1 D
1'
#330000
b110001 H
b110001 l#
b101 M
b101 k#
b10001 O
0'
b10001 (
b10001 .
b10001 G
b11001000111000100100111000111011 ,
b101 &
b101 -
b101 F
#335000
b1 1
b1 E
b1 I
b100001 ,$
b11 D
1'
#340000
0'
1*
#345000
b100010 ,$
b11 1
b11 E
b11 I
b10 D
1'
#350000
0'
0*
#355000
b10 1
b10 E
b10 I
b100011 ,$
b1 D
1'
#360000
b110010 H
b110010 l#
b110 M
b110 k#
b10010 O
0'
b10010 (
b10010 .
b10010 G
b10101001011011001010010001000000 ,
b110 &
b110 -
b110 F
#365000
b100100 ,$
b1 1
b1 E
b1 I
b11 D
1'
#370000
0'
1*
#375000
b11 1
b11 E
b11 I
b100101 ,$
b10 D
1'
#380000
0'
0*
#385000
b100110 ,$
b10 1
b10 E
b10 I
b1 D
1'
#390000
b101001 H
b101001 l#
b111 M
b111 k#
b1001 O
0'
b1001 (
b1001 .
b1001 G
b11010100100101101100011101000001 ,
b111 &
b111 -
b111 F
#395000
b1 1
b1 E
b1 I
b100111 ,$
b11 D
1'
#400000
0'
1*
#405000
b101000 ,$
b11 1
b11 E
b11 I
b10 D
1'
#410000
0'
0*
#415000
b10 1
b10 E
b10 I
b101001 ,$
b1 D
1'
#420000
b111000 H
b111000 l#
b1000 M
b1000 k#
b11000 O
0'
b11000 (
b11000 .
b11000 G
b10101100000111001101110000001110 ,
b1000 &
b1000 -
b1000 F
#425000
b101010 ,$
b1 1
b1 E
b1 I
b11 D
1'
#430000
0'
1*
#435000
b11 1
b11 E
b11 I
b101011 ,$
b10 D
1'
#440000
0'
0*
#445000
b101100 ,$
b10 1
b10 E
b10 I
b1 D
1'
#450000
b101100 H
b101100 l#
b1001 M
b1001 k#
b1100 O
0'
b1100 (
b1100 .
b1100 G
b100110010101101110110100110111 ,
b1001 &
b1001 -
b1001 F
#455000
b1 1
b1 E
b1 I
b101101 ,$
b11 D
1'
#460000
0'
1*
#465000
b101110 ,$
b11 1
b11 E
b11 I
b10 D
1'
#470000
0'
0*
#475000
b10 1
b10 E
b10 I
b101111 ,$
b1 D
1'
#480000
b110101 H
b110101 l#
b1010 M
b1010 k#
b10101 O
0'
b10101 (
b10101 .
b10101 G
b1010110111101100000000001100 ,
b1010 &
b1010 -
b1010 F
#485000
b110000 ,$
b1 1
b1 E
b1 I
b11 D
1'
#490000
0'
1*
#495000
b11 1
b11 E
b11 I
b110001 ,$
b10 D
1'
#500000
0'
0*
#505000
b110010 ,$
b10 1
b10 E
b10 I
b1 D
1'
#510000
b101000 H
b101000 l#
b1011 M
b1011 k#
b1000 O
0'
b1000 (
b1000 .
b1000 G
b11000100001011000110010110011101 ,
b1011 &
b1011 -
b1011 F
#515000
b1 1
b1 E
b1 I
b110011 ,$
b11 D
1'
#520000
0'
1*
#525000
b110100 ,$
b11 1
b11 E
b11 I
b10 D
1'
#530000
0'
0*
#535000
b10 1
b10 E
b10 I
b110101 ,$
b1 D
1'
#540000
b111100 H
b111100 l#
b1100 M
b1100 k#
b11100 O
0'
b11100 (
b11100 .
b11100 G
b10111110010100110101011110111010 ,
b1100 &
b1100 -
b1100 F
#545000
b110110 ,$
b1 1
b1 E
b1 I
b11 D
1'
#550000
0'
1*
#555000
b11 1
b11 E
b11 I
b110111 ,$
b10 D
1'
#560000
0'
0*
#565000
b111000 ,$
b10 1
b10 E
b10 I
b1 D
1'
#570000
b110111 H
b110111 l#
b1101 M
b1101 k#
b10111 O
0'
b10111 (
b10111 .
b10111 G
b11111011111010111011000111110011 ,
b1101 &
b1101 -
b1101 F
#575000
b1 1
b1 E
b1 I
b111001 ,$
b11 D
1'
#580000
0'
1*
#585000
b111010 ,$
b11 1
b11 E
b11 I
b10 D
1'
#590000
0'
0*
#595000
b10 1
b10 E
b10 I
b111011 ,$
b1 D
1'
#600000
b101011 H
b101011 l#
b1110 M
b1110 k#
b1011 O
0'
b1011 (
b1011 .
b1011 G
b1100101101110011101011010011000 ,
b1110 &
b1110 -
b1110 F
#605000
b111100 ,$
b1 1
b1 E
b1 I
b11 D
1'
#610000
0'
1*
#615000
b11 1
b11 E
b11 I
b111101 ,$
b10 D
1'
#620000
0'
0*
#625000
b111110 ,$
b10 1
b10 E
b10 I
b1 D
1'
#630000
b111000 H
b111000 l#
b1111 M
b1111 k#
b11000 O
0'
b11000 (
b11000 .
b11000 G
b10111100010011101000111110111001 ,
b1111 &
b1111 -
b1111 F
#635000
b1 1
b1 E
b1 I
b111111 ,$
b11 D
1'
#640000
0'
0)
1*
#645000
b1000000 ,$
b11 1
b11 E
b11 I
b10 D
1'
#650000
0'
#655000
b10 1
b10 E
b10 I
b1000001 ,$
b100 D
1'
#660000
0'
#665000
b0 M
b0 k#
b1000010 ,$
b100 1
b100 E
b100 I
b11 D
1'
#670000
0'
#675000
b1111 M
b1111 k#
bx H
bx l#
0/
0f
13
1a
b11 1
b11 E
b11 I
b1000011 ,$
b101 D
1'
#680000
0'
#685000
b0 M
b0 k#
b111000 H
b111000 l#
b111000 o#
bx #
bx 7
bx [
b1000100 ,$
b101 1
b101 E
b101 I
b100 D
1'
#690000
0'
#695000
0R#
0X#
0^#
11#
17#
1=#
0>#
1C#
0D#
b11111 J
b11111 (#
b11111 +#
1I#
0M#
0S#
0Y#
0_#
1d#
0e#
b11000 L
b11000 '#
b11000 L#
1j#
1A"
1G"
00#
1-#
06#
13#
0<#
19#
0B#
1?#
0H#
1E#
0Q#
0W#
0]#
0c#
1`#
0i#
1f#
1<"
1B"
0b"
0h"
0$#
1j"
1&#
1%#
1."
14"
1:"
1@"
1F"
1O"
1U"
1["
1a"
0^"
1g"
0d"
0r"
0w"
0v"
1t"
0h
0$"
0#"
0""
1x"
1y"
1z"
0{"
0|"
0u"
0s"
1q"
0s
0q
0o
0u
0t
0r
0p
0/"
05"
b11000 N
b11000 &"
b11000 )"
0;"
0P"
0V"
b0 K
b0 %"
b0 J"
0\"
1{
1|
1}
0~
0!"
0*"
00"
06"
0L"
0R"
0X"
1}"
1~"
1!#
0"#
0##
0,#
02#
08#
0N#
0T#
0Z#
0l"
0m"
0n"
1o"
1p"
1j
1k
1l
0m
0n
0v
0w
0x
0y
0z
0+"
01"
07"
0="
0C"
0K"
0Q"
0W"
0]"
0c"
0,"
02"
08"
1>"
1D"
0N"
0T"
0Z"
1`"
1f"
0.#
04#
0:#
1@#
1F#
0P#
0V#
0\#
1b#
1h#
1/#
15#
1;#
1A#
1G#
1O#
1U#
1[#
1a#
1g#
0-"
03"
09"
0?"
0E"
0M"
0S"
0Y"
0_"
0e"
b11000 ]
b11000 i
b11000 '"
b11000 I"
b11000 k"
b11000 )#
b11000 K#
b11111 ^
b11111 i"
b11111 *#
b11111 J#
b0 \
b0 g
b0 ("
b0 H"
b11000 #
b11000 7
b11000 [
b100 1
b100 E
b100 I
b1000101 ,$
b110 D
1'
#700000
0'
#705000
b1000110 ,$
b110 1
b110 E
b110 I
b101 D
1'
#710000
0'
#715000
b1 M
b1 k#
b1001100 9
b1001100 )$
b100 +$
b10 r#
b100 s#
b10 t#
b100 u#
b1 d
b11000 5
b11000 _
b11000 q#
b11000 4
b11000 `
b11000 p#
b101 1
b101 E
b101 I
b1000111 ,$
b100 D
1'
#720000
0'
#725000
1>#
1C#
1D#
1I#
1_#
1d#
1e#
b11000 L
b11000 '#
b11000 L#
1j#
10#
16#
1<#
1B#
0?#
1H#
0E#
1Q#
1W#
1]#
1c#
0`#
1i#
0f#
0j"
0&#
1s
0%#
1q
1u"
1s"
0t"
01#
07#
b11000 J
b11000 (#
b11000 +#
0=#
1o
1b"
b11000 K
b11000 %"
b11000 J"
1h"
1l"
1m"
1n"
0x"
0y"
0z"
0-#
03#
09#
1m
1n
1]"
1c"
b101110 H
b101110 l#
0/#
05#
0;#
0O#
0U#
0[#
1?"
1E"
1_"
1e"
b101110 o#
b1 0
b1 e
b11000 ^
b11000 i"
b11000 *#
b11000 J#
b11000 \
b11000 g
b11000 ("
b11000 H"
b1001000 ,$
b100 1
b100 E
b100 I
b110 D
1'
#730000
0'
#735000
b1110 #
b1110 7
b1110 [
b110 1
b110 E
b110 I
b1001001 ,$
b101 D
1'
#740000
0'
0*
#745000
b10 M
b10 k#
b10 d
b1001010 ,$
b101 1
b101 E
b101 I
b100 D
1'
#750000
0'
b10 &
b10 -
b10 F
#755000
0h"
0j#
0<"
1V"
b1110 K
b1110 %"
b1110 J"
1\"
0]"
0c"
0>#
1X#
b1110 L
b1110 '#
b1110 L#
1^#
0_#
0e#
0."
04"
0:"
0@"
1="
0F"
1C"
0O"
0U"
1R"
0["
1X"
0a"
1^"
0g"
00#
06#
0<#
0B#
1?#
0H#
1E#
0Q#
0W#
1T#
0]#
1Z#
0c#
1`#
0i#
1h
1j"
1$"
1&#
1#"
1%#
1""
1$#
0s
0q
0o
1z
05"
0;"
b11000 N
b11000 &"
b11000 )"
1G"
0u"
0s"
0q"
1|"
07#
0=#
b11000 J
b11000 (#
b11000 +#
1I#
0k
0l
0n
0|
0}
1!"
00"
06"
0B"
0m"
0n"
0p"
0~"
0!#
1##
02#
08#
0D#
12"
18"
0D"
1T"
1Z"
0f"
14#
1:#
0F#
1V#
1\#
0h#
b111110 H
b111110 l#
b1110 ]
b1110 i
b1110 '"
b1110 I"
b1110 k"
b1110 )#
b1110 K#
b10 0
b10 e
b111110 o#
b100 1
b100 E
b100 I
b1001011 ,$
b110 D
1'
#760000
0'
#765000
b11110 #
b11110 7
b11110 [
b1001100 ,$
b110 1
b110 E
b110 I
b101 D
1'
#770000
0'
#775000
b11 M
b11 k#
b1 r#
b11 d
b1110 5
b1110 _
b1110 q#
b101 1
b101 E
b101 I
b1001101 ,$
b100 D
1'
#780000
0'
