min_mex_tb.vcd
$date
	Sun Mar 30 12:03:54 2025
$end
$version
	Icarus Verilog
$end
$timescale
	1ps
$end
$scope module min_mex_tb $end
$var event 1 ! _ivl_0 $end
$var wire 1 " outValid $end
$var wire 5 # data_out [4:0] $end
$var parameter 32 $ ADDR_WIDTH $end
$var parameter 32 % DATA_WIDTH $end
$var reg 4 & addr [3:0] $end
$var reg 1 ' clk $end
$var reg 5 ( data [4:0] $end
$var reg 1 ) dataValid $end
$var reg 1 * read $end
$var reg 1 + reset $end
$var reg 32 , seed [31:0] $end
$scope module dut $end
$var wire 4 - addr [3:0] $end
$var wire 1 ' clk $end
$var wire 5 . data [4:0] $end
$var wire 1 ) dataValid $end
$var wire 1 * read $end
$var wire 1 + reset $end
$var wire 1 / we $end
$var wire 3 0 temp_addr [2:0] $end
$var wire 4 1 state [3:0] $end
$var wire 1 2 resetComplete $end
$var wire 1 3 re $end
$var wire 1 " outValid $end
$var wire 5 4 mx [4:0] $end
$var wire 5 5 mn [4:0] $end
$var wire 1 6 dp_done $end
$var wire 5 7 data_out [4:0] $end
$var wire 8 8 an [7:0] $end
$var wire 7 9 a_to_g [6:0] $end
$var parameter 32 : ADDR_WIDTH $end
$var parameter 32 ; DATA_WIDTH $end
$scope module control_unit $end
$var wire 1 ' clk $end
$var wire 1 ) dataValid $end
$var wire 1 * read $end
$var wire 1 + reset $end
$var wire 1 2 resetComplete $end
$var wire 1 " outValid $end
$var wire 1 6 dp_done $end
$var parameter 4 < S_DONE $end
$var parameter 4 = S_IDLE $end
$var parameter 4 > S_READ $end
$var parameter 4 ? S_READ_INTERMEDIATE_1 $end
$var parameter 4 @ S_READ_INTERMEDIATE_2 $end
$var parameter 4 A S_RUN $end
$var parameter 4 B S_RUN_INTERMEDIATE_1 $end
$var parameter 4 C S_RUN_INTERMEDIATE_2 $end
$var parameter 4 D S_RUN_PRE $end
$var reg 4 E nxt_state [3:0] $end
$var reg 4 F state [3:0] $end
$upscope $end
$scope module datapath_unit $end
$var wire 4 G addr [3:0] $end
$var wire 1 ' clk $end
$var wire 5 H data_in [4:0] $end
$var wire 6 I mem_data [5:0] $end
$var wire 1 + reset $end
$var wire 1 3 rew $end
$var wire 4 J state [3:0] $end
$var wire 1 / wew $end
$var wire 5 K tmp_2 [4:0] $end
$var wire 5 L tmp_1 [4:0] $end
$var wire 5 M sm [4:0] $end
$var wire 4 N mem_addr [3:0] $end
$var wire 5 O gre [4:0] $end
$var wire 5 P data_mem [4:0] $end
$var parameter 32 Q ADDR_WIDTH $end
$var parameter 32 R DATA_WIDTH $end
$var parameter 4 S S_DONE $end
$var parameter 4 T S_IDLE $end
$var parameter 4 U S_READ $end
$var parameter 4 V S_READ_INTERMEDIATE_1 $end
$var parameter 4 W S_READ_INTERMEDIATE_2 $end
$var parameter 4 X S_RUN $end
$var parameter 4 Y S_RUN_INTERMEDIATE_1 $end
$var parameter 4 Z S_RUN_INTERMEDIATE_2 $end
$var parameter 4 [ S_RUN_PRE $end
$var parameter 36 \ depth $end
$var reg 5 ] data_out [4:0] $end
$var reg 1 6 dp_done $end
$var reg 5 ^ in1 [4:0] $end
$var reg 5 _ in2 [4:0] $end
$var reg 5 ` in3 [4:0] $end
$var reg 5 a mn [4:0] $end
$var reg 5 b mx [4:0] $end
$var reg 1 c re $end
$var reg 5 d resetAddr [4:0] $end
$var reg 1 2 resetComplete $end
$var reg 1 e resetting $end
$var reg 4 f temp_addr [3:0] $end
$var reg 3 g tempaddr [2:0] $end
$var reg 1 h we $end
$scope module cmp $end
$var wire 5 i A [4:0] $end
$var wire 1 j A_gt_B $end
$var wire 5 k B [4:0] $end
$var wire 1 l eq0 $end
$var wire 1 m eq1 $end
$var wire 1 n eq2 $end
$var wire 1 o eq3 $end
$var wire 1 p eq4 $end
$var wire 1 q eq4_and_eq3 $end
$var wire 1 r eq4_and_gt3 $end
$var wire 1 s eq4_eq3_and_eq2 $end
$var wire 1 t eq4_eq3_and_gt2 $end
$var wire 1 u eq4_eq3_eq2_and_eq1 $end
$var wire 1 v eq4_eq3_eq2_and_gt1 $end
$var wire 1 w eq4_eq3_eq2_eq1_and_gt0 $end
$var wire 1 x gt0 $end
$var wire 1 y gt1 $end
$var wire 1 z gt2 $end
$var wire 1 { gt3 $end
$var wire 1 | gt4 $end
$var wire 1 } not_B0 $end
$var wire 1 ~ not_B1 $end
$var wire 1 !" not_B2 $end
$var wire 1 "" not_B3 $end
$var wire 1 #" not_B4 $end
$var wire 1 $" or_temp1 $end
$var wire 1 %" or_temp2 $end
$var wire 1 &" or_temp3 $end
$var wire 5 '" smaller [4:0] $end
$var wire 5 (" greater [4:0] $end
$scope module greater_mux $end
$var wire 5 )" in0 [4:0] $end
$var wire 5 *" in1 [4:0] $end
$var wire 1 j sel $end
$var wire 5 +" out [4:0] $end
$scope module mux0 $end
$var wire 1 ," and_in0 $end
$var wire 1 -" and_in1 $end
$var wire 1 ." in0 $end
$var wire 1 /" in1 $end
$var wire 1 0" not_sel $end
$var wire 1 1" out $end
$var wire 1 j sel $end
$upscope $end
$scope module mux1 $end
$var wire 1 2" and_in0 $end
$var wire 1 3" and_in1 $end
$var wire 1 4" in0 $end
$var wire 1 5" in1 $end
$var wire 1 6" not_sel $end
$var wire 1 7" out $end
$var wire 1 j sel $end
$upscope $end
$scope module mux2 $end
$var wire 1 8" and_in0 $end
$var wire 1 9" and_in1 $end
$var wire 1 :" in0 $end
$var wire 1 ;" in1 $end
$var wire 1 <" not_sel $end
$var wire 1 =" out $end
$var wire 1 j sel $end
$upscope $end
$scope module mux3 $end
$var wire 1 >" and_in0 $end
$var wire 1 ?" and_in1 $end
$var wire 1 @" in0 $end
$var wire 1 A" in1 $end
$var wire 1 B" not_sel $end
$var wire 1 C" out $end
$var wire 1 j sel $end
$upscope $end
$scope module mux4 $end
$var wire 1 D" and_in0 $end
$var wire 1 E" and_in1 $end
$var wire 1 F" in0 $end
$var wire 1 G" in1 $end
$var wire 1 H" not_sel $end
$var wire 1 I" out $end
$var wire 1 j sel $end
$upscope $end
$upscope $end
$scope module smaller_mux $end
$var wire 5 J" in0 [4:0] $end
$var wire 5 K" in1 [4:0] $end
$var wire 1 j sel $end
$var wire 5 L" out [4:0] $end
$scope module mux0 $end
$var wire 1 M" and_in0 $end
$var wire 1 N" and_in1 $end
$var wire 1 O" in0 $end
$var wire 1 P" in1 $end
$var wire 1 Q" not_sel $end
$var wire 1 R" out $end
$var wire 1 j sel $end
$upscope $end
$scope module mux1 $end
$var wire 1 S" and_in0 $end
$var wire 1 T" and_in1 $end
$var wire 1 U" in0 $end
$var wire 1 V" in1 $end
$var wire 1 W" not_sel $end
$var wire 1 X" out $end
$var wire 1 j sel $end
$upscope $end
$scope module mux2 $end
$var wire 1 Y" and_in0 $end
$var wire 1 Z" and_in1 $end
$var wire 1 [" in0 $end
$var wire 1 \" in1 $end
$var wire 1 ]" not_sel $end
$var wire 1 ^" out $end
$var wire 1 j sel $end
$upscope $end
$scope module mux3 $end
$var wire 1 _" and_in0 $end
$var wire 1 `" and_in1 $end
$var wire 1 a" in0 $end
$var wire 1 b" in1 $end
$var wire 1 c" not_sel $end
$var wire 1 d" out $end
$var wire 1 j sel $end
$upscope $end
$scope module mux4 $end
$var wire 1 e" and_in0 $end
$var wire 1 f" and_in1 $end
$var wire 1 g" in0 $end
$var wire 1 h" in1 $end
$var wire 1 i" not_sel $end
$var wire 1 j" out $end
$var wire 1 j sel $end
$upscope $end
$upscope $end
$upscope $end
$scope module cmp_2 $end
$var wire 5 k" A [4:0] $end
$var wire 1 l" A_gt_B $end
$var wire 5 m" B [4:0] $end
$var wire 1 n" eq0 $end
$var wire 1 o" eq1 $end
$var wire 1 p" eq2 $end
$var wire 1 q" eq3 $end
$var wire 1 r" eq4 $end
$var wire 1 s" eq4_and_eq3 $end
$var wire 1 t" eq4_and_gt3 $end
$var wire 1 u" eq4_eq3_and_eq2 $end
$var wire 1 v" eq4_eq3_and_gt2 $end
$var wire 1 w" eq4_eq3_eq2_and_eq1 $end
$var wire 1 x" eq4_eq3_eq2_and_gt1 $end
$var wire 1 y" eq4_eq3_eq2_eq1_and_gt0 $end
$var wire 1 z" gt0 $end
$var wire 1 {" gt1 $end
$var wire 1 |" gt2 $end
$var wire 1 }" gt3 $end
$var wire 1 ~" gt4 $end
$var wire 1 !# not_B0 $end
$var wire 1 "# not_B1 $end
$var wire 1 ## not_B2 $end
$var wire 1 $# not_B3 $end
$var wire 1 %# not_B4 $end
$var wire 1 &# or_temp1 $end
$var wire 1 '# or_temp2 $end
$var wire 1 (# or_temp3 $end
$var wire 5 )# smaller [4:0] $end
$var wire 5 *# greater [4:0] $end
$scope module greater_mux $end
$var wire 5 +# in0 [4:0] $end
$var wire 5 ,# in1 [4:0] $end
$var wire 1 l" sel $end
$var wire 5 -# out [4:0] $end
$scope module mux0 $end
$var wire 1 .# and_in0 $end
$var wire 1 /# and_in1 $end
$var wire 1 0# in0 $end
$var wire 1 1# in1 $end
$var wire 1 2# not_sel $end
$var wire 1 3# out $end
$var wire 1 l" sel $end
$upscope $end
$scope module mux1 $end
$var wire 1 4# and_in0 $end
$var wire 1 5# and_in1 $end
$var wire 1 6# in0 $end
$var wire 1 7# in1 $end
$var wire 1 8# not_sel $end
$var wire 1 9# out $end
$var wire 1 l" sel $end
$upscope $end
$scope module mux2 $end
$var wire 1 :# and_in0 $end
$var wire 1 ;# and_in1 $end
$var wire 1 <# in0 $end
$var wire 1 =# in1 $end
$var wire 1 ># not_sel $end
$var wire 1 ?# out $end
$var wire 1 l" sel $end
$upscope $end
$scope module mux3 $end
$var wire 1 @# and_in0 $end
$var wire 1 A# and_in1 $end
$var wire 1 B# in0 $end
$var wire 1 C# in1 $end
$var wire 1 D# not_sel $end
$var wire 1 E# out $end
$var wire 1 l" sel $end
$upscope $end
$scope module mux4 $end
$var wire 1 F# and_in0 $end
$var wire 1 G# and_in1 $end
$var wire 1 H# in0 $end
$var wire 1 I# in1 $end
$var wire 1 J# not_sel $end
$var wire 1 K# out $end
$var wire 1 l" sel $end
$upscope $end
$upscope $end
$scope module smaller_mux $end
$var wire 5 L# in0 [4:0] $end
$var wire 5 M# in1 [4:0] $end
$var wire 1 l" sel $end
$var wire 5 N# out [4:0] $end
$scope module mux0 $end
$var wire 1 O# and_in0 $end
$var wire 1 P# and_in1 $end
$var wire 1 Q# in0 $end
$var wire 1 R# in1 $end
$var wire 1 S# not_sel $end
$var wire 1 T# out $end
$var wire 1 l" sel $end
$upscope $end
$scope module mux1 $end
$var wire 1 U# and_in0 $end
$var wire 1 V# and_in1 $end
$var wire 1 W# in0 $end
$var wire 1 X# in1 $end
$var wire 1 Y# not_sel $end
$var wire 1 Z# out $end
$var wire 1 l" sel $end
$upscope $end
$scope module mux2 $end
$var wire 1 [# and_in0 $end
$var wire 1 \# and_in1 $end
$var wire 1 ]# in0 $end
$var wire 1 ^# in1 $end
$var wire 1 _# not_sel $end
$var wire 1 `# out $end
$var wire 1 l" sel $end
$upscope $end
$scope module mux3 $end
$var wire 1 a# and_in0 $end
$var wire 1 b# and_in1 $end
$var wire 1 c# in0 $end
$var wire 1 d# in1 $end
$var wire 1 e# not_sel $end
$var wire 1 f# out $end
$var wire 1 l" sel $end
$upscope $end
$scope module mux4 $end
$var wire 1 g# and_in0 $end
$var wire 1 h# and_in1 $end
$var wire 1 i# in0 $end
$var wire 1 j# in1 $end
$var wire 1 k# not_sel $end
$var wire 1 l# out $end
$var wire 1 l" sel $end
$upscope $end
$upscope $end
$upscope $end
$scope module m $end
$var wire 4 m# addr [3:0] $end
$var wire 1 ' clk $end
$var wire 6 n# data [5:0] $end
$var wire 1 c readEnable $end
$var wire 1 h writeEnable $end
$var parameter 32 o# ADDR_WIDTH $end
$var parameter 33 p# DATA_WIDTH $end
$var reg 6 q# temp_data [5:0] $end
$upscope $end
$upscope $end
$scope module u_seven_segment_display $end
$var wire 1 ' clk $end
$var wire 5 r# number1 [4:0] $end
$var wire 5 s# number2 [4:0] $end
$var wire 1 + reset $end
$var wire 4 t# number2_tens [3:0] $end
$var wire 4 u# number2_ones [3:0] $end
$var wire 4 v# number1_tens [3:0] $end
$var wire 4 w# number1_ones [3:0] $end
$var wire 3 x# display_select [2:0] $end
$var parameter 7 y# A $end
$var parameter 7 z# B $end
$var parameter 7 {# C $end
$var parameter 7 |# D $end
$var parameter 7 }# E $end
$var parameter 7 ~# EIGHT $end
$var parameter 7 !$ F $end
$var parameter 7 "$ FIVE $end
$var parameter 7 #$ FOUR $end
$var parameter 7 $$ NINE $end
$var parameter 7 %$ ONE $end
$var parameter 7 &$ SEVEN $end
$var parameter 7 '$ SIX $end
$var parameter 7 ($ THREE $end
$var parameter 7 )$ TWO $end
$var parameter 7 *$ ZERO $end
$var reg 7 +$ a_to_g [6:0] $end
$var reg 8 ,$ an [7:0] $end
$var reg 4 -$ digit_to_display [3:0] $end
$var reg 20 .$ refresh_counter [19:0] $end
$upscope $end
$upscope $end
$scope begin $ivl_for_loop0 $end
$var integer 32 /$ i [31:0] $end
$upscope $end
$upscope $end
$enddefinitions $end
$comment Show the parameter values. $end
$dumpall
b1 *$
b10010 )$
b110 ($
b100000 '$
b1111 &$
b1001111 %$
b100 $$
b1001100 #$
b100100 "$
b111000 !$
b0 ~#
b110000 }#
b1000010 |#
b110001 {#
b1100000 z#
b1000 y#
b110 p#
b100 o#
b10000 \
b100 [
b111 Z
b110 Y
b101 X
b11 W
b10 V
b1 U
b0 T
b1000 S
b101 R
b100 Q
b100 D
b111 C
b110 B
b101 A
b11 @
b10 ?
b1 >
b0 =
b1000 <
b101 ;
b100 :
b101 %
b100 $
$end
#0
$dumpvars
bx /$
b0 .$
b1 -$
b11111110 ,$
b1001111 +$
b0 x#
b0 w#
b0 v#
b1 u#
b11 t#
b11111 s#
b0 r#
bx q#
bx n#
b0 m#
xl#
xk#
xj#
xi#
xh#
xg#
xf#
xe#
xd#
xc#
xb#
xa#
x`#
x_#
x^#
x]#
x\#
x[#
xZ#
xY#
xX#
xW#
xV#
xU#
xT#
xS#
xR#
xQ#
xP#
xO#
bx N#
bx M#
bx L#
xK#
xJ#
xI#
xH#
xG#
xF#
xE#
xD#
xC#
xB#
xA#
x@#
x?#
x>#
x=#
x<#
x;#
x:#
x9#
x8#
x7#
x6#
x5#
x4#
x3#
x2#
x1#
x0#
x/#
x.#
bx -#
bx ,#
bx +#
bx *#
bx )#
x(#
x'#
x&#
x%#
x$#
x##
x"#
x!#
x~"
x}"
x|"
x{"
xz"
xy"
xx"
xw"
xv"
xu"
xt"
xs"
xr"
xq"
xp"
xo"
xn"
bx m"
xl"
bx k"
xj"
xi"
xh"
xg"
xf"
xe"
xd"
xc"
xb"
xa"
x`"
x_"
x^"
x]"
x\"
x["
xZ"
xY"
xX"
xW"
xV"
xU"
xT"
xS"
xR"
xQ"
xP"
xO"
xN"
xM"
bx L"
bx K"
bx J"
xI"
xH"
xG"
xF"
xE"
xD"
xC"
xB"
xA"
x@"
x?"
x>"
x="
x<"
x;"
x:"
x9"
x8"
x7"
x6"
x5"
x4"
x3"
x2"
x1"
x0"
x/"
x."
x-"
x,"
bx +"
bx *"
bx )"
bx ("
bx '"
x&"
x%"
x$"
x#"
x""
x!"
x~
x}
x|
x{
xz
xy
xx
xw
xv
xu
xt
xs
xr
xq
xp
xo
xn
xm
xl
bx k
xj
bx i
xh
bx g
b0 f
xe
b0 d
xc
b0 b
b11111 a
bx `
bx _
bx ^
bx ]
b0 P
bx O
b0 N
bx M
bx L
bx K
b0 J
bx I
b0 H
b0 G
b0 F
bx E
b1001111 9
b11111110 8
bx 7
06
b11111 5
b0 4
x3
x2
b0 1
bx 0
x/
b0 .
b0 -
b1001011101111110010100011 ,
1+
0*
0)
b0 (
0'
b0 &
bx #
0"
1!
$end
#5000
b0 I
b0 n#
b0 #
b0 7
b0 ]
02
b0 0
b0 g
03
0c
1/
1h
1e
b0 E
1'
#10000
0'
0+
#15000
b1 N
b1 m#
b1 d
b1 .$
1'
#20000
0'
#25000
b10 N
b10 m#
b10 d
b10 .$
1'
#30000
0'
#35000
b11 N
b11 m#
b11 d
b11 .$
1'
#40000
0'
#45000
b100 N
b100 m#
b100 d
b100 .$
1'
#50000
0'
#55000
b101 N
b101 m#
b101 d
b101 .$
1'
#60000
0'
#65000
b110 N
b110 m#
b110 d
b110 .$
1'
#70000
0'
#75000
b111 N
b111 m#
b111 d
b111 .$
1'
#80000
0'
#85000
b1000 N
b1000 m#
b1000 d
b1000 .$
1'
#90000
0'
#95000
b1001 N
b1001 m#
b1001 d
b1001 .$
1'
#100000
0'
#105000
b1010 N
b1010 m#
b1010 d
b1010 .$
1'
#110000
0'
#115000
b1011 N
b1011 m#
b1011 d
b1011 .$
1'
#120000
0'
#125000
b1100 N
b1100 m#
b1100 d
b1100 .$
1'
#130000
0'
#135000
b1101 N
b1101 m#
b1101 d
b1101 .$
1'
#140000
0'
#145000
b1110 N
b1110 m#
b1110 d
b1110 .$
1'
#150000
0'
#155000
b1111 N
b1111 m#
b1111 d
b1111 .$
1'
#160000
0'
#165000
b0 N
b0 m#
b100000 I
b100000 n#
0e
b10000 .$
1'
#170000
0'
#175000
12
b10001 .$
1'
#180000
0'
1)
#185000
b10010 .$
b1 E
1'
#190000
b100100 I
b100100 n#
b100 P
0'
1*
b100 (
b100 .
b100 H
b1010010000101111001010110001000 ,
#195000
b1 1
b1 F
b1 J
b10011 .$
1'
#200000
0'
0*
#205000
b10100 .$
1'
#210000
b101010 I
b101010 n#
b1 N
b1 m#
b1010 P
0'
b1010 (
b1010 .
b1010 H
b10000101000000101010010111101001 ,
b1 &
b1 -
b1 G
#215000
b10101 .$
1'
#220000
0'
1*
#225000
b10110 .$
b10 E
1'
#230000
0'
0*
#235000
b10 1
b10 F
b10 J
b10111 .$
b1 E
1'
#240000
b110110 I
b110110 n#
b10 N
b10 m#
b10110 P
0'
b10110 (
b10110 .
b10110 H
b1001011011101001011000010010110 ,
b10 &
b10 -
b10 G
#245000
b11000 .$
b1 1
b1 F
b1 J
b11 E
1'
#250000
0'
1*
#255000
b11 1
b11 F
b11 J
b11001 .$
b10 E
1'
#260000
0'
0*
#265000
b11010 .$
b10 1
b10 F
b10 J
b1 E
1'
#270000
b110011 I
b110011 n#
b11 N
b11 m#
b10011 P
0'
b10011 (
b10011 .
b10011 H
b1001111111110000011000011111 ,
b11 &
b11 -
b11 G
#275000
b1 1
b1 F
b1 J
b11011 .$
b11 E
1'
#280000
0'
1*
#285000
b11100 .$
b11 1
b11 F
b11 J
b10 E
1'
#290000
0'
0*
#295000
b10 1
b10 F
b10 J
b11101 .$
b1 E
1'
#300000
b110101 I
b110101 n#
b100 N
b100 m#
b10101 P
0'
b10101 (
b10101 .
b10101 H
b11111010101001100111100111010100 ,
b100 &
b100 -
b100 G
#305000
b11110 .$
b1 1
b1 F
b1 J
b11 E
1'
#310000
0'
1*
#315000
b11 1
b11 F
b11 J
b11111 .$
b10 E
1'
#320000
0'
0*
#325000
b100000 .$
b10 1
b10 F
b10 J
b1 E
1'
#330000
b101010 I
b101010 n#
b101 N
b101 m#
b1010 P
0'
b1010 (
b1010 .
b1010 H
b10100101010100110101001011000101 ,
b101 &
b101 -
b101 G
#335000
b1 1
b1 F
b1 J
b100001 .$
b11 E
1'
#340000
0'
1*
#345000
b100010 .$
b11 1
b11 F
b11 J
b10 E
1'
#350000
0'
0*
#355000
b10 1
b10 F
b10 J
b100011 .$
b1 E
1'
#360000
b100011 I
b100011 n#
b110 N
b110 m#
b11 P
0'
b11 (
b11 .
b11 H
b11110001101100100100100011000010 ,
b110 &
b110 -
b110 G
#365000
b100100 .$
b1 1
b1 F
b1 J
b11 E
1'
#370000
0'
1*
#375000
b11 1
b11 F
b11 J
b100101 .$
b10 E
1'
#380000
0'
0*
#385000
b100110 .$
b10 1
b10 F
b10 J
b1 E
1'
#390000
b100100 I
b100100 n#
b111 N
b111 m#
b100 P
0'
b100 (
b100 .
b100 H
b11100010001110000001110101011011 ,
b111 &
b111 -
b111 G
#395000
b1 1
b1 F
b1 J
b100111 .$
b11 E
1'
#400000
0'
1*
#405000
b101000 .$
b11 1
b11 F
b11 J
b10 E
1'
#410000
0'
0*
#415000
b10 1
b10 F
b10 J
b101001 .$
b1 E
1'
#420000
b111011 I
b111011 n#
b1000 N
b1000 m#
b11011 P
0'
b11011 (
b11011 .
b11011 H
b11101110010000010000011100000 ,
b1000 &
b1000 -
b1000 G
#425000
b101010 .$
b1 1
b1 F
b1 J
b11 E
1'
#430000
0'
1*
#435000
b11 1
b11 F
b11 J
b101011 .$
b10 E
1'
#440000
0'
0*
#445000
b101100 .$
b10 1
b10 F
b10 J
b1 E
1'
#450000
b100111 I
b100111 n#
b1001 N
b1001 m#
b111 P
0'
b111 (
b111 .
b111 H
b100011110011011011001101100001 ,
b1001 &
b1001 -
b1001 G
#455000
b1 1
b1 F
b1 J
b101101 .$
b11 E
1'
#460000
0'
1*
#465000
b101110 .$
b11 1
b11 F
b11 J
b10 E
1'
#470000
0'
0*
#475000
b10 1
b10 F
b10 J
b101111 .$
b1 E
1'
#480000
b100010 I
b100010 n#
b1010 N
b1010 m#
b10 P
0'
b10 (
b10 .
b10 H
b11010001001101011001000110101110 ,
b1010 &
b1010 -
b1010 G
#485000
b110000 .$
b1 1
b1 F
b1 J
b11 E
1'
#490000
0'
1*
#495000
b11 1
b11 F
b11 J
b110001 .$
b10 E
1'
#500000
0'
0*
#505000
b110010 .$
b10 1
b10 F
b10 J
b1 E
1'
#510000
b100011 I
b100011 n#
b1011 N
b1011 m#
b11 P
0'
b11 (
b11 .
b11 H
b11010001111110010111111001010111 ,
b1011 &
b1011 -
b1011 G
#515000
b1 1
b1 F
b1 J
b110011 .$
b11 E
1'
#520000
0'
1*
#525000
b110100 .$
b11 1
b11 F
b11 J
b10 E
1'
#530000
0'
0*
#535000
b10 1
b10 F
b10 J
b110101 .$
b1 E
1'
#540000
b111101 I
b111101 n#
b1100 N
b1100 m#
b11101 P
0'
b11101 (
b11101 .
b11101 H
b1001110100010111001011010101100 ,
b1100 &
b1100 -
b1100 G
#545000
b110110 .$
b1 1
b1 F
b1 J
b11 E
1'
#550000
0'
1*
#555000
b11 1
b11 F
b11 J
b110111 .$
b10 E
1'
#560000
0'
0*
#565000
b111000 .$
b10 1
b10 F
b10 J
b1 E
1'
#570000
b100110 I
b100110 n#
b1101 N
b1101 m#
b110 P
0'
b110 (
b110 .
b110 H
b10010011000110100110001110111101 ,
b1101 &
b1101 -
b1101 G
#575000
b1 1
b1 F
b1 J
b111001 .$
b11 E
1'
#580000
0'
1*
#585000
b111010 .$
b11 1
b11 F
b11 J
b10 E
1'
#590000
0'
0*
#595000
b10 1
b10 F
b10 J
b111011 .$
b1 E
1'
#600000
b101101 I
b101101 n#
b1110 N
b1110 m#
b1101 P
0'
b1101 (
b1101 .
b1101 H
b10000110111011110111011101011010 ,
b1110 &
b1110 -
b1110 G
#605000
b111100 .$
b1 1
b1 F
b1 J
b11 E
1'
#610000
0'
1*
#615000
b11 1
b11 F
b11 J
b111101 .$
b10 E
1'
#620000
0'
0*
#625000
b111110 .$
b10 1
b10 F
b10 J
b1 E
1'
#630000
b111100 I
b111100 n#
b1111 N
b1111 m#
b11100 P
0'
b11100 (
b11100 .
b11100 H
b10101110001011000010010100010011 ,
b1111 &
b1111 -
b1111 G
#635000
b1 1
b1 F
b1 J
b111111 .$
b11 E
1'
#640000
0'
0)
1*
#645000
b1000000 .$
b11 1
b11 F
b11 J
b100 E
1'
#650000
0'
#655000
b100 1
b100 F
b100 J
b1000001 .$
1'
#660000
0'
#665000
bx I
bx n#
0/
0h
13
1c
b1000010 .$
b101 E
1'
#670000
0'
#675000
b0 N
b0 m#
b111100 I
b111100 n#
bx #
bx 7
bx ]
b111100 q#
b101 1
b101 F
b101 J
b1000011 .$
1'
#680000
0'
#685000
b100100 I
b100100 n#
b100100 q#
b11100 #
b11100 7
b11100 ]
b1000100 .$
b110 E
1'
#690000
0'
#695000
b100 #
b100 7
b100 ]
b110 1
b110 F
b110 J
b1000101 .$
1'
#700000
0'
#705000
0T#
0Z#
0f#
0l#
13#
19#
0:#
1?#
1E#
b11111 K
b11111 *#
b11111 -#
1K#
0O#
0U#
0[#
b100 M
b100 )#
b100 N#
1`#
0a#
0g#
1="
02#
1/#
08#
15#
0>#
1;#
0D#
1A#
0J#
1G#
0S#
0Y#
0_#
1\#
0e#
0k#
18"
0^"
1l"
1(#
1'#
10"
16"
1<"
1B"
1H"
1Q"
1W"
1]"
0Z"
1c"
1i"
0y"
0x"
1&#
0v"
0j
0&"
0%"
0$"
1z"
1{"
0|"
1}"
1~"
0w"
0u"
0t"
0s"
0u
0s
1q
0w
0v
0t
0r
01"
07"
0C"
b100 O
b100 ("
b100 +"
0I"
0R"
0X"
0d"
b0 L
b0 '"
b0 L"
0j"
1}
1~
0!"
1""
1#"
0,"
02"
0>"
0D"
0N"
0T"
0`"
0f"
1!#
1"#
0##
1$#
1%#
0.#
04#
0@#
0F#
0P#
0V#
0b#
0h#
0n"
0o"
1p"
0q"
0r"
1l
1m
0n
1o
1p
0x
0y
0z
0{
0|
0-"
03"
09"
0?"
0E"
0M"
0S"
0Y"
0_"
0e"
0."
04"
1:"
0@"
0F"
0P"
0V"
1\"
0b"
0h"
00#
06#
1<#
0B#
0H#
0R#
0X#
1^#
0d#
0j#
11#
17#
1=#
1C#
1I#
1Q#
1W#
1]#
1c#
1i#
0/"
05"
0;"
0A"
0G"
0O"
0U"
0["
0a"
0g"
b100 _
b100 k
b100 )"
b100 K"
b100 m"
b100 +#
b100 M#
b11111 `
b11111 k"
b11111 ,#
b11111 L#
b0 ^
b0 i
b0 *"
b0 J"
b1000110 .$
b111 E
1'
#710000
0'
#715000
b111 1
b111 F
b111 J
b1000111 .$
1'
#720000
0'
#725000
b1 N
b1 m#
b1001100 9
b1001100 +$
b100 -$
b0 t#
b100 u#
b100 w#
b1 f
b100 5
b100 a
b100 s#
b100 4
b100 b
b100 r#
b1001000 .$
b101 E
1'
#730000
0'
#735000
b10 N
b10 m#
b101010 I
b101010 n#
b10 f
b1 0
b1 g
b101010 q#
b101 1
b101 F
b101 J
b1001001 .$
1'
#740000
0'
0*
#745000
b110110 I
b110110 n#
b110110 q#
b1010 #
b1010 7
b1010 ]
b10 0
b10 g
b1001010 .$
b110 E
1'
#750000
0'
b10 &
b10 -
b10 G
#755000
b10110 #
b10110 7
b10110 ]
b110 1
b110 F
b110 J
b1001011 .$
1'
#760000
0'
#765000
14#
1:#
1?#
1F#
1[#
1`#
12#
18#
1>#
0;#
1D#
1J#
1S#
1Y#
1_#
0\#
1e#
1k#
0l"
0(#
0'#
0q
17"
b10110 O
b10110 ("
b10110 +"
1I"
0Z#
b100 M
b100 )#
b100 N#
0l#
0&#
03#
19#
0E#
b10110 K
b10110 *#
b10110 -#
1K#
0s
b100 L
b100 '"
b100 L"
1^"
0m
0p
0~
0#"
12"
1D"
0"#
0%#
0V#
0h#
1n"
1q"
0z"
0{"
0}"
0~"
0/#
05#
0A#
0G#
1n
1Y"
14"
1F"
1V"
1h"
16#
1H#
1X#
1j#
01#
07#
0C#
0I#
0Q#
0W#
0c#
0i#
1;"
1["
b10110 _
b10110 k
b10110 )"
b10110 K"
b10110 m"
b10110 +#
b10110 M#
b100 `
b100 k"
b100 ,#
b100 L#
b100 ^
b100 i
b100 *"
b100 J"
b1001100 .$
b111 E
1'
#770000
0'
#775000
b111 1
b111 F
b111 J
b1001101 .$
1'
#780000
0'
#785000
b11 N
b11 m#
b10 v#
b10 w#
b11 f
b10110 4
b10110 b
b10110 r#
b1001110 .$
b101 E
1'
#790000
0'
#795000
b100 N
b100 m#
b110011 I
b110011 n#
b100 f
b11 0
b11 g
b110011 q#
b101 1
b101 F
b101 J
b1001111 .$
1'
#800000
0'
#805000
b110101 I
b110101 n#
b110101 q#
b10011 #
b10011 7
b10011 ]
b100 0
b100 g
b1010000 .$
b110 E
1'
#810000
0'
#815000
b10101 #
b10101 7
b10101 ]
b110 1
b110 F
b110 J
b1010001 .$
1'
#820000
0'
#825000
08"
0D"
1R"
0Y"
00"
06"
13"
0<"
19"
0B"
0H"
1E"
0Q"
1N"
0W"
0]"
1Z"
0c"
0i"
1f"
1j
1&"
1v
1s
1y
01"
b10110 O
b10110 ("
b10110 +"
17"
13#
b10101 K
b10101 *#
b10101 -#
09#
1q
0X"
b10101 L
b10101 '"
b10101 L"
1j"
0l
0}
1~
0,"
02"
0n"
1o"
0!#
1"#
1.#
04#
1p
0S"
0e"
1."
04"
1P"
0V"
10#
06#
1R#
0X#
15"
1G"
1U"
1g"
b10101 _
b10101 k
b10101 )"
b10101 K"
b10101 m"
b10101 +#
b10101 M#
b10110 ^
b10110 i
b10110 *"
b10110 J"
b1010010 .$
b111 E
1'
#830000
0'
#835000
b111 1
b111 F
b111 J
b1010011 .$
1'
#840000
0'
#845000
b101 N
b101 m#
b101 f
b1010100 .$
b101 E
1'
#850000
0'
#855000
b110 N
b110 m#
b101010 I
b101010 n#
b110 f
b101 0
b101 g
b101010 q#
b101 1
b101 F
b101 J
b1010101 .$
1'
#860000
0'
#865000
b100011 I
b100011 n#
b100011 q#
b1010 #
b1010 7
b1010 ]
b110 0
b110 g
b1010110 .$
b110 E
1'
#870000
0'
#875000
b11 #
b11 7
b11 ]
b110 1
b110 F
b110 J
b1010111 .$
1'
#880000
0'
