min_mex_tb.vcd
$date
	Sun Mar 30 16:40:12 2025
$end
$version
	Icarus Verilog
$end
$timescale
	1ps
$end
$scope module min_mex_tb $end
$var event 1 ! _ivl_0 $end
$var wire 1 " outValid $end
$var wire 5 # data_out [4:0] $end
$var parameter 32 $ ADDR_WIDTH $end
$var parameter 32 % DATA_WIDTH $end
$var reg 4 & addr [3:0] $end
$var reg 1 ' clk $end
$var reg 5 ( data [4:0] $end
$var reg 1 ) dataValid $end
$var reg 1 * read $end
$var reg 1 + reset $end
$var reg 32 , seed [31:0] $end
$scope module dut $end
$var wire 4 - addr [3:0] $end
$var wire 1 ' clk $end
$var wire 5 . data [4:0] $end
$var wire 1 ) dataValid $end
$var wire 1 * read $end
$var wire 1 + reset $end
$var wire 1 / we $end
$var wire 3 0 temp_addr [2:0] $end
$var wire 4 1 state [3:0] $end
$var wire 1 2 resetComplete $end
$var wire 1 3 re $end
$var wire 1 " outValid $end
$var wire 5 4 mx [4:0] $end
$var wire 5 5 mn [4:0] $end
$var wire 1 6 dp_done $end
$var wire 5 7 data_out [4:0] $end
$var wire 8 8 an [7:0] $end
$var wire 7 9 a_to_g [6:0] $end
$var parameter 32 : ADDR_WIDTH $end
$var parameter 32 ; DATA_WIDTH $end
$scope module control_unit $end
$var wire 1 ' clk $end
$var wire 1 ) dataValid $end
$var wire 1 * read $end
$var wire 1 + reset $end
$var wire 1 2 resetComplete $end
$var wire 1 " outValid $end
$var wire 1 6 dp_done $end
$var parameter 4 < S_DONE $end
$var parameter 4 = S_IDLE $end
$var parameter 4 > S_READ $end
$var parameter 4 ? S_READ_INTERMEDIATE_1 $end
$var parameter 4 @ S_READ_INTERMEDIATE_2 $end
$var parameter 4 A S_RUN $end
$var parameter 4 B S_RUN_INTERMEDIATE_1 $end
$var parameter 4 C S_RUN_INTERMEDIATE_2 $end
$var parameter 4 D S_RUN_PRE $end
$var reg 4 E nxt_state [3:0] $end
$var reg 4 F state [3:0] $end
$upscope $end
$scope module datapath_unit $end
$var wire 4 G addr [3:0] $end
$var wire 1 ' clk $end
$var wire 5 H data_in [4:0] $end
$var wire 6 I mem_data [5:0] $end
$var wire 1 + reset $end
$var wire 1 3 rew $end
$var wire 4 J state [3:0] $end
$var wire 1 / wew $end
$var wire 5 K tmp_2 [4:0] $end
$var wire 5 L tmp_1 [4:0] $end
$var wire 5 M sm [4:0] $end
$var wire 4 N mem_addr [3:0] $end
$var wire 5 O gre [4:0] $end
$var wire 5 P data_mem [4:0] $end
$var parameter 32 Q ADDR_WIDTH $end
$var parameter 32 R DATA_WIDTH $end
$var parameter 4 S S_DONE $end
$var parameter 4 T S_IDLE $end
$var parameter 4 U S_READ $end
$var parameter 4 V S_READ_INTERMEDIATE_1 $end
$var parameter 4 W S_READ_INTERMEDIATE_2 $end
$var parameter 4 X S_RUN $end
$var parameter 4 Y S_RUN_INTERMEDIATE_1 $end
$var parameter 4 Z S_RUN_INTERMEDIATE_2 $end
$var parameter 4 [ S_RUN_PRE $end
$var parameter 36 \ depth $end
$var reg 5 ] data_out [4:0] $end
$var reg 1 6 dp_done $end
$var reg 5 ^ in1 [4:0] $end
$var reg 5 _ in2 [4:0] $end
$var reg 5 ` in3 [4:0] $end
$var reg 1 a loop2 $end
$var reg 5 b mn [4:0] $end
$var reg 5 c mx [4:0] $end
$var reg 1 d re $end
$var reg 5 e resetAddr [4:0] $end
$var reg 1 2 resetComplete $end
$var reg 1 f resetting $end
$var reg 4 g temp_addr [3:0] $end
$var reg 3 h tempaddr [2:0] $end
$var reg 1 i we $end
$scope module cmp $end
$var wire 5 j A [4:0] $end
$var wire 1 k A_gt_B $end
$var wire 5 l B [4:0] $end
$var wire 1 m eq0 $end
$var wire 1 n eq1 $end
$var wire 1 o eq2 $end
$var wire 1 p eq3 $end
$var wire 1 q eq4 $end
$var wire 1 r eq4_and_eq3 $end
$var wire 1 s eq4_and_gt3 $end
$var wire 1 t eq4_eq3_and_eq2 $end
$var wire 1 u eq4_eq3_and_gt2 $end
$var wire 1 v eq4_eq3_eq2_and_eq1 $end
$var wire 1 w eq4_eq3_eq2_and_gt1 $end
$var wire 1 x eq4_eq3_eq2_eq1_and_gt0 $end
$var wire 1 y gt0 $end
$var wire 1 z gt1 $end
$var wire 1 { gt2 $end
$var wire 1 | gt3 $end
$var wire 1 } gt4 $end
$var wire 1 ~ not_B0 $end
$var wire 1 !" not_B1 $end
$var wire 1 "" not_B2 $end
$var wire 1 #" not_B3 $end
$var wire 1 $" not_B4 $end
$var wire 1 %" or_temp1 $end
$var wire 1 &" or_temp2 $end
$var wire 1 '" or_temp3 $end
$var wire 5 (" smaller [4:0] $end
$var wire 5 )" greater [4:0] $end
$scope module greater_mux $end
$var wire 5 *" in0 [4:0] $end
$var wire 5 +" in1 [4:0] $end
$var wire 1 k sel $end
$var wire 5 ," out [4:0] $end
$scope module mux0 $end
$var wire 1 -" and_in0 $end
$var wire 1 ." and_in1 $end
$var wire 1 /" in0 $end
$var wire 1 0" in1 $end
$var wire 1 1" not_sel $end
$var wire 1 2" out $end
$var wire 1 k sel $end
$upscope $end
$scope module mux1 $end
$var wire 1 3" and_in0 $end
$var wire 1 4" and_in1 $end
$var wire 1 5" in0 $end
$var wire 1 6" in1 $end
$var wire 1 7" not_sel $end
$var wire 1 8" out $end
$var wire 1 k sel $end
$upscope $end
$scope module mux2 $end
$var wire 1 9" and_in0 $end
$var wire 1 :" and_in1 $end
$var wire 1 ;" in0 $end
$var wire 1 <" in1 $end
$var wire 1 =" not_sel $end
$var wire 1 >" out $end
$var wire 1 k sel $end
$upscope $end
$scope module mux3 $end
$var wire 1 ?" and_in0 $end
$var wire 1 @" and_in1 $end
$var wire 1 A" in0 $end
$var wire 1 B" in1 $end
$var wire 1 C" not_sel $end
$var wire 1 D" out $end
$var wire 1 k sel $end
$upscope $end
$scope module mux4 $end
$var wire 1 E" and_in0 $end
$var wire 1 F" and_in1 $end
$var wire 1 G" in0 $end
$var wire 1 H" in1 $end
$var wire 1 I" not_sel $end
$var wire 1 J" out $end
$var wire 1 k sel $end
$upscope $end
$upscope $end
$scope module smaller_mux $end
$var wire 5 K" in0 [4:0] $end
$var wire 5 L" in1 [4:0] $end
$var wire 1 k sel $end
$var wire 5 M" out [4:0] $end
$scope module mux0 $end
$var wire 1 N" and_in0 $end
$var wire 1 O" and_in1 $end
$var wire 1 P" in0 $end
$var wire 1 Q" in1 $end
$var wire 1 R" not_sel $end
$var wire 1 S" out $end
$var wire 1 k sel $end
$upscope $end
$scope module mux1 $end
$var wire 1 T" and_in0 $end
$var wire 1 U" and_in1 $end
$var wire 1 V" in0 $end
$var wire 1 W" in1 $end
$var wire 1 X" not_sel $end
$var wire 1 Y" out $end
$var wire 1 k sel $end
$upscope $end
$scope module mux2 $end
$var wire 1 Z" and_in0 $end
$var wire 1 [" and_in1 $end
$var wire 1 \" in0 $end
$var wire 1 ]" in1 $end
$var wire 1 ^" not_sel $end
$var wire 1 _" out $end
$var wire 1 k sel $end
$upscope $end
$scope module mux3 $end
$var wire 1 `" and_in0 $end
$var wire 1 a" and_in1 $end
$var wire 1 b" in0 $end
$var wire 1 c" in1 $end
$var wire 1 d" not_sel $end
$var wire 1 e" out $end
$var wire 1 k sel $end
$upscope $end
$scope module mux4 $end
$var wire 1 f" and_in0 $end
$var wire 1 g" and_in1 $end
$var wire 1 h" in0 $end
$var wire 1 i" in1 $end
$var wire 1 j" not_sel $end
$var wire 1 k" out $end
$var wire 1 k sel $end
$upscope $end
$upscope $end
$upscope $end
$scope module cmp_2 $end
$var wire 5 l" A [4:0] $end
$var wire 1 m" A_gt_B $end
$var wire 5 n" B [4:0] $end
$var wire 1 o" eq0 $end
$var wire 1 p" eq1 $end
$var wire 1 q" eq2 $end
$var wire 1 r" eq3 $end
$var wire 1 s" eq4 $end
$var wire 1 t" eq4_and_eq3 $end
$var wire 1 u" eq4_and_gt3 $end
$var wire 1 v" eq4_eq3_and_eq2 $end
$var wire 1 w" eq4_eq3_and_gt2 $end
$var wire 1 x" eq4_eq3_eq2_and_eq1 $end
$var wire 1 y" eq4_eq3_eq2_and_gt1 $end
$var wire 1 z" eq4_eq3_eq2_eq1_and_gt0 $end
$var wire 1 {" gt0 $end
$var wire 1 |" gt1 $end
$var wire 1 }" gt2 $end
$var wire 1 ~" gt3 $end
$var wire 1 !# gt4 $end
$var wire 1 "# not_B0 $end
$var wire 1 ## not_B1 $end
$var wire 1 $# not_B2 $end
$var wire 1 %# not_B3 $end
$var wire 1 &# not_B4 $end
$var wire 1 '# or_temp1 $end
$var wire 1 (# or_temp2 $end
$var wire 1 )# or_temp3 $end
$var wire 5 *# smaller [4:0] $end
$var wire 5 +# greater [4:0] $end
$scope module greater_mux $end
$var wire 5 ,# in0 [4:0] $end
$var wire 5 -# in1 [4:0] $end
$var wire 1 m" sel $end
$var wire 5 .# out [4:0] $end
$scope module mux0 $end
$var wire 1 /# and_in0 $end
$var wire 1 0# and_in1 $end
$var wire 1 1# in0 $end
$var wire 1 2# in1 $end
$var wire 1 3# not_sel $end
$var wire 1 4# out $end
$var wire 1 m" sel $end
$upscope $end
$scope module mux1 $end
$var wire 1 5# and_in0 $end
$var wire 1 6# and_in1 $end
$var wire 1 7# in0 $end
$var wire 1 8# in1 $end
$var wire 1 9# not_sel $end
$var wire 1 :# out $end
$var wire 1 m" sel $end
$upscope $end
$scope module mux2 $end
$var wire 1 ;# and_in0 $end
$var wire 1 <# and_in1 $end
$var wire 1 =# in0 $end
$var wire 1 ># in1 $end
$var wire 1 ?# not_sel $end
$var wire 1 @# out $end
$var wire 1 m" sel $end
$upscope $end
$scope module mux3 $end
$var wire 1 A# and_in0 $end
$var wire 1 B# and_in1 $end
$var wire 1 C# in0 $end
$var wire 1 D# in1 $end
$var wire 1 E# not_sel $end
$var wire 1 F# out $end
$var wire 1 m" sel $end
$upscope $end
$scope module mux4 $end
$var wire 1 G# and_in0 $end
$var wire 1 H# and_in1 $end
$var wire 1 I# in0 $end
$var wire 1 J# in1 $end
$var wire 1 K# not_sel $end
$var wire 1 L# out $end
$var wire 1 m" sel $end
$upscope $end
$upscope $end
$scope module smaller_mux $end
$var wire 5 M# in0 [4:0] $end
$var wire 5 N# in1 [4:0] $end
$var wire 1 m" sel $end
$var wire 5 O# out [4:0] $end
$scope module mux0 $end
$var wire 1 P# and_in0 $end
$var wire 1 Q# and_in1 $end
$var wire 1 R# in0 $end
$var wire 1 S# in1 $end
$var wire 1 T# not_sel $end
$var wire 1 U# out $end
$var wire 1 m" sel $end
$upscope $end
$scope module mux1 $end
$var wire 1 V# and_in0 $end
$var wire 1 W# and_in1 $end
$var wire 1 X# in0 $end
$var wire 1 Y# in1 $end
$var wire 1 Z# not_sel $end
$var wire 1 [# out $end
$var wire 1 m" sel $end
$upscope $end
$scope module mux2 $end
$var wire 1 \# and_in0 $end
$var wire 1 ]# and_in1 $end
$var wire 1 ^# in0 $end
$var wire 1 _# in1 $end
$var wire 1 `# not_sel $end
$var wire 1 a# out $end
$var wire 1 m" sel $end
$upscope $end
$scope module mux3 $end
$var wire 1 b# and_in0 $end
$var wire 1 c# and_in1 $end
$var wire 1 d# in0 $end
$var wire 1 e# in1 $end
$var wire 1 f# not_sel $end
$var wire 1 g# out $end
$var wire 1 m" sel $end
$upscope $end
$scope module mux4 $end
$var wire 1 h# and_in0 $end
$var wire 1 i# and_in1 $end
$var wire 1 j# in0 $end
$var wire 1 k# in1 $end
$var wire 1 l# not_sel $end
$var wire 1 m# out $end
$var wire 1 m" sel $end
$upscope $end
$upscope $end
$upscope $end
$scope module m $end
$var wire 4 n# addr [3:0] $end
$var wire 1 ' clk $end
$var wire 6 o# data [5:0] $end
$var wire 1 d readEnable $end
$var wire 1 i writeEnable $end
$var parameter 32 p# ADDR_WIDTH $end
$var parameter 33 q# DATA_WIDTH $end
$var reg 6 r# temp_data [5:0] $end
$upscope $end
$upscope $end
$scope module u_seven_segment_display $end
$var wire 1 ' clk $end
$var wire 5 s# number1 [4:0] $end
$var wire 5 t# number2 [4:0] $end
$var wire 1 + reset $end
$var wire 4 u# number2_tens [3:0] $end
$var wire 4 v# number2_ones [3:0] $end
$var wire 4 w# number1_tens [3:0] $end
$var wire 4 x# number1_ones [3:0] $end
$var wire 3 y# display_select [2:0] $end
$var parameter 7 z# A $end
$var parameter 7 {# B $end
$var parameter 7 |# C $end
$var parameter 7 }# D $end
$var parameter 7 ~# E $end
$var parameter 7 !$ EIGHT $end
$var parameter 7 "$ F $end
$var parameter 7 #$ FIVE $end
$var parameter 7 $$ FOUR $end
$var parameter 7 %$ NINE $end
$var parameter 7 &$ ONE $end
$var parameter 7 '$ SEVEN $end
$var parameter 7 ($ SIX $end
$var parameter 7 )$ THREE $end
$var parameter 7 *$ TWO $end
$var parameter 7 +$ ZERO $end
$var reg 7 ,$ a_to_g [6:0] $end
$var reg 8 -$ an [7:0] $end
$var reg 4 .$ digit_to_display [3:0] $end
$var reg 20 /$ refresh_counter [19:0] $end
$upscope $end
$upscope $end
$scope begin $ivl_for_loop0 $end
$var integer 32 0$ i [31:0] $end
$upscope $end
$upscope $end
$enddefinitions $end
$comment Show the parameter values. $end
$dumpall
b1 +$
b10010 *$
b110 )$
b100000 ($
b1111 '$
b1001111 &$
b100 %$
b1001100 $$
b100100 #$
b111000 "$
b0 !$
b110000 ~#
b1000010 }#
b110001 |#
b1100000 {#
b1000 z#
b110 q#
b100 p#
b10000 \
b100 [
b111 Z
b110 Y
b101 X
b11 W
b10 V
b1 U
b0 T
b1000 S
b101 R
b100 Q
b100 D
b111 C
b110 B
b101 A
b11 @
b10 ?
b1 >
b0 =
b1000 <
b101 ;
b100 :
b101 %
b100 $
$end
#0
$dumpvars
bx 0$
b0 /$
b1 .$
b11111110 -$
b1001111 ,$
b0 y#
b0 x#
b0 w#
b1 v#
b11 u#
b11111 t#
b0 s#
bx r#
bx o#
b0 n#
xm#
xl#
xk#
xj#
xi#
xh#
xg#
xf#
xe#
xd#
xc#
xb#
xa#
x`#
x_#
x^#
x]#
x\#
x[#
xZ#
xY#
xX#
xW#
xV#
xU#
xT#
xS#
xR#
xQ#
xP#
bx O#
bx N#
bx M#
xL#
xK#
xJ#
xI#
xH#
xG#
xF#
xE#
xD#
xC#
xB#
xA#
x@#
x?#
x>#
x=#
x<#
x;#
x:#
x9#
x8#
x7#
x6#
x5#
x4#
x3#
x2#
x1#
x0#
x/#
bx .#
bx -#
bx ,#
bx +#
bx *#
x)#
x(#
x'#
x&#
x%#
x$#
x##
x"#
x!#
x~"
x}"
x|"
x{"
xz"
xy"
xx"
xw"
xv"
xu"
xt"
xs"
xr"
xq"
xp"
xo"
bx n"
xm"
bx l"
xk"
xj"
xi"
xh"
xg"
xf"
xe"
xd"
xc"
xb"
xa"
x`"
x_"
x^"
x]"
x\"
x["
xZ"
xY"
xX"
xW"
xV"
xU"
xT"
xS"
xR"
xQ"
xP"
xO"
xN"
bx M"
bx L"
bx K"
xJ"
xI"
xH"
xG"
xF"
xE"
xD"
xC"
xB"
xA"
x@"
x?"
x>"
x="
x<"
x;"
x:"
x9"
x8"
x7"
x6"
x5"
x4"
x3"
x2"
x1"
x0"
x/"
x."
x-"
bx ,"
bx +"
bx *"
bx )"
bx ("
x'"
x&"
x%"
x$"
x#"
x""
x!"
x~
x}
x|
x{
xz
xy
xx
xw
xv
xu
xt
xs
xr
xq
xp
xo
xn
xm
bx l
xk
bx j
xi
bx h
b0 g
xf
b0 e
xd
b0 c
b11111 b
xa
bx `
bx _
bx ^
bx ]
b0 P
bx O
b0 N
bx M
bx L
bx K
b0 J
bx I
b0 H
b0 G
b0 F
bx E
b1001111 9
b11111110 8
bx 7
06
b11111 5
b0 4
x3
x2
b0 1
bx 0
x/
b0 .
b0 -
b1001011101111110010100011 ,
1+
0*
0)
b0 (
0'
b0 &
bx #
0"
1!
$end
#5000
b0 I
b0 o#
b0 #
b0 7
b0 ]
02
b0 0
b0 h
03
0d
1/
1i
1f
0a
b0 E
1'
#10000
0'
0+
#15000
b1 N
b1 n#
b1 e
b1 /$
1'
#20000
0'
#25000
b10 N
b10 n#
b10 e
b10 /$
1'
#30000
0'
#35000
b11 N
b11 n#
b11 e
b11 /$
1'
#40000
0'
#45000
b100 N
b100 n#
b100 e
b100 /$
1'
#50000
0'
#55000
b101 N
b101 n#
b101 e
b101 /$
1'
#60000
0'
#65000
b110 N
b110 n#
b110 e
b110 /$
1'
#70000
0'
#75000
b111 N
b111 n#
b111 e
b111 /$
1'
#80000
0'
#85000
b1000 N
b1000 n#
b1000 e
b1000 /$
1'
#90000
0'
#95000
b1001 N
b1001 n#
b1001 e
b1001 /$
1'
#100000
0'
#105000
b1010 N
b1010 n#
b1010 e
b1010 /$
1'
#110000
0'
#115000
b1011 N
b1011 n#
b1011 e
b1011 /$
1'
#120000
0'
#125000
b1100 N
b1100 n#
b1100 e
b1100 /$
1'
#130000
0'
#135000
b1101 N
b1101 n#
b1101 e
b1101 /$
1'
#140000
0'
#145000
b1110 N
b1110 n#
b1110 e
b1110 /$
1'
#150000
0'
#155000
b1111 N
b1111 n#
b1111 e
b1111 /$
1'
#160000
0'
#165000
0f
b10000 /$
1'
#170000
0'
#175000
12
b10001 /$
1'
#180000
0'
1)
#185000
b10010 /$
b1 E
1'
#190000
b100 P
0'
1*
b100 (
b100 .
b100 H
b1010010000101111001010110001000 ,
#195000
b100100 I
b100100 o#
b0 N
b0 n#
b1 1
b1 F
b1 J
b10011 /$
1'
#200000
0'
0*
#205000
b10100 /$
1'
#210000
b101010 I
b101010 o#
b1 N
b1 n#
b1010 P
0'
b1010 (
b1010 .
b1010 H
b10000101000000101010010111101001 ,
b1 &
b1 -
b1 G
#215000
b10101 /$
1'
#220000
0'
1*
#225000
b10110 /$
b10 E
1'
#230000
0'
0*
#235000
b10 1
b10 F
b10 J
b10111 /$
b1 E
1'
#240000
b110110 I
b110110 o#
b10 N
b10 n#
b10110 P
0'
b10110 (
b10110 .
b10110 H
b1001011011101001011000010010110 ,
b10 &
b10 -
b10 G
#245000
b11000 /$
b1 1
b1 F
b1 J
b11 E
1'
#250000
0'
1*
#255000
b11 1
b11 F
b11 J
b11001 /$
b10 E
1'
#260000
0'
0*
#265000
b11010 /$
b10 1
b10 F
b10 J
b1 E
1'
#270000
b110011 I
b110011 o#
b11 N
b11 n#
b10011 P
0'
b10011 (
b10011 .
b10011 H
b1001111111110000011000011111 ,
b11 &
b11 -
b11 G
#275000
b1 1
b1 F
b1 J
b11011 /$
b11 E
1'
#280000
0'
1*
#285000
b11100 /$
b11 1
b11 F
b11 J
b10 E
1'
#290000
0'
0*
#295000
b10 1
b10 F
b10 J
b11101 /$
b1 E
1'
#300000
b110101 I
b110101 o#
b100 N
b100 n#
b10101 P
0'
b10101 (
b10101 .
b10101 H
b11111010101001100111100111010100 ,
b100 &
b100 -
b100 G
#305000
b11110 /$
b1 1
b1 F
b1 J
b11 E
1'
#310000
0'
1*
#315000
b11 1
b11 F
b11 J
b11111 /$
b10 E
1'
#320000
0'
0*
#325000
b100000 /$
b10 1
b10 F
b10 J
b1 E
1'
#330000
b101010 I
b101010 o#
b101 N
b101 n#
b1010 P
0'
b1010 (
b1010 .
b1010 H
b10100101010100110101001011000101 ,
b101 &
b101 -
b101 G
#335000
b1 1
b1 F
b1 J
b100001 /$
b11 E
1'
#340000
0'
1*
#345000
b100010 /$
b11 1
b11 F
b11 J
b10 E
1'
#350000
0'
0*
#355000
b10 1
b10 F
b10 J
b100011 /$
b1 E
1'
#360000
b100011 I
b100011 o#
b110 N
b110 n#
b11 P
0'
b11 (
b11 .
b11 H
b11110001101100100100100011000010 ,
b110 &
b110 -
b110 G
#365000
b100100 /$
b1 1
b1 F
b1 J
b11 E
1'
#370000
0'
1*
#375000
b11 1
b11 F
b11 J
b100101 /$
b10 E
1'
#380000
0'
0*
#385000
b100110 /$
b10 1
b10 F
b10 J
b1 E
1'
#390000
b100100 I
b100100 o#
b111 N
b111 n#
b100 P
0'
b100 (
b100 .
b100 H
b11100010001110000001110101011011 ,
b111 &
b111 -
b111 G
#395000
b1 1
b1 F
b1 J
b100111 /$
b11 E
1'
#400000
0'
1*
#405000
b101000 /$
b11 1
b11 F
b11 J
b10 E
1'
#410000
0'
0*
#415000
b10 1
b10 F
b10 J
b101001 /$
b1 E
1'
#420000
b111011 I
b111011 o#
b1000 N
b1000 n#
b11011 P
0'
b11011 (
b11011 .
b11011 H
b11101110010000010000011100000 ,
b1000 &
b1000 -
b1000 G
#425000
b101010 /$
b1 1
b1 F
b1 J
b11 E
1'
#430000
0'
1*
#435000
b11 1
b11 F
b11 J
b101011 /$
b10 E
1'
#440000
0'
0*
#445000
b101100 /$
b10 1
b10 F
b10 J
b1 E
1'
#450000
b100111 I
b100111 o#
b1001 N
b1001 n#
b111 P
0'
b111 (
b111 .
b111 H
b100011110011011011001101100001 ,
b1001 &
b1001 -
b1001 G
#455000
b1 1
b1 F
b1 J
b101101 /$
b11 E
1'
#460000
0'
1*
#465000
b101110 /$
b11 1
b11 F
b11 J
b10 E
1'
#470000
0'
0*
#475000
b10 1
b10 F
b10 J
b101111 /$
b1 E
1'
#480000
b100010 I
b100010 o#
b1010 N
b1010 n#
b10 P
0'
b10 (
b10 .
b10 H
b11010001001101011001000110101110 ,
b1010 &
b1010 -
b1010 G
#485000
b110000 /$
b1 1
b1 F
b1 J
b11 E
1'
#490000
0'
1*
#495000
b11 1
b11 F
b11 J
b110001 /$
b10 E
1'
#500000
0'
0*
#505000
b110010 /$
b10 1
b10 F
b10 J
b1 E
1'
#510000
b100011 I
b100011 o#
b1011 N
b1011 n#
b11 P
0'
b11 (
b11 .
b11 H
b11010001111110010111111001010111 ,
b1011 &
b1011 -
b1011 G
#515000
b1 1
b1 F
b1 J
b110011 /$
b11 E
1'
#520000
0'
1*
#525000
b110100 /$
b11 1
b11 F
b11 J
b10 E
1'
#530000
0'
0*
#535000
b10 1
b10 F
b10 J
b110101 /$
b1 E
1'
#540000
b111101 I
b111101 o#
b1100 N
b1100 n#
b11101 P
0'
b11101 (
b11101 .
b11101 H
b1001110100010111001011010101100 ,
b1100 &
b1100 -
b1100 G
#545000
b110110 /$
b1 1
b1 F
b1 J
b11 E
1'
#550000
0'
1*
#555000
b11 1
b11 F
b11 J
b110111 /$
b10 E
1'
#560000
0'
0*
#565000
b111000 /$
b10 1
b10 F
b10 J
b1 E
1'
#570000
b100110 I
b100110 o#
b1101 N
b1101 n#
b110 P
0'
b110 (
b110 .
b110 H
b10010011000110100110001110111101 ,
b1101 &
b1101 -
b1101 G
#575000
b1 1
b1 F
b1 J
b111001 /$
b11 E
1'
#580000
0'
1*
#585000
b111010 /$
b11 1
b11 F
b11 J
b10 E
1'
#590000
0'
0*
#595000
b10 1
b10 F
b10 J
b111011 /$
b1 E
1'
#600000
b101101 I
b101101 o#
b1110 N
b1110 n#
b1101 P
0'
b1101 (
b1101 .
b1101 H
b10000110111011110111011101011010 ,
b1110 &
b1110 -
b1110 G
#605000
b111100 /$
b1 1
b1 F
b1 J
b11 E
1'
#610000
0'
1*
#615000
b11 1
b11 F
b11 J
b111101 /$
b10 E
1'
#620000
0'
0*
#625000
b111110 /$
b10 1
b10 F
b10 J
b1 E
1'
#630000
b111111 I
b111111 o#
b1111 N
b1111 n#
b11111 P
0'
b11111 (
b11111 .
b11111 H
b1111 &
b1111 -
b1111 G
#635000
b1 1
b1 F
b1 J
b111111 /$
b11 E
1'
#640000
0'
0)
1*
#645000
b1000000 /$
b11 1
b11 F
b11 J
b100 E
1'
#650000
0'
#655000
b100 1
b100 F
b100 J
b1000001 /$
1'
#660000
0'
#665000
bx I
bx o#
0/
0i
13
1d
b1000010 /$
b101 E
1'
#670000
0'
#675000
b0 N
b0 n#
b111111 I
b111111 o#
bx #
bx 7
bx ]
b111111 r#
b101 1
b101 F
b101 J
b1000011 /$
1'
#680000
0'
#685000
b100100 I
b100100 o#
b100100 r#
b11111 #
b11111 7
b11111 ]
b1000100 /$
b110 E
1'
#690000
0'
#695000
b100 #
b100 7
b100 ]
b110 1
b110 F
b110 J
b1000101 /$
1'
#700000
0'
#705000
0U#
0[#
0g#
0m#
14#
1:#
0;#
1@#
1F#
b11111 K
b11111 +#
b11111 .#
1L#
0P#
0V#
0\#
b100 M
b100 *#
b100 O#
1a#
0b#
0h#
1>"
03#
10#
09#
16#
0?#
1<#
0E#
1B#
0K#
1H#
0T#
0Z#
0`#
1]#
0f#
0l#
19"
0_"
1m"
1)#
1(#
11"
17"
1="
1C"
1I"
1R"
1X"
1^"
0["
1d"
1j"
0z"
0y"
1'#
0w"
0k
0'"
0&"
0%"
1{"
1|"
0}"
1~"
1!#
0x"
0v"
0u"
0t"
0v
0t
1r
0x
0w
0u
0s
02"
08"
0D"
b100 O
b100 )"
b100 ,"
0J"
0S"
0Y"
0e"
b0 L
b0 ("
b0 M"
0k"
1~
1!"
0""
1#"
1$"
0-"
03"
0?"
0E"
0O"
0U"
0a"
0g"
1"#
1##
0$#
1%#
1&#
0/#
05#
0A#
0G#
0Q#
0W#
0c#
0i#
0o"
0p"
1q"
0r"
0s"
1m
1n
0o
1p
1q
0y
0z
0{
0|
0}
0."
04"
0:"
0@"
0F"
0N"
0T"
0Z"
0`"
0f"
0/"
05"
1;"
0A"
0G"
0Q"
0W"
1]"
0c"
0i"
01#
07#
1=#
0C#
0I#
0S#
0Y#
1_#
0e#
0k#
12#
18#
1>#
1D#
1J#
1R#
1X#
1^#
1d#
1j#
00"
06"
0<"
0B"
0H"
0P"
0V"
0\"
0b"
0h"
b100 _
b100 l
b100 *"
b100 L"
b100 n"
b100 ,#
b100 N#
b11111 `
b11111 l"
b11111 -#
b11111 M#
b0 ^
b0 j
b0 +"
b0 K"
b1000110 /$
b111 E
1'
#710000
0'
#715000
b111 1
b111 F
b111 J
b1000111 /$
1'
#720000
0'
#725000
b1001100 9
b1001100 ,$
b100 .$
b0 u#
b100 v#
b100 x#
b1 0
b1 h
b100 5
b100 b
b100 t#
b100 4
b100 c
b100 s#
b1001000 /$
b1 N
b1 n#
b101 E
b1 g
1'
#730000
0'
#735000
b101010 I
b101010 o#
b101010 r#
b101 1
b101 F
b101 J
b1001001 /$
b10 N
b10 n#
b10 g
1'
#740000
0'
0*
#745000
b110110 I
b110110 o#
b110110 r#
b1010 #
b1010 7
b1010 ]
b10 0
b10 h
b1001010 /$
b110 E
1'
#750000
0'
b10 &
b10 -
b10 G
#755000
b10110 #
b10110 7
b10110 ]
b110 1
b110 F
b110 J
b1001011 /$
1'
#760000
0'
#765000
15#
1;#
1@#
1G#
1\#
1a#
13#
19#
1?#
0<#
1E#
1K#
1T#
1Z#
1`#
0]#
1f#
1l#
0m"
0)#
0(#
0r
18"
b10110 O
b10110 )"
b10110 ,"
1J"
0[#
b100 M
b100 *#
b100 O#
0m#
0'#
04#
1:#
0F#
b10110 K
b10110 +#
b10110 .#
1L#
0t
b100 L
b100 ("
b100 M"
1_"
0n
0q
0!"
0$"
13"
1E"
0##
0&#
0W#
0i#
1o"
1r"
0{"
0|"
0~"
0!#
00#
06#
0B#
0H#
1o
1Z"
15"
1G"
1W"
1i"
17#
1I#
1Y#
1k#
02#
08#
0D#
0J#
0R#
0X#
0d#
0j#
1<"
1\"
b10110 _
b10110 l
b10110 *"
b10110 L"
b10110 n"
b10110 ,#
b10110 N#
b100 `
b100 l"
b100 -#
b100 M#
b100 ^
b100 j
b100 +"
b100 K"
b1001100 /$
b111 E
1'
#770000
0'
#775000
b111 1
b111 F
b111 J
b1001101 /$
1'
#780000
0'
#785000
b10 w#
b10 x#
b11 0
b11 h
b10110 4
b10110 c
b10110 s#
b1001110 /$
b11 N
b11 n#
b101 E
b11 g
1'
#790000
0'
#795000
b110011 I
b110011 o#
b110011 r#
b101 1
b101 F
b101 J
b1001111 /$
b100 N
b100 n#
b100 g
1'
#800000
0'
#805000
b110101 I
b110101 o#
b110101 r#
b10011 #
b10011 7
b10011 ]
b100 0
b100 h
b1010000 /$
b110 E
1'
#810000
0'
#815000
b10101 #
b10101 7
b10101 ]
b110 1
b110 F
b110 J
b1010001 /$
1'
#820000
0'
#825000
09"
0E"
1S"
0Z"
01"
07"
14"
0="
1:"
0C"
0I"
1F"
0R"
1O"
0X"
0^"
1["
0d"
0j"
1g"
1k
1'"
1w
1t
1z
02"
b10110 O
b10110 )"
b10110 ,"
18"
14#
b10101 K
b10101 +#
b10101 .#
0:#
1r
0Y"
b10101 L
b10101 ("
b10101 M"
1k"
0m
0~
1!"
0-"
03"
0o"
1p"
0"#
1##
1/#
05#
1q
0T"
0f"
1/"
05"
1Q"
0W"
11#
07#
1S#
0Y#
16"
1H"
1V"
1h"
b10101 _
b10101 l
b10101 *"
b10101 L"
b10101 n"
b10101 ,#
b10101 N#
b10110 ^
b10110 j
b10110 +"
b10110 K"
b1010010 /$
b111 E
1'
#830000
0'
#835000
b111 1
b111 F
b111 J
b1010011 /$
1'
#840000
0'
#845000
b101 0
b101 h
b1010100 /$
b101 N
b101 n#
b101 E
b101 g
1'
#850000
0'
#855000
b101010 I
b101010 o#
b101010 r#
b101 1
b101 F
b101 J
b1010101 /$
b110 N
b110 n#
b110 g
1'
#860000
0'
#865000
b100011 I
b100011 o#
b100011 r#
b1010 #
b1010 7
b1010 ]
b110 0
b110 h
b1010110 /$
b110 E
1'
#870000
0'
#875000
b11 #
b11 7
b11 ]
b110 1
b110 F
b110 J
b1010111 /$
1'
#880000
0'
