Final/min_mex_tb.vcd
$date
	Tue Apr 01 00:38:32 2025
$end
$version
	Icarus Verilog
$end
$timescale
	1ps
$end
$scope module min_mex_tb $end
$var event 1 ! _ivl_2 $end
$var wire 1 " outValid $end
$var wire 5 # data_out [4:0] $end
$var parameter 32 $ ADDR_WIDTH $end
$var parameter 32 % DATA_WIDTH $end
$var reg 4 & addr [3:0] $end
$var reg 1 ' clk $end
$var reg 5 ( data [4:0] $end
$var reg 1 ) dataValid $end
$var reg 1 * read $end
$var reg 1 + reset $end
$var reg 32 , seed [31:0] $end
$scope module dut $end
$var wire 4 - addr [3:0] $end
$var wire 1 ' clk $end
$var wire 5 . data [4:0] $end
$var wire 1 ) dataValid $end
$var wire 1 / dirty $end
$var wire 1 * read $end
$var wire 1 + reset $end
$var wire 4 0 state [3:0] $end
$var wire 1 1 we $end
$var wire 1 2 resetComplete $end
$var wire 1 3 re $end
$var wire 1 " outValid $end
$var wire 5 4 mx [4:0] $end
$var wire 5 5 mn [4:0] $end
$var wire 6 6 mem_data [5:0] $end
$var wire 4 7 mem_addr [3:0] $end
$var wire 1 8 lesflag $end
$var wire 5 9 in4 [4:0] $end
$var wire 5 : in3 [4:0] $end
$var wire 5 ; in2 [4:0] $end
$var wire 5 < in1 [4:0] $end
$var wire 1 = greflag $end
$var wire 5 > comp_les [4:0] $end
$var wire 5 ? comp_gre [4:0] $end
$var wire 8 @ an [7:0] $end
$var wire 6 A actual_mem_data [5:0] $end
$var wire 7 B a_to_g [6:0] $end
$var parameter 32 C ADDR_WIDTH $end
$var parameter 32 D DATA_WIDTH $end
$scope module control_unit $end
$var wire 4 E addr [3:0] $end
$var wire 1 ' clk $end
$var wire 1 ) dataValid $end
$var wire 5 F data_in [4:0] $end
$var wire 1 * read $end
$var wire 1 + reset $end
$var wire 1 " outValid $end
$var wire 6 G mem_data [5:0] $end
$var wire 4 H mem_addr [3:0] $end
$var wire 1 8 lesflag $end
$var wire 1 = greflag $end
$var wire 5 I data_mem [4:0] $end
$var wire 5 J comp_les [4:0] $end
$var wire 5 K comp_gre [4:0] $end
$var wire 6 L actual_mem_data [5:0] $end
$var parameter 32 M ADDR_WIDTH $end
$var parameter 32 N DATA_WIDTH $end
$var parameter 4 O S_DONE $end
$var parameter 4 P S_IDLE $end
$var parameter 4 Q S_READ $end
$var parameter 4 R S_READ_INTERMEDIATE_1 $end
$var parameter 4 S S_READ_INTERMEDIATE_2 $end
$var parameter 4 T S_RUN $end
$var parameter 4 U S_RUN_INTERMEDIATE_1 $end
$var parameter 4 V S_RUN_INTERMEDIATE_2 $end
$var parameter 4 W S_RUN_PRE $end
$var reg 1 X dp_done $end
$var reg 5 Y in1 [4:0] $end
$var reg 5 Z in2 [4:0] $end
$var reg 5 [ in3 [4:0] $end
$var reg 5 \ in4 [4:0] $end
$var reg 1 ] loop2 $end
$var reg 4 ^ max_addr [3:0] $end
$var reg 4 _ min_addr [3:0] $end
$var reg 5 ` mn [4:0] $end
$var reg 5 a mx [4:0] $end
$var reg 4 b nxt_state [3:0] $end
$var reg 1 3 re $end
$var reg 5 c resetAddr [4:0] $end
$var reg 1 2 resetComplete $end
$var reg 1 d resetting $end
$var reg 4 e state [3:0] $end
$var reg 4 f temp_addr [3:0] $end
$var reg 1 1 we $end
$upscope $end
$scope module datapath_unit $end
$var wire 6 g actual_mem_data [5:0] $end
$var wire 1 ' clk $end
$var wire 5 h comp_gre_in1 [4:0] $end
$var wire 5 i comp_gre_in2 [4:0] $end
$var wire 5 j comp_les_in1 [4:0] $end
$var wire 5 k comp_les_in2 [4:0] $end
$var wire 1 = greflag $end
$var wire 1 8 lesflag $end
$var wire 4 l mem_addr [3:0] $end
$var wire 6 m mem_data [5:0] $end
$var wire 1 3 re $end
$var wire 1 1 we $end
$var wire 5 n tmp_2 [4:0] $end
$var wire 5 o tmp_1 [4:0] $end
$var wire 1 p dirty $end
$var wire 6 q data_out [5:0] $end
$var wire 5 r comp_les [4:0] $end
$var wire 5 s comp_gre [4:0] $end
$var parameter 32 t ADDR_WIDTH $end
$var parameter 32 u DATA_WIDTH $end
$scope module cmp $end
$var wire 5 v A [4:0] $end
$var wire 1 w A_gt_B $end
$var wire 5 x B [4:0] $end
$var wire 1 y eq0 $end
$var wire 1 z eq1 $end
$var wire 1 { eq2 $end
$var wire 1 | eq3 $end
$var wire 1 } eq4 $end
$var wire 1 ~ eq4_and_eq3 $end
$var wire 1 !" eq4_and_gt3 $end
$var wire 1 "" eq4_eq3_and_eq2 $end
$var wire 1 #" eq4_eq3_and_gt2 $end
$var wire 1 $" eq4_eq3_eq2_and_eq1 $end
$var wire 1 %" eq4_eq3_eq2_and_gt1 $end
$var wire 1 &" eq4_eq3_eq2_eq1_and_gt0 $end
$var wire 1 '" gt0 $end
$var wire 1 (" gt1 $end
$var wire 1 )" gt2 $end
$var wire 1 *" gt3 $end
$var wire 1 +" gt4 $end
$var wire 1 ," not_B0 $end
$var wire 1 -" not_B1 $end
$var wire 1 ." not_B2 $end
$var wire 1 /" not_B3 $end
$var wire 1 0" not_B4 $end
$var wire 1 1" or_temp1 $end
$var wire 1 2" or_temp2 $end
$var wire 1 3" or_temp3 $end
$var wire 5 4" smaller [4:0] $end
$var wire 5 5" greater [4:0] $end
$scope module greater_mux $end
$var wire 5 6" in0 [4:0] $end
$var wire 5 7" in1 [4:0] $end
$var wire 1 w sel $end
$var wire 5 8" out [4:0] $end
$scope module mux0 $end
$var wire 1 9" and_in0 $end
$var wire 1 :" and_in1 $end
$var wire 1 ;" in0 $end
$var wire 1 <" in1 $end
$var wire 1 =" not_sel $end
$var wire 1 >" out $end
$var wire 1 w sel $end
$upscope $end
$scope module mux1 $end
$var wire 1 ?" and_in0 $end
$var wire 1 @" and_in1 $end
$var wire 1 A" in0 $end
$var wire 1 B" in1 $end
$var wire 1 C" not_sel $end
$var wire 1 D" out $end
$var wire 1 w sel $end
$upscope $end
$scope module mux2 $end
$var wire 1 E" and_in0 $end
$var wire 1 F" and_in1 $end
$var wire 1 G" in0 $end
$var wire 1 H" in1 $end
$var wire 1 I" not_sel $end
$var wire 1 J" out $end
$var wire 1 w sel $end
$upscope $end
$scope module mux3 $end
$var wire 1 K" and_in0 $end
$var wire 1 L" and_in1 $end
$var wire 1 M" in0 $end
$var wire 1 N" in1 $end
$var wire 1 O" not_sel $end
$var wire 1 P" out $end
$var wire 1 w sel $end
$upscope $end
$scope module mux4 $end
$var wire 1 Q" and_in0 $end
$var wire 1 R" and_in1 $end
$var wire 1 S" in0 $end
$var wire 1 T" in1 $end
$var wire 1 U" not_sel $end
$var wire 1 V" out $end
$var wire 1 w sel $end
$upscope $end
$upscope $end
$scope module smaller_mux $end
$var wire 5 W" in0 [4:0] $end
$var wire 5 X" in1 [4:0] $end
$var wire 1 w sel $end
$var wire 5 Y" out [4:0] $end
$scope module mux0 $end
$var wire 1 Z" and_in0 $end
$var wire 1 [" and_in1 $end
$var wire 1 \" in0 $end
$var wire 1 ]" in1 $end
$var wire 1 ^" not_sel $end
$var wire 1 _" out $end
$var wire 1 w sel $end
$upscope $end
$scope module mux1 $end
$var wire 1 `" and_in0 $end
$var wire 1 a" and_in1 $end
$var wire 1 b" in0 $end
$var wire 1 c" in1 $end
$var wire 1 d" not_sel $end
$var wire 1 e" out $end
$var wire 1 w sel $end
$upscope $end
$scope module mux2 $end
$var wire 1 f" and_in0 $end
$var wire 1 g" and_in1 $end
$var wire 1 h" in0 $end
$var wire 1 i" in1 $end
$var wire 1 j" not_sel $end
$var wire 1 k" out $end
$var wire 1 w sel $end
$upscope $end
$scope module mux3 $end
$var wire 1 l" and_in0 $end
$var wire 1 m" and_in1 $end
$var wire 1 n" in0 $end
$var wire 1 o" in1 $end
$var wire 1 p" not_sel $end
$var wire 1 q" out $end
$var wire 1 w sel $end
$upscope $end
$scope module mux4 $end
$var wire 1 r" and_in0 $end
$var wire 1 s" and_in1 $end
$var wire 1 t" in0 $end
$var wire 1 u" in1 $end
$var wire 1 v" not_sel $end
$var wire 1 w" out $end
$var wire 1 w sel $end
$upscope $end
$upscope $end
$upscope $end
$scope module cmp_2 $end
$var wire 5 x" A [4:0] $end
$var wire 1 y" A_gt_B $end
$var wire 5 z" B [4:0] $end
$var wire 1 {" eq0 $end
$var wire 1 |" eq1 $end
$var wire 1 }" eq2 $end
$var wire 1 ~" eq3 $end
$var wire 1 !# eq4 $end
$var wire 1 "# eq4_and_eq3 $end
$var wire 1 ## eq4_and_gt3 $end
$var wire 1 $# eq4_eq3_and_eq2 $end
$var wire 1 %# eq4_eq3_and_gt2 $end
$var wire 1 &# eq4_eq3_eq2_and_eq1 $end
$var wire 1 '# eq4_eq3_eq2_and_gt1 $end
$var wire 1 (# eq4_eq3_eq2_eq1_and_gt0 $end
$var wire 1 )# gt0 $end
$var wire 1 *# gt1 $end
$var wire 1 +# gt2 $end
$var wire 1 ,# gt3 $end
$var wire 1 -# gt4 $end
$var wire 1 .# not_B0 $end
$var wire 1 /# not_B1 $end
$var wire 1 0# not_B2 $end
$var wire 1 1# not_B3 $end
$var wire 1 2# not_B4 $end
$var wire 1 3# or_temp1 $end
$var wire 1 4# or_temp2 $end
$var wire 1 5# or_temp3 $end
$var wire 5 6# smaller [4:0] $end
$var wire 5 7# greater [4:0] $end
$scope module greater_mux $end
$var wire 5 8# in0 [4:0] $end
$var wire 5 9# in1 [4:0] $end
$var wire 1 y" sel $end
$var wire 5 :# out [4:0] $end
$scope module mux0 $end
$var wire 1 ;# and_in0 $end
$var wire 1 <# and_in1 $end
$var wire 1 =# in0 $end
$var wire 1 ># in1 $end
$var wire 1 ?# not_sel $end
$var wire 1 @# out $end
$var wire 1 y" sel $end
$upscope $end
$scope module mux1 $end
$var wire 1 A# and_in0 $end
$var wire 1 B# and_in1 $end
$var wire 1 C# in0 $end
$var wire 1 D# in1 $end
$var wire 1 E# not_sel $end
$var wire 1 F# out $end
$var wire 1 y" sel $end
$upscope $end
$scope module mux2 $end
$var wire 1 G# and_in0 $end
$var wire 1 H# and_in1 $end
$var wire 1 I# in0 $end
$var wire 1 J# in1 $end
$var wire 1 K# not_sel $end
$var wire 1 L# out $end
$var wire 1 y" sel $end
$upscope $end
$scope module mux3 $end
$var wire 1 M# and_in0 $end
$var wire 1 N# and_in1 $end
$var wire 1 O# in0 $end
$var wire 1 P# in1 $end
$var wire 1 Q# not_sel $end
$var wire 1 R# out $end
$var wire 1 y" sel $end
$upscope $end
$scope module mux4 $end
$var wire 1 S# and_in0 $end
$var wire 1 T# and_in1 $end
$var wire 1 U# in0 $end
$var wire 1 V# in1 $end
$var wire 1 W# not_sel $end
$var wire 1 X# out $end
$var wire 1 y" sel $end
$upscope $end
$upscope $end
$scope module smaller_mux $end
$var wire 5 Y# in0 [4:0] $end
$var wire 5 Z# in1 [4:0] $end
$var wire 1 y" sel $end
$var wire 5 [# out [4:0] $end
$scope module mux0 $end
$var wire 1 \# and_in0 $end
$var wire 1 ]# and_in1 $end
$var wire 1 ^# in0 $end
$var wire 1 _# in1 $end
$var wire 1 `# not_sel $end
$var wire 1 a# out $end
$var wire 1 y" sel $end
$upscope $end
$scope module mux1 $end
$var wire 1 b# and_in0 $end
$var wire 1 c# and_in1 $end
$var wire 1 d# in0 $end
$var wire 1 e# in1 $end
$var wire 1 f# not_sel $end
$var wire 1 g# out $end
$var wire 1 y" sel $end
$upscope $end
$scope module mux2 $end
$var wire 1 h# and_in0 $end
$var wire 1 i# and_in1 $end
$var wire 1 j# in0 $end
$var wire 1 k# in1 $end
$var wire 1 l# not_sel $end
$var wire 1 m# out $end
$var wire 1 y" sel $end
$upscope $end
$scope module mux3 $end
$var wire 1 n# and_in0 $end
$var wire 1 o# and_in1 $end
$var wire 1 p# in0 $end
$var wire 1 q# in1 $end
$var wire 1 r# not_sel $end
$var wire 1 s# out $end
$var wire 1 y" sel $end
$upscope $end
$scope module mux4 $end
$var wire 1 t# and_in0 $end
$var wire 1 u# and_in1 $end
$var wire 1 v# in0 $end
$var wire 1 w# in1 $end
$var wire 1 x# not_sel $end
$var wire 1 y# out $end
$var wire 1 y" sel $end
$upscope $end
$upscope $end
$upscope $end
$scope module m $end
$var wire 4 z# addr [3:0] $end
$var wire 1 ' clk $end
$var wire 6 {# data [5:0] $end
$var wire 1 3 readEnable $end
$var wire 1 1 writeEnable $end
$var wire 1 p dirty $end
$var parameter 32 |# ADDR_WIDTH $end
$var parameter 33 }# DATA_WIDTH $end
$var reg 6 ~# temp_data [5:0] $end
$upscope $end
$upscope $end
$scope module u_seven_segment_display $end
$var wire 1 ' clk $end
$var wire 5 !$ number1 [4:0] $end
$var wire 5 "$ number2 [4:0] $end
$var wire 1 + reset $end
$var wire 4 #$ number2_tens [3:0] $end
$var wire 4 $$ number2_ones [3:0] $end
$var wire 4 %$ number1_tens [3:0] $end
$var wire 4 &$ number1_ones [3:0] $end
$var wire 3 '$ display_select [2:0] $end
$var parameter 7 ($ A $end
$var parameter 7 )$ B $end
$var parameter 7 *$ C $end
$var parameter 7 +$ D $end
$var parameter 7 ,$ E $end
$var parameter 7 -$ EIGHT $end
$var parameter 7 .$ F $end
$var parameter 7 /$ FIVE $end
$var parameter 7 0$ FOUR $end
$var parameter 7 1$ NINE $end
$var parameter 7 2$ ONE $end
$var parameter 7 3$ SEVEN $end
$var parameter 7 4$ SIX $end
$var parameter 7 5$ THREE $end
$var parameter 7 6$ TWO $end
$var parameter 7 7$ ZERO $end
$var reg 7 8$ a_to_g [6:0] $end
$var reg 8 9$ an [7:0] $end
$var reg 4 :$ digit_to_display [3:0] $end
$var reg 20 ;$ refresh_counter [19:0] $end
$upscope $end
$upscope $end
$scope begin $ivl_for_loop0 $end
$var integer 32 <$ i [31:0] $end
$upscope $end
$upscope $end
$enddefinitions $end
$comment Show the parameter values. $end
$dumpall
b1 7$
b10010 6$
b110 5$
b100000 4$
b1111 3$
b1001111 2$
b100 1$
b1001100 0$
b100100 /$
b111000 .$
b0 -$
b110000 ,$
b1000010 +$
b110001 *$
b1100000 )$
b1000 ($
b110 }#
b100 |#
b101 u
b100 t
b100 W
b111 V
b110 U
b101 T
b11 S
b10 R
b1 Q
b0 P
b1000 O
b101 N
b100 M
b101 D
b100 C
b101 %
b100 $
$end
#0
$dumpvars
bx <$
b0 ;$
b1 :$
b11111110 9$
b1001111 8$
b0 '$
b0 &$
b0 %$
b1 $$
b11 #$
b11111 "$
b0 !$
bx ~#
bx {#
b0 z#
xy#
xx#
xw#
xv#
xu#
xt#
xs#
xr#
xq#
xp#
xo#
xn#
xm#
xl#
xk#
xj#
xi#
xh#
xg#
xf#
xe#
xd#
xc#
xb#
xa#
x`#
x_#
x^#
x]#
x\#
bx [#
bx Z#
bx Y#
xX#
xW#
xV#
xU#
xT#
xS#
xR#
xQ#
xP#
xO#
xN#
xM#
xL#
xK#
xJ#
xI#
xH#
xG#
xF#
xE#
xD#
xC#
xB#
xA#
x@#
x?#
x>#
x=#
x<#
x;#
bx :#
bx 9#
bx 8#
bx 7#
bx 6#
x5#
x4#
x3#
x2#
x1#
x0#
x/#
x.#
x-#
x,#
x+#
x*#
x)#
x(#
x'#
x&#
x%#
x$#
x##
x"#
x!#
x~"
x}"
x|"
x{"
bx z"
xy"
bx x"
xw"
xv"
xu"
xt"
xs"
xr"
xq"
xp"
xo"
xn"
xm"
xl"
xk"
xj"
xi"
xh"
xg"
xf"
xe"
xd"
xc"
xb"
xa"
x`"
x_"
x^"
x]"
x\"
x["
xZ"
bx Y"
bx X"
bx W"
xV"
xU"
xT"
xS"
xR"
xQ"
xP"
xO"
xN"
xM"
xL"
xK"
xJ"
xI"
xH"
xG"
xF"
xE"
xD"
xC"
xB"
xA"
x@"
x?"
x>"
x="
x<"
x;"
x:"
x9"
bx 8"
bx 7"
bx 6"
bx 5"
bx 4"
x3"
x2"
x1"
x0"
x/"
x."
x-"
x,"
x+"
x*"
x)"
x("
x'"
x&"
x%"
x$"
x#"
x""
x!"
x~
x}
x|
x{
xz
xy
bx x
xw
bx v
bx s
bx r
bx q
xp
bx o
bx n
b0 m
b0 l
bx k
bx j
bx i
bx h
bx g
b0 f
b0 e
xd
b0 c
bx b
b0 a
b11111 `
bx _
bx ^
x]
bx \
bx [
bx Z
bx Y
0X
bx L
bx K
bx J
b0 I
b0 H
b0 G
b0 F
b0 E
b1001111 B
bx A
b11111110 @
bx ?
bx >
x=
bx <
bx ;
bx :
bx 9
x8
b0 7
b0 6
b11111 5
b0 4
x3
x2
x1
bz 0
z/
b0 .
b0 -
b11100011101110101101000101 ,
1+
0*
0)
b0 (
0'
b0 &
bx #
0"
1!
$end
#5000
08
1@#
1F#
1L#
1R#
b11111 n
b11111 7#
b11111 :#
1X#
1a#
1g#
1m#
1s#
b11111 >
b11111 J
b11111 r
b11111 6#
b11111 [#
1y#
1;#
1A#
1G#
1M#
1S#
1\#
1b#
1h#
1n#
1t#
1?#
0<#
1E#
0B#
1K#
0H#
1Q#
0N#
1W#
0T#
1`#
0]#
1f#
0c#
1l#
0i#
1r#
0o#
1x#
0u#
0y"
05#
04#
03#
1="
1C"
1I"
1O"
1U"
1^"
1d"
1j"
1p"
1v"
0=
0##
0(#
0'#
0%#
0w
03"
02"
01"
b0 #
0p
0)#
0*#
0+#
0,#
0-#
1&#
1$#
1"#
1$"
1""
1~
0&"
0%"
0#"
0!"
0>"
0D"
0J"
0P"
b0 ?
b0 K
b0 s
b0 5"
b0 8"
0V"
0_"
0e"
0k"
0q"
b0 o
b0 4"
b0 Y"
0w"
b0 g
b0 {#
b0 A
b0 L
b0 q
0.#
0/#
00#
01#
02#
1{"
1|"
1}"
1~"
1!#
1,"
1-"
1."
1/"
10"
09"
0?"
0E"
0K"
0Q"
0["
0a"
0g"
0m"
0s"
1y
1z
1{
1|
1}
0'"
0("
0)"
0*"
0+"
0:"
0@"
0F"
0L"
0R"
0Z"
0`"
0f"
0l"
0r"
1=#
1C#
1I#
1O#
1U#
1_#
1e#
1k#
1q#
1w#
1>#
1D#
1J#
1P#
1V#
1^#
1d#
1j#
1p#
1v#
0;"
0A"
0G"
0M"
0S"
0]"
0c"
0i"
0o"
0u"
0<"
0B"
0H"
0N"
0T"
0\"
0b"
0h"
0n"
0t"
02
b0 ^
b0 _
03
11
1d
0]
b11111 9
b11111 \
b11111 k
b11111 z"
b11111 8#
b11111 Z#
b11111 :
b11111 [
b11111 j
b11111 x"
b11111 9#
b11111 Y#
b0 ;
b0 Z
b0 i
b0 x
b0 6"
b0 X"
b0 <
b0 Y
b0 h
b0 v
b0 7"
b0 W"
b0 b
1'
#10000
0'
0+
#15000
b1 7
b1 H
b1 l
b1 z#
b1 ;$
b1 c
1'
#20000
0'
#25000
b10 7
b10 H
b10 l
b10 z#
b10 ;$
b10 c
1'
#30000
0'
#35000
b11 7
b11 H
b11 l
b11 z#
b11 ;$
b11 c
1'
#40000
0'
#45000
b100 7
b100 H
b100 l
b100 z#
b100 ;$
b100 c
1'
#50000
0'
#55000
b101 7
b101 H
b101 l
b101 z#
b101 ;$
b101 c
1'
#60000
0'
#65000
b110 7
b110 H
b110 l
b110 z#
b110 ;$
b110 c
1'
#70000
0'
#75000
b111 7
b111 H
b111 l
b111 z#
b111 ;$
b111 c
1'
#80000
0'
#85000
b1000 7
b1000 H
b1000 l
b1000 z#
b1000 ;$
b1000 c
1'
#90000
0'
#95000
b1001 7
b1001 H
b1001 l
b1001 z#
b1001 ;$
b1001 c
1'
#100000
0'
#105000
b1010 7
b1010 H
b1010 l
b1010 z#
b1010 ;$
b1010 c
1'
#110000
0'
#115000
b1011 7
b1011 H
b1011 l
b1011 z#
b1011 ;$
b1011 c
1'
#120000
0'
#125000
b1100 7
b1100 H
b1100 l
b1100 z#
b1100 ;$
b1100 c
1'
#130000
0'
#135000
b1101 7
b1101 H
b1101 l
b1101 z#
b1101 ;$
b1101 c
1'
#140000
0'
#145000
b1110 7
b1110 H
b1110 l
b1110 z#
b1110 ;$
b1110 c
1'
#150000
0'
#155000
b1111 7
b1111 H
b1111 l
b1111 z#
b1111 ;$
b1111 c
1'
#160000
0'
#165000
b10000 ;$
0d
1'
#170000
0'
#175000
b10001 ;$
12
1'
#180000
0'
1)
#185000
b0 7
b0 H
b0 l
b0 z#
b100000 g
b100000 {#
b100000 6
b100000 G
b100000 m
b10010 ;$
b1 e
b1 b
1'
#190000
b101101 g
b101101 {#
b101101 6
b101101 G
b101101 m
b1101 I
0'
1*
b1101 (
b1101 .
b1101 F
b110101010011110011101000010 ,
#195000
b10 e
b10011 ;$
b10 b
1'
#200000
0'
0*
#205000
1="
0:"
1C"
1I"
0F"
1O"
0L"
1U"
1^"
0["
1d"
1j"
0g"
1p"
0m"
1v"
03"
0w
02"
01"
0F#
b1101 n
b1101 7#
b1101 :#
0X#
0g#
b1101 >
b1101 J
b1101 r
b1101 6#
b1101 [#
0y#
1>"
1J"
b1101 ?
b1101 K
b1101 s
b1101 5"
b1101 8"
1P"
0&"
0#"
0!"
1_"
1k"
b1101 o
b1101 4"
b1101 Y"
1q"
1/#
12#
0A#
0S#
0b#
0t#
0,"
0."
0/"
19"
1E"
1K"
0=
0'"
0)"
0*"
1Z"
1f"
1l"
0C#
0U#
0e#
0w#
0D#
0V#
0d#
0v#
1;"
1G"
1M"
1]"
1i"
1o"
1<"
1H"
1N"
1\"
1h"
1n"
b10100 ;$
b11 e
b1101 9
b1101 \
b1101 k
b1101 z"
b1101 8#
b1101 Z#
b1101 :
b1101 [
b1101 j
b1101 x"
b1101 9#
b1101 Y#
b1101 ;
b1101 Z
b1101 i
b1101 x
b1101 6"
b1101 X"
b1101 <
b1101 Y
b1101 h
b1101 v
b1101 7"
b1101 W"
b11 b
1'
#210000
b111100 g
b111100 {#
b1 7
b1 H
b1 l
b1 z#
b111100 6
b111100 G
b111100 m
b11100 I
0'
b11100 (
b11100 .
b11100 F
b11011110000011101000100111011011 ,
b1 &
b1 -
b1 E
#215000
b1 e
b10101 ;$
b1 b
1'
#220000
0'
1*
#225000
b10110 ;$
b10 e
b10 b
1'
#230000
0'
0*
#235000
1L#
1R#
1m#
1s#
1J"
1P"
1k"
1q"
1G#
1M#
1h#
1n#
1E"
1K"
1f"
1l"
1?#
1E#
1K#
0H#
1Q#
0N#
1W#
0T#
1`#
1f#
1l#
0i#
1r#
0o#
1x#
0u#
1="
1C"
1I"
0F"
1O"
0L"
1U"
0R"
1^"
1d"
1j"
0g"
1p"
0m"
1v"
0s"
0y"
0w
05#
03"
04#
02"
0@#
b11100 n
b11100 7#
b11100 :#
1X#
03#
0a#
b11100 >
b11100 J
b11100 r
b11100 6#
b11100 [#
1y#
0>"
b11100 ?
b11100 K
b11100 s
b11100 5"
b11100 8"
1V"
01"
0_"
b11100 o
b11100 4"
b11100 Y"
1w"
1.#
02#
0;#
1S#
08
0-#
0\#
1t#
1,"
00"
09"
1Q"
0=
0+"
0Z"
1r"
0=#
1U#
0_#
1w#
0>#
1V#
0^#
1v#
0;"
1S"
0]"
1u"
0<"
1T"
0\"
1t"
b11 e
b10111 ;$
b11100 9
b11100 \
b11100 k
b11100 z"
b11100 8#
b11100 Z#
b11100 :
b11100 [
b11100 j
b11100 x"
b11100 9#
b11100 Y#
b11100 ;
b11100 Z
b11100 i
b11100 x
b11100 6"
b11100 X"
b11100 <
b11100 Y
b11100 h
b11100 v
b11100 7"
b11100 W"
b11 b
1'
#240000
b110000 g
b110000 {#
b10 7
b10 H
b10 l
b10 z#
b110000 6
b110000 G
b110000 m
b10000 I
0'
b10000 (
b10000 .
b10000 F
b11000011111111000001101100000 ,
b10 &
b10 -
b10 E
#245000
b11000 ;$
b1 e
b1 b
1'
#250000
0'
1*
#255000
b10 e
b11001 ;$
b10 b
1'
#260000
0'
0*
#265000
0L#
b10000 n
b10000 7#
b10000 :#
0R#
0m#
b10000 >
b10000 J
b10000 r
b10000 6#
b10000 [#
0s#
0J"
b10000 ?
b10000 K
b10000 s
b10000 5"
b10000 8"
0P"
0k"
b10000 o
b10000 4"
b10000 Y"
0q"
10#
11#
0G#
0M#
0h#
0n#
1."
1/"
0E"
0K"
0f"
0l"
0I#
0O#
0k#
0q#
0J#
0P#
0j#
0p#
0G"
0M"
0i"
0o"
0H"
0N"
0h"
0n"
b11010 ;$
b11 e
b10000 9
b10000 \
b10000 k
b10000 z"
b10000 8#
b10000 Z#
b10000 :
b10000 [
b10000 j
b10000 x"
b10000 9#
b10000 Y#
b10000 ;
b10000 Z
b10000 i
b10000 x
b10000 6"
b10000 X"
b10000 <
b10000 Y
b10000 h
b10000 v
b10000 7"
b10000 W"
b11 b
1'
#270000
b110110 g
b110110 {#
b11 7
b11 H
b11 l
b11 z#
b110110 6
b110110 G
b110110 m
b10110 I
0'
b10110 (
b10110 .
b10110 F
b10011011001010000001001111100001 ,
b11 &
b11 -
b11 E
#275000
b1 e
b11011 ;$
b1 b
1'
#280000
0'
1*
#285000
b11100 ;$
b10 e
b10 b
1'
#290000
0'
0*
#295000
1X#
1y#
1V"
1w"
1S#
1t#
1Q"
1r"
1?#
1E#
0B#
1K#
0H#
1Q#
1W#
0T#
1`#
1f#
0c#
1l#
0i#
1r#
1x#
0u#
1="
1C"
0@"
1I"
0F"
1O"
1U"
0R"
1^"
1d"
0a"
1j"
0g"
1p"
1v"
0s"
0y"
0w
05#
04#
03"
02"
1F#
b10110 n
b10110 7#
b10110 :#
1L#
0'#
0%#
1g#
b10110 >
b10110 J
b10110 r
b10110 6#
b10110 [#
1m#
1D"
b10110 ?
b10110 K
b10110 s
b10110 5"
b10110 8"
1J"
0%"
0#"
1e"
b10110 o
b10110 4"
b10110 Y"
1k"
0/#
00#
1A#
1G#
0*#
0+#
1b#
1h#
0-"
0."
1?"
1E"
0("
0)"
1`"
1f"
1C#
1I#
1e#
1k#
1D#
1J#
1d#
1j#
1A"
1G"
1c"
1i"
1B"
1H"
1b"
1h"
b11 e
b11101 ;$
b10110 9
b10110 \
b10110 k
b10110 z"
b10110 8#
b10110 Z#
b10110 :
b10110 [
b10110 j
b10110 x"
b10110 9#
b10110 Y#
b10110 ;
b10110 Z
b10110 i
b10110 x
b10110 6"
b10110 X"
b10110 <
b10110 Y
b10110 h
b10110 v
b10110 7"
b10110 W"
b11 b
1'
#300000
b110111 g
b110111 {#
b100 7
b100 H
b100 l
b100 z#
b110111 6
b110111 G
b110111 m
b10111 I
0'
b10111 (
b10111 .
b10111 F
b1011011111110110101100000101110 ,
b100 &
b100 -
b100 E
#305000
b11110 ;$
b1 e
b1 b
1'
#310000
0'
1*
#315000
b10 e
b11111 ;$
b10 b
1'
#320000
0'
0*
#325000
1F#
1L#
1X#
1g#
1m#
1y#
1D"
1J"
1V"
1e"
1k"
1w"
1A#
1G#
1S#
1b#
1h#
1t#
1?"
1E"
1Q"
1`"
1f"
1r"
1?#
0<#
1E#
0B#
1K#
0H#
1Q#
1W#
0T#
1`#
0]#
1f#
0c#
1l#
0i#
1r#
1x#
0u#
1="
0:"
1C"
0@"
1I"
0F"
1O"
1U"
0R"
1^"
0["
1d"
0a"
1j"
0g"
1p"
1v"
0s"
0y"
0w
b10111 n
b10111 7#
b10111 :#
1@#
0(#
b10111 >
b10111 J
b10111 r
b10111 6#
b10111 [#
1a#
b10111 ?
b10111 K
b10111 s
b10111 5"
b10111 8"
1>"
0&"
b10111 o
b10111 4"
b10111 Y"
1_"
0.#
1;#
08
0)#
1\#
0,"
19"
0=
0'"
1Z"
1=#
1_#
1>#
1^#
1;"
1]"
1<"
1\"
b100000 ;$
b11 e
b10111 9
b10111 \
b10111 k
b10111 z"
b10111 8#
b10111 Z#
b10111 :
b10111 [
b10111 j
b10111 x"
b10111 9#
b10111 Y#
b10111 ;
b10111 Z
b10111 i
b10111 x
b10111 6"
b10111 X"
b10111 <
b10111 Y
b10111 h
b10111 v
b10111 7"
b10111 W"
b11 b
1'
#330000
b100111 g
b100111 {#
b101 7
b101 H
b101 l
b101 z#
b100111 6
b100111 G
b100111 m
b111 I
0'
b111 (
b111 .
b111 F
b11000011111011011111001011010111 ,
b101 &
b101 -
b101 E
#335000
b1 e
b100001 ;$
b1 b
1'
#340000
0'
1*
#345000
b100010 ;$
b10 e
b10 b
1'
#350000
0'
0*
#355000
b111 n
b111 7#
b111 :#
0X#
b111 >
b111 J
b111 r
b111 6#
b111 [#
0y#
b111 ?
b111 K
b111 s
b111 5"
b111 8"
0V"
b111 o
b111 4"
b111 Y"
0w"
12#
0S#
0t#
10"
0Q"
0r"
0U#
0w#
0V#
0v#
0S"
0u"
0T"
0t"
b11 e
b100011 ;$
b111 9
b111 \
b111 k
b111 z"
b111 8#
b111 Z#
b111 :
b111 [
b111 j
b111 x"
b111 9#
b111 Y#
b111 ;
b111 Z
b111 i
b111 x
b111 6"
b111 X"
b111 <
b111 Y
b111 h
b111 v
b111 7"
b111 W"
b11 b
1'
#360000
b111011 g
b111011 {#
b110 7
b110 H
b110 l
b110 z#
b111011 6
b111011 G
b111011 m
b11011 I
0'
b11011 (
b11011 .
b11011 F
b11101101101101110110000100101100 ,
b110 &
b110 -
b110 E
#365000
b100100 ;$
b1 e
b1 b
1'
#370000
0'
1*
#375000
b10 e
b100101 ;$
b10 b
1'
#380000
0'
0*
