Final/min_mex_tb.vcd
$date
	Tue Apr 01 12:49:31 2025
$end
$version
	Icarus Verilog
$end
$timescale
	1ps
$end
$scope module min_mex_tb $end
$var event 1 ! _ivl_2 $end
$var wire 1 " outValid $end
$var wire 4 # min_addr [3:0] $end
$var wire 4 $ max_addr [3:0] $end
$var wire 5 % data_out [4:0] $end
$var parameter 32 & ADDR_WIDTH $end
$var parameter 32 ' DATA_WIDTH $end
$var reg 4 ( addr [3:0] $end
$var reg 1 ) clk $end
$var reg 5 * data [4:0] $end
$var reg 1 + dataValid $end
$var reg 1 , read $end
$var reg 1 - reset $end
$var reg 32 . seed [31:0] $end
$scope module dut $end
$var wire 4 / addr [3:0] $end
$var wire 1 ) clk $end
$var wire 5 0 data [4:0] $end
$var wire 1 + dataValid $end
$var wire 1 , read $end
$var wire 1 - reset $end
$var wire 1 1 we $end
$var wire 1 2 resetComplete $end
$var wire 1 3 re $end
$var wire 1 " outValid $end
$var wire 5 4 mx [4:0] $end
$var wire 5 5 mn [4:0] $end
$var wire 4 6 min_addr [3:0] $end
$var wire 6 7 mem_data [5:0] $end
$var wire 4 8 mem_addr [3:0] $end
$var wire 4 9 max_addr [3:0] $end
$var wire 1 : lesflag $end
$var wire 5 ; in4 [4:0] $end
$var wire 5 < in3 [4:0] $end
$var wire 5 = in2 [4:0] $end
$var wire 5 > in1 [4:0] $end
$var wire 1 ? greflag $end
$var wire 5 @ comp_les [4:0] $end
$var wire 5 A comp_gre [4:0] $end
$var wire 8 B an [7:0] $end
$var wire 6 C actual_mem_data [5:0] $end
$var wire 7 D a_to_g [6:0] $end
$var parameter 32 E ADDR_WIDTH $end
$var parameter 32 F DATA_WIDTH $end
$scope module control_unit $end
$var wire 4 G addr [3:0] $end
$var wire 1 ) clk $end
$var wire 1 + dataValid $end
$var wire 5 H data_in [4:0] $end
$var wire 1 , read $end
$var wire 1 - reset $end
$var wire 1 " outValid $end
$var wire 6 I mem_data [5:0] $end
$var wire 4 J mem_addr [3:0] $end
$var wire 1 : lesflag $end
$var wire 1 ? greflag $end
$var wire 5 K data_mem [4:0] $end
$var wire 5 L comp_les [4:0] $end
$var wire 5 M comp_gre [4:0] $end
$var wire 6 N actual_mem_data [5:0] $end
$var parameter 32 O ADDR_WIDTH $end
$var parameter 32 P DATA_WIDTH $end
$var parameter 4 Q S_DONE $end
$var parameter 4 R S_IDLE $end
$var parameter 4 S S_READ $end
$var parameter 4 T S_READ_INTERMEDIATE_1 $end
$var parameter 4 U S_READ_INTERMEDIATE_2 $end
$var parameter 4 V S_RUN $end
$var parameter 4 W S_RUN_INTERMEDIATE_1 $end
$var parameter 4 X S_RUN_INTERMEDIATE_2 $end
$var parameter 4 Y S_RUN_PRE $end
$var reg 1 Z dp_done $end
$var reg 5 [ in1 [4:0] $end
$var reg 5 \ in2 [4:0] $end
$var reg 5 ] in3 [4:0] $end
$var reg 5 ^ in4 [4:0] $end
$var reg 1 _ loop2 $end
$var reg 4 ` max_addr [3:0] $end
$var reg 4 a min_addr [3:0] $end
$var reg 5 b mn [4:0] $end
$var reg 5 c mx [4:0] $end
$var reg 4 d nxt_state [3:0] $end
$var reg 1 3 re $end
$var reg 5 e resetAddr [4:0] $end
$var reg 1 2 resetComplete $end
$var reg 1 f resetting $end
$var reg 4 g state [3:0] $end
$var reg 4 h temp_addr [3:0] $end
$var reg 1 1 we $end
$upscope $end
$scope module datapath_unit $end
$var wire 6 i actual_mem_data [5:0] $end
$var wire 1 ) clk $end
$var wire 5 j comp_gre_in1 [4:0] $end
$var wire 5 k comp_gre_in2 [4:0] $end
$var wire 5 l comp_les_in1 [4:0] $end
$var wire 5 m comp_les_in2 [4:0] $end
$var wire 1 ? greflag $end
$var wire 1 : lesflag $end
$var wire 4 n mem_addr [3:0] $end
$var wire 6 o mem_data [5:0] $end
$var wire 1 3 re $end
$var wire 1 1 we $end
$var wire 5 p tmp_2 [4:0] $end
$var wire 5 q tmp_1 [4:0] $end
$var wire 1 r dirty $end
$var wire 6 s data_out [5:0] $end
$var wire 5 t comp_les [4:0] $end
$var wire 5 u comp_gre [4:0] $end
$var parameter 32 v ADDR_WIDTH $end
$var parameter 32 w DATA_WIDTH $end
$scope module cmp $end
$var wire 5 x A [4:0] $end
$var wire 1 y A_gt_B $end
$var wire 5 z B [4:0] $end
$var wire 1 { eq0 $end
$var wire 1 | eq1 $end
$var wire 1 } eq2 $end
$var wire 1 ~ eq3 $end
$var wire 1 !" eq4 $end
$var wire 1 "" eq4_and_eq3 $end
$var wire 1 #" eq4_and_gt3 $end
$var wire 1 $" eq4_eq3_and_eq2 $end
$var wire 1 %" eq4_eq3_and_gt2 $end
$var wire 1 &" eq4_eq3_eq2_and_eq1 $end
$var wire 1 '" eq4_eq3_eq2_and_gt1 $end
$var wire 1 (" eq4_eq3_eq2_eq1_and_gt0 $end
$var wire 1 )" gt0 $end
$var wire 1 *" gt1 $end
$var wire 1 +" gt2 $end
$var wire 1 ," gt3 $end
$var wire 1 -" gt4 $end
$var wire 1 ." not_B0 $end
$var wire 1 /" not_B1 $end
$var wire 1 0" not_B2 $end
$var wire 1 1" not_B3 $end
$var wire 1 2" not_B4 $end
$var wire 1 3" or_temp1 $end
$var wire 1 4" or_temp2 $end
$var wire 1 5" or_temp3 $end
$var wire 5 6" smaller [4:0] $end
$var wire 5 7" greater [4:0] $end
$scope module greater_mux $end
$var wire 5 8" in0 [4:0] $end
$var wire 5 9" in1 [4:0] $end
$var wire 1 y sel $end
$var wire 5 :" out [4:0] $end
$scope module mux0 $end
$var wire 1 ;" and_in0 $end
$var wire 1 <" and_in1 $end
$var wire 1 =" in0 $end
$var wire 1 >" in1 $end
$var wire 1 ?" not_sel $end
$var wire 1 @" out $end
$var wire 1 y sel $end
$upscope $end
$scope module mux1 $end
$var wire 1 A" and_in0 $end
$var wire 1 B" and_in1 $end
$var wire 1 C" in0 $end
$var wire 1 D" in1 $end
$var wire 1 E" not_sel $end
$var wire 1 F" out $end
$var wire 1 y sel $end
$upscope $end
$scope module mux2 $end
$var wire 1 G" and_in0 $end
$var wire 1 H" and_in1 $end
$var wire 1 I" in0 $end
$var wire 1 J" in1 $end
$var wire 1 K" not_sel $end
$var wire 1 L" out $end
$var wire 1 y sel $end
$upscope $end
$scope module mux3 $end
$var wire 1 M" and_in0 $end
$var wire 1 N" and_in1 $end
$var wire 1 O" in0 $end
$var wire 1 P" in1 $end
$var wire 1 Q" not_sel $end
$var wire 1 R" out $end
$var wire 1 y sel $end
$upscope $end
$scope module mux4 $end
$var wire 1 S" and_in0 $end
$var wire 1 T" and_in1 $end
$var wire 1 U" in0 $end
$var wire 1 V" in1 $end
$var wire 1 W" not_sel $end
$var wire 1 X" out $end
$var wire 1 y sel $end
$upscope $end
$upscope $end
$scope module smaller_mux $end
$var wire 5 Y" in0 [4:0] $end
$var wire 5 Z" in1 [4:0] $end
$var wire 1 y sel $end
$var wire 5 [" out [4:0] $end
$scope module mux0 $end
$var wire 1 \" and_in0 $end
$var wire 1 ]" and_in1 $end
$var wire 1 ^" in0 $end
$var wire 1 _" in1 $end
$var wire 1 `" not_sel $end
$var wire 1 a" out $end
$var wire 1 y sel $end
$upscope $end
$scope module mux1 $end
$var wire 1 b" and_in0 $end
$var wire 1 c" and_in1 $end
$var wire 1 d" in0 $end
$var wire 1 e" in1 $end
$var wire 1 f" not_sel $end
$var wire 1 g" out $end
$var wire 1 y sel $end
$upscope $end
$scope module mux2 $end
$var wire 1 h" and_in0 $end
$var wire 1 i" and_in1 $end
$var wire 1 j" in0 $end
$var wire 1 k" in1 $end
$var wire 1 l" not_sel $end
$var wire 1 m" out $end
$var wire 1 y sel $end
$upscope $end
$scope module mux3 $end
$var wire 1 n" and_in0 $end
$var wire 1 o" and_in1 $end
$var wire 1 p" in0 $end
$var wire 1 q" in1 $end
$var wire 1 r" not_sel $end
$var wire 1 s" out $end
$var wire 1 y sel $end
$upscope $end
$scope module mux4 $end
$var wire 1 t" and_in0 $end
$var wire 1 u" and_in1 $end
$var wire 1 v" in0 $end
$var wire 1 w" in1 $end
$var wire 1 x" not_sel $end
$var wire 1 y" out $end
$var wire 1 y sel $end
$upscope $end
$upscope $end
$upscope $end
$scope module cmp_2 $end
$var wire 5 z" A [4:0] $end
$var wire 1 {" A_gt_B $end
$var wire 5 |" B [4:0] $end
$var wire 1 }" eq0 $end
$var wire 1 ~" eq1 $end
$var wire 1 !# eq2 $end
$var wire 1 "# eq3 $end
$var wire 1 ## eq4 $end
$var wire 1 $# eq4_and_eq3 $end
$var wire 1 %# eq4_and_gt3 $end
$var wire 1 &# eq4_eq3_and_eq2 $end
$var wire 1 '# eq4_eq3_and_gt2 $end
$var wire 1 (# eq4_eq3_eq2_and_eq1 $end
$var wire 1 )# eq4_eq3_eq2_and_gt1 $end
$var wire 1 *# eq4_eq3_eq2_eq1_and_gt0 $end
$var wire 1 +# gt0 $end
$var wire 1 ,# gt1 $end
$var wire 1 -# gt2 $end
$var wire 1 .# gt3 $end
$var wire 1 /# gt4 $end
$var wire 1 0# not_B0 $end
$var wire 1 1# not_B1 $end
$var wire 1 2# not_B2 $end
$var wire 1 3# not_B3 $end
$var wire 1 4# not_B4 $end
$var wire 1 5# or_temp1 $end
$var wire 1 6# or_temp2 $end
$var wire 1 7# or_temp3 $end
$var wire 5 8# smaller [4:0] $end
$var wire 5 9# greater [4:0] $end
$scope module greater_mux $end
$var wire 5 :# in0 [4:0] $end
$var wire 5 ;# in1 [4:0] $end
$var wire 1 {" sel $end
$var wire 5 <# out [4:0] $end
$scope module mux0 $end
$var wire 1 =# and_in0 $end
$var wire 1 ># and_in1 $end
$var wire 1 ?# in0 $end
$var wire 1 @# in1 $end
$var wire 1 A# not_sel $end
$var wire 1 B# out $end
$var wire 1 {" sel $end
$upscope $end
$scope module mux1 $end
$var wire 1 C# and_in0 $end
$var wire 1 D# and_in1 $end
$var wire 1 E# in0 $end
$var wire 1 F# in1 $end
$var wire 1 G# not_sel $end
$var wire 1 H# out $end
$var wire 1 {" sel $end
$upscope $end
$scope module mux2 $end
$var wire 1 I# and_in0 $end
$var wire 1 J# and_in1 $end
$var wire 1 K# in0 $end
$var wire 1 L# in1 $end
$var wire 1 M# not_sel $end
$var wire 1 N# out $end
$var wire 1 {" sel $end
$upscope $end
$scope module mux3 $end
$var wire 1 O# and_in0 $end
$var wire 1 P# and_in1 $end
$var wire 1 Q# in0 $end
$var wire 1 R# in1 $end
$var wire 1 S# not_sel $end
$var wire 1 T# out $end
$var wire 1 {" sel $end
$upscope $end
$scope module mux4 $end
$var wire 1 U# and_in0 $end
$var wire 1 V# and_in1 $end
$var wire 1 W# in0 $end
$var wire 1 X# in1 $end
$var wire 1 Y# not_sel $end
$var wire 1 Z# out $end
$var wire 1 {" sel $end
$upscope $end
$upscope $end
$scope module smaller_mux $end
$var wire 5 [# in0 [4:0] $end
$var wire 5 \# in1 [4:0] $end
$var wire 1 {" sel $end
$var wire 5 ]# out [4:0] $end
$scope module mux0 $end
$var wire 1 ^# and_in0 $end
$var wire 1 _# and_in1 $end
$var wire 1 `# in0 $end
$var wire 1 a# in1 $end
$var wire 1 b# not_sel $end
$var wire 1 c# out $end
$var wire 1 {" sel $end
$upscope $end
$scope module mux1 $end
$var wire 1 d# and_in0 $end
$var wire 1 e# and_in1 $end
$var wire 1 f# in0 $end
$var wire 1 g# in1 $end
$var wire 1 h# not_sel $end
$var wire 1 i# out $end
$var wire 1 {" sel $end
$upscope $end
$scope module mux2 $end
$var wire 1 j# and_in0 $end
$var wire 1 k# and_in1 $end
$var wire 1 l# in0 $end
$var wire 1 m# in1 $end
$var wire 1 n# not_sel $end
$var wire 1 o# out $end
$var wire 1 {" sel $end
$upscope $end
$scope module mux3 $end
$var wire 1 p# and_in0 $end
$var wire 1 q# and_in1 $end
$var wire 1 r# in0 $end
$var wire 1 s# in1 $end
$var wire 1 t# not_sel $end
$var wire 1 u# out $end
$var wire 1 {" sel $end
$upscope $end
$scope module mux4 $end
$var wire 1 v# and_in0 $end
$var wire 1 w# and_in1 $end
$var wire 1 x# in0 $end
$var wire 1 y# in1 $end
$var wire 1 z# not_sel $end
$var wire 1 {# out $end
$var wire 1 {" sel $end
$upscope $end
$upscope $end
$upscope $end
$scope module m $end
$var wire 4 |# addr [3:0] $end
$var wire 1 ) clk $end
$var wire 6 }# data [5:0] $end
$var wire 1 3 readEnable $end
$var wire 1 1 writeEnable $end
$var wire 1 r dirty $end
$var parameter 32 ~# ADDR_WIDTH $end
$var parameter 33 !$ DATA_WIDTH $end
$var reg 6 "$ temp_data [5:0] $end
$upscope $end
$upscope $end
$scope module u_seven_segment_display $end
$var wire 1 ) clk $end
$var wire 5 #$ number1 [4:0] $end
$var wire 5 $$ number2 [4:0] $end
$var wire 1 - reset $end
$var wire 4 %$ number2_tens [3:0] $end
$var wire 4 &$ number2_ones [3:0] $end
$var wire 4 '$ number1_tens [3:0] $end
$var wire 4 ($ number1_ones [3:0] $end
$var wire 3 )$ display_select [2:0] $end
$var parameter 7 *$ A $end
$var parameter 7 +$ B $end
$var parameter 7 ,$ C $end
$var parameter 7 -$ D $end
$var parameter 7 .$ E $end
$var parameter 7 /$ EIGHT $end
$var parameter 7 0$ F $end
$var parameter 7 1$ FIVE $end
$var parameter 7 2$ FOUR $end
$var parameter 7 3$ NINE $end
$var parameter 7 4$ ONE $end
$var parameter 7 5$ SEVEN $end
$var parameter 7 6$ SIX $end
$var parameter 7 7$ THREE $end
$var parameter 7 8$ TWO $end
$var parameter 7 9$ ZERO $end
$var reg 7 :$ a_to_g [6:0] $end
$var reg 8 ;$ an [7:0] $end
$var reg 4 <$ digit_to_display [3:0] $end
$var reg 20 =$ refresh_counter [19:0] $end
$upscope $end
$upscope $end
$scope begin $ivl_for_loop0 $end
$var integer 32 >$ i [31:0] $end
$upscope $end
$upscope $end
$enddefinitions $end
$comment Show the parameter values. $end
$dumpall
b1 9$
b10010 8$
b110 7$
b100000 6$
b1111 5$
b1001111 4$
b100 3$
b1001100 2$
b100100 1$
b111000 0$
b0 /$
b110000 .$
b1000010 -$
b110001 ,$
b1100000 +$
b1000 *$
b110 !$
b100 ~#
b101 w
b100 v
b100 Y
b111 X
b110 W
b101 V
b11 U
b10 T
b1 S
b0 R
b1000 Q
b101 P
b100 O
b101 F
b100 E
b101 '
b100 &
$end
#0
$dumpvars
bx >$
b0 =$
b1 <$
b11111110 ;$
b1001111 :$
b0 )$
b0 ($
b0 '$
b1 &$
b11 %$
b11111 $$
b0 #$
bx "$
bx }#
b0 |#
x{#
xz#
xy#
xx#
xw#
xv#
xu#
xt#
xs#
xr#
xq#
xp#
xo#
xn#
xm#
xl#
xk#
xj#
xi#
xh#
xg#
xf#
xe#
xd#
xc#
xb#
xa#
x`#
x_#
x^#
bx ]#
bx \#
bx [#
xZ#
xY#
xX#
xW#
xV#
xU#
xT#
xS#
xR#
xQ#
xP#
xO#
xN#
xM#
xL#
xK#
xJ#
xI#
xH#
xG#
xF#
xE#
xD#
xC#
xB#
xA#
x@#
x?#
x>#
x=#
bx <#
bx ;#
bx :#
bx 9#
bx 8#
x7#
x6#
x5#
x4#
x3#
x2#
x1#
x0#
x/#
x.#
x-#
x,#
x+#
x*#
x)#
x(#
x'#
x&#
x%#
x$#
x##
x"#
x!#
x~"
x}"
bx |"
x{"
bx z"
xy"
xx"
xw"
xv"
xu"
xt"
xs"
xr"
xq"
xp"
xo"
xn"
xm"
xl"
xk"
xj"
xi"
xh"
xg"
xf"
xe"
xd"
xc"
xb"
xa"
x`"
x_"
x^"
x]"
x\"
bx ["
bx Z"
bx Y"
xX"
xW"
xV"
xU"
xT"
xS"
xR"
xQ"
xP"
xO"
xN"
xM"
xL"
xK"
xJ"
xI"
xH"
xG"
xF"
xE"
xD"
xC"
xB"
xA"
x@"
x?"
x>"
x="
x<"
x;"
bx :"
bx 9"
bx 8"
bx 7"
bx 6"
x5"
x4"
x3"
x2"
x1"
x0"
x/"
x."
x-"
x,"
x+"
x*"
x)"
x("
x'"
x&"
x%"
x$"
x#"
x""
x!"
x~
x}
x|
x{
bx z
xy
bx x
bx u
bx t
bx s
xr
bx q
bx p
b0 o
b0 n
bx m
bx l
bx k
bx j
bx i
b0 h
b0 g
xf
b0 e
bx d
b0 c
b11111 b
bx a
bx `
x_
bx ^
bx ]
bx \
bx [
0Z
bx N
bx M
bx L
b0 K
b0 J
b0 I
b0 H
b0 G
b1001111 D
bx C
b11111110 B
bx A
bx @
x?
bx >
bx =
bx <
bx ;
x:
bx 9
b0 8
b0 7
bx 6
b11111 5
b0 4
x3
x2
x1
b0 0
b0 /
b11100011101110101101000101 .
1-
0,
0+
b0 *
0)
b0 (
bx %
bx $
bx #
0"
1!
$end
#5000
0:
1B#
1H#
1N#
1T#
b11111 p
b11111 9#
b11111 <#
1Z#
1c#
1i#
1o#
1u#
b11111 @
b11111 L
b11111 t
b11111 8#
b11111 ]#
1{#
1=#
1C#
1I#
1O#
1U#
1^#
1d#
1j#
1p#
1v#
1A#
0>#
1G#
0D#
1M#
0J#
1S#
0P#
1Y#
0V#
1b#
0_#
1h#
0e#
1n#
0k#
1t#
0q#
1z#
0w#
0{"
07#
06#
05#
1?"
1E"
1K"
1Q"
1W"
1`"
1f"
1l"
1r"
1x"
0?
0%#
0*#
0)#
0'#
0y
05"
04"
03"
b0 %
0r
0+#
0,#
0-#
0.#
0/#
1(#
1&#
1$#
1&"
1$"
1""
0("
0'"
0%"
0#"
0@"
0F"
0L"
0R"
b0 A
b0 M
b0 u
b0 7"
b0 :"
0X"
0a"
0g"
0m"
0s"
b0 q
b0 6"
b0 ["
0y"
b0 i
b0 }#
b0 C
b0 N
b0 s
00#
01#
02#
03#
04#
1}"
1~"
1!#
1"#
1##
1."
1/"
10"
11"
12"
0;"
0A"
0G"
0M"
0S"
0]"
0c"
0i"
0o"
0u"
1{
1|
1}
1~
1!"
0)"
0*"
0+"
0,"
0-"
0<"
0B"
0H"
0N"
0T"
0\"
0b"
0h"
0n"
0t"
1?#
1E#
1K#
1Q#
1W#
1a#
1g#
1m#
1s#
1y#
1@#
1F#
1L#
1R#
1X#
1`#
1f#
1l#
1r#
1x#
0="
0C"
0I"
0O"
0U"
0_"
0e"
0k"
0q"
0w"
0>"
0D"
0J"
0P"
0V"
0^"
0d"
0j"
0p"
0v"
02
b0 $
b0 9
b0 `
b0 #
b0 6
b0 a
03
11
1f
0_
b11111 ;
b11111 ^
b11111 m
b11111 |"
b11111 :#
b11111 \#
b11111 <
b11111 ]
b11111 l
b11111 z"
b11111 ;#
b11111 [#
b0 =
b0 \
b0 k
b0 z
b0 8"
b0 Z"
b0 >
b0 [
b0 j
b0 x
b0 9"
b0 Y"
b0 d
1)
#10000
0)
0-
#15000
b1 8
b1 J
b1 n
b1 |#
b1 =$
b1 e
1)
#20000
0)
#25000
b10 8
b10 J
b10 n
b10 |#
b10 =$
b10 e
1)
#30000
0)
#35000
b11 8
b11 J
b11 n
b11 |#
b11 =$
b11 e
1)
#40000
0)
#45000
b100 8
b100 J
b100 n
b100 |#
b100 =$
b100 e
1)
#50000
0)
#55000
b101 8
b101 J
b101 n
b101 |#
b101 =$
b101 e
1)
#60000
0)
#65000
b110 8
b110 J
b110 n
b110 |#
b110 =$
b110 e
1)
#70000
0)
#75000
b111 8
b111 J
b111 n
b111 |#
b111 =$
b111 e
1)
#80000
0)
#85000
b1000 8
b1000 J
b1000 n
b1000 |#
b1000 =$
b1000 e
1)
#90000
0)
#95000
b1001 8
b1001 J
b1001 n
b1001 |#
b1001 =$
b1001 e
1)
#100000
0)
#105000
b1010 8
b1010 J
b1010 n
b1010 |#
b1010 =$
b1010 e
1)
#110000
0)
#115000
b1011 8
b1011 J
b1011 n
b1011 |#
b1011 =$
b1011 e
1)
#120000
0)
#125000
b1100 8
b1100 J
b1100 n
b1100 |#
b1100 =$
b1100 e
1)
#130000
0)
#135000
b1101 8
b1101 J
b1101 n
b1101 |#
b1101 =$
b1101 e
1)
#140000
0)
#145000
b1110 8
b1110 J
b1110 n
b1110 |#
b1110 =$
b1110 e
1)
#150000
0)
#155000
b1111 8
b1111 J
b1111 n
b1111 |#
b1111 =$
b1111 e
1)
#160000
0)
#165000
b10000 =$
0f
1)
#170000
0)
#175000
b10001 =$
12
1)
#180000
0)
1+
#185000
b0 8
b0 J
b0 n
b0 |#
b100000 i
b100000 }#
b100000 7
b100000 I
b100000 o
b10010 =$
b1 g
b1 d
1)
#190000
b101101 i
b101101 }#
b101101 7
b101101 I
b101101 o
b1101 K
0)
1,
b1101 *
b1101 0
b1101 H
b110101010011110011101000010 .
#195000
b10 g
b10011 =$
b10 d
1)
#200000
0)
0,
#205000
1?"
0<"
1E"
1K"
0H"
1Q"
0N"
1W"
1`"
0]"
1f"
1l"
0i"
1r"
0o"
1x"
05"
0y
04"
03"
0H#
b1101 p
b1101 9#
b1101 <#
0Z#
0i#
b1101 @
b1101 L
b1101 t
b1101 8#
b1101 ]#
0{#
1@"
1L"
b1101 A
b1101 M
b1101 u
b1101 7"
b1101 :"
1R"
0("
0%"
0#"
1a"
1m"
b1101 q
b1101 6"
b1101 ["
1s"
11#
14#
0C#
0U#
0d#
0v#
0."
00"
01"
1;"
1G"
1M"
0?
0)"
0+"
0,"
1\"
1h"
1n"
0E#
0W#
0g#
0y#
0F#
0X#
0f#
0x#
1="
1I"
1O"
1_"
1k"
1q"
1>"
1J"
1P"
1^"
1j"
1p"
b10100 =$
b11 g
b1101 ;
b1101 ^
b1101 m
b1101 |"
b1101 :#
b1101 \#
b1101 <
b1101 ]
b1101 l
b1101 z"
b1101 ;#
b1101 [#
b1101 =
b1101 \
b1101 k
b1101 z
b1101 8"
b1101 Z"
b1101 >
b1101 [
b1101 j
b1101 x
b1101 9"
b1101 Y"
b11 d
1)
#210000
b111100 i
b111100 }#
b1 8
b1 J
b1 n
b1 |#
b111100 7
b111100 I
b111100 o
b11100 K
0)
b11100 *
b11100 0
b11100 H
b11011110000011101000100111011011 .
b1 (
b1 /
b1 G
#215000
b1 g
b10101 =$
b1 d
1)
#220000
0)
1,
#225000
b10110 =$
b10 g
b10 d
1)
#230000
0)
0,
#235000
1N#
1T#
1o#
1u#
1L"
1R"
1m"
1s"
1I#
1O#
1j#
1p#
1G"
1M"
1h"
1n"
1A#
1G#
1M#
0J#
1S#
0P#
1Y#
0V#
1b#
1h#
1n#
0k#
1t#
0q#
1z#
0w#
1?"
1E"
1K"
0H"
1Q"
0N"
1W"
0T"
1`"
1f"
1l"
0i"
1r"
0o"
1x"
0u"
0{"
0y
07#
05"
06#
04"
0B#
b11100 p
b11100 9#
b11100 <#
1Z#
05#
0c#
b11100 @
b11100 L
b11100 t
b11100 8#
b11100 ]#
1{#
0@"
b11100 A
b11100 M
b11100 u
b11100 7"
b11100 :"
1X"
03"
0a"
b11100 q
b11100 6"
b11100 ["
1y"
10#
04#
0=#
1U#
0:
0/#
0^#
1v#
1."
02"
0;"
1S"
0?
0-"
0\"
1t"
0?#
1W#
0a#
1y#
0@#
1X#
0`#
1x#
0="
1U"
0_"
1w"
0>"
1V"
0^"
1v"
b11 g
b10111 =$
b11100 ;
b11100 ^
b11100 m
b11100 |"
b11100 :#
b11100 \#
b11100 <
b11100 ]
b11100 l
b11100 z"
b11100 ;#
b11100 [#
b11100 =
b11100 \
b11100 k
b11100 z
b11100 8"
b11100 Z"
b11100 >
b11100 [
b11100 j
b11100 x
b11100 9"
b11100 Y"
b11 d
1)
#240000
b110000 i
b110000 }#
b10 8
b10 J
b10 n
b10 |#
b110000 7
b110000 I
b110000 o
b10000 K
0)
b10000 *
b10000 0
b10000 H
b11000011111111000001101100000 .
b10 (
b10 /
b10 G
#245000
b11000 =$
b1 g
b1 d
1)
#250000
0)
1,
#255000
b10 g
b11001 =$
b10 d
1)
#260000
0)
0,
#265000
0N#
b10000 p
b10000 9#
b10000 <#
0T#
0o#
b10000 @
b10000 L
b10000 t
b10000 8#
b10000 ]#
0u#
0L"
b10000 A
b10000 M
b10000 u
b10000 7"
b10000 :"
0R"
0m"
b10000 q
b10000 6"
b10000 ["
0s"
12#
13#
0I#
0O#
0j#
0p#
10"
11"
0G"
0M"
0h"
0n"
0K#
0Q#
0m#
0s#
0L#
0R#
0l#
0r#
0I"
0O"
0k"
0q"
0J"
0P"
0j"
0p"
b11010 =$
b11 g
b10000 ;
b10000 ^
b10000 m
b10000 |"
b10000 :#
b10000 \#
b10000 <
b10000 ]
b10000 l
b10000 z"
b10000 ;#
b10000 [#
b10000 =
b10000 \
b10000 k
b10000 z
b10000 8"
b10000 Z"
b10000 >
b10000 [
b10000 j
b10000 x
b10000 9"
b10000 Y"
b11 d
1)
#270000
b110110 i
b110110 }#
b11 8
b11 J
b11 n
b11 |#
b110110 7
b110110 I
b110110 o
b10110 K
0)
b10110 *
b10110 0
b10110 H
b10011011001010000001001111100001 .
b11 (
b11 /
b11 G
#275000
b1 g
b11011 =$
b1 d
1)
#280000
0)
1,
#285000
b11100 =$
b10 g
b10 d
1)
#290000
0)
0,
#295000
1Z#
1{#
1X"
1y"
1U#
1v#
1S"
1t"
1A#
1G#
0D#
1M#
0J#
1S#
1Y#
0V#
1b#
1h#
0e#
1n#
0k#
1t#
1z#
0w#
1?"
1E"
0B"
1K"
0H"
1Q"
1W"
0T"
1`"
1f"
0c"
1l"
0i"
1r"
1x"
0u"
0{"
0y
07#
06#
05"
04"
1H#
b10110 p
b10110 9#
b10110 <#
1N#
0)#
0'#
1i#
b10110 @
b10110 L
b10110 t
b10110 8#
b10110 ]#
1o#
1F"
b10110 A
b10110 M
b10110 u
b10110 7"
b10110 :"
1L"
0'"
0%"
1g"
b10110 q
b10110 6"
b10110 ["
1m"
01#
02#
1C#
1I#
0,#
0-#
1d#
1j#
0/"
00"
1A"
1G"
0*"
0+"
1b"
1h"
1E#
1K#
1g#
1m#
1F#
1L#
1f#
1l#
1C"
1I"
1e"
1k"
1D"
1J"
1d"
1j"
b11 g
b11101 =$
b10110 ;
b10110 ^
b10110 m
b10110 |"
b10110 :#
b10110 \#
b10110 <
b10110 ]
b10110 l
b10110 z"
b10110 ;#
b10110 [#
b10110 =
b10110 \
b10110 k
b10110 z
b10110 8"
b10110 Z"
b10110 >
b10110 [
b10110 j
b10110 x
b10110 9"
b10110 Y"
b11 d
1)
#300000
b110111 i
b110111 }#
b100 8
b100 J
b100 n
b100 |#
b110111 7
b110111 I
b110111 o
b10111 K
0)
b10111 *
b10111 0
b10111 H
b1011011111110110101100000101110 .
b100 (
b100 /
b100 G
#305000
b11110 =$
b1 g
b1 d
1)
#310000
0)
1,
#315000
b10 g
b11111 =$
b10 d
1)
#320000
0)
0,
#325000
1H#
1N#
1Z#
1i#
1o#
1{#
1F"
1L"
1X"
1g"
1m"
1y"
1C#
1I#
1U#
1d#
1j#
1v#
1A"
1G"
1S"
1b"
1h"
1t"
1A#
0>#
1G#
0D#
1M#
0J#
1S#
1Y#
0V#
1b#
0_#
1h#
0e#
1n#
0k#
1t#
1z#
0w#
1?"
0<"
1E"
0B"
1K"
0H"
1Q"
1W"
0T"
1`"
0]"
1f"
0c"
1l"
0i"
1r"
1x"
0u"
0{"
0y
b10111 p
b10111 9#
b10111 <#
1B#
0*#
b10111 @
b10111 L
b10111 t
b10111 8#
b10111 ]#
1c#
b10111 A
b10111 M
b10111 u
b10111 7"
b10111 :"
1@"
0("
b10111 q
b10111 6"
b10111 ["
1a"
00#
1=#
0:
0+#
1^#
0."
1;"
0?
0)"
1\"
1?#
1a#
1@#
1`#
1="
1_"
1>"
1^"
b100000 =$
b11 g
b10111 ;
b10111 ^
b10111 m
b10111 |"
b10111 :#
b10111 \#
b10111 <
b10111 ]
b10111 l
b10111 z"
b10111 ;#
b10111 [#
b10111 =
b10111 \
b10111 k
b10111 z
b10111 8"
b10111 Z"
b10111 >
b10111 [
b10111 j
b10111 x
b10111 9"
b10111 Y"
b11 d
1)
#330000
b100111 i
b100111 }#
b101 8
b101 J
b101 n
b101 |#
b100111 7
b100111 I
b100111 o
b111 K
0)
b111 *
b111 0
b111 H
b11000011111011011111001011010111 .
b101 (
b101 /
b101 G
#335000
b1 g
b100001 =$
b1 d
1)
#340000
0)
1,
#345000
b100010 =$
b10 g
b10 d
1)
#350000
0)
0,
#355000
b111 p
b111 9#
b111 <#
0Z#
b111 @
b111 L
b111 t
b111 8#
b111 ]#
0{#
b111 A
b111 M
b111 u
b111 7"
b111 :"
0X"
b111 q
b111 6"
b111 ["
0y"
14#
0U#
0v#
12"
0S"
0t"
0W#
0y#
0X#
0x#
0U"
0w"
0V"
0v"
b11 g
b100011 =$
b111 ;
b111 ^
b111 m
b111 |"
b111 :#
b111 \#
b111 <
b111 ]
b111 l
b111 z"
b111 ;#
b111 [#
b111 =
b111 \
b111 k
b111 z
b111 8"
b111 Z"
b111 >
b111 [
b111 j
b111 x
b111 9"
b111 Y"
b11 d
1)
#360000
b111011 i
b111011 }#
b110 8
b110 J
b110 n
b110 |#
b111011 7
b111011 I
b111011 o
b11011 K
0)
b11011 *
b11011 0
b11011 H
b11101101101101110110000100101100 .
b110 (
b110 /
b110 G
#365000
b100100 =$
b1 g
b1 d
1)
#370000
0)
1,
#375000
b10 g
b100101 =$
b10 d
1)
#380000
0)
0,
