Final/min_mex_tb.vcd
$date
	Tue Apr 01 00:10:49 2025
$end
$version
	Icarus Verilog
$end
$timescale
	1ps
$end
$scope module min_mex_tb $end
$var event 1 ! _ivl_2 $end
$var wire 1 " outValid $end
$var wire 5 # data_out [4:0] $end
$var parameter 32 $ ADDR_WIDTH $end
$var parameter 32 % DATA_WIDTH $end
$var reg 4 & addr [3:0] $end
$var reg 1 ' clk $end
$var reg 5 ( data [4:0] $end
$var reg 1 ) dataValid $end
$var reg 1 * read $end
$var reg 1 + reset $end
$var reg 32 , seed [31:0] $end
$scope module dut $end
$var wire 4 - addr [3:0] $end
$var wire 1 ' clk $end
$var wire 5 . data [4:0] $end
$var wire 1 ) dataValid $end
$var wire 1 / dirty $end
$var wire 1 * read $end
$var wire 1 + reset $end
$var wire 4 0 state [3:0] $end
$var wire 1 1 we $end
$var wire 1 2 resetComplete $end
$var wire 1 3 re $end
$var wire 1 " outValid $end
$var wire 5 4 mx [4:0] $end
$var wire 5 5 mn [4:0] $end
$var wire 6 6 mem_data [5:0] $end
$var wire 4 7 mem_addr [3:0] $end
$var wire 5 8 in4 [4:0] $end
$var wire 5 9 in3 [4:0] $end
$var wire 5 : in2 [4:0] $end
$var wire 5 ; in1 [4:0] $end
$var wire 5 < comp_les [4:0] $end
$var wire 5 = comp_gre [4:0] $end
$var wire 8 > an [7:0] $end
$var wire 6 ? actual_mem_data [5:0] $end
$var wire 7 @ a_to_g [6:0] $end
$var parameter 32 A ADDR_WIDTH $end
$var parameter 32 B DATA_WIDTH $end
$scope module control_unit $end
$var wire 4 C addr [3:0] $end
$var wire 1 ' clk $end
$var wire 1 ) dataValid $end
$var wire 5 D data_in [4:0] $end
$var wire 1 * read $end
$var wire 1 + reset $end
$var wire 1 " outValid $end
$var wire 6 E mem_data [5:0] $end
$var wire 4 F mem_addr [3:0] $end
$var wire 5 G data_mem [4:0] $end
$var wire 5 H comp_les [4:0] $end
$var wire 5 I comp_gre [4:0] $end
$var wire 6 J actual_mem_data [5:0] $end
$var parameter 32 K ADDR_WIDTH $end
$var parameter 32 L DATA_WIDTH $end
$var parameter 4 M S_DONE $end
$var parameter 4 N S_IDLE $end
$var parameter 4 O S_READ $end
$var parameter 4 P S_READ_INTERMEDIATE_1 $end
$var parameter 4 Q S_READ_INTERMEDIATE_2 $end
$var parameter 4 R S_RUN $end
$var parameter 4 S S_RUN_INTERMEDIATE_1 $end
$var parameter 4 T S_RUN_INTERMEDIATE_2 $end
$var parameter 4 U S_RUN_PRE $end
$var reg 1 V dp_done $end
$var reg 5 W in1 [4:0] $end
$var reg 5 X in2 [4:0] $end
$var reg 5 Y in3 [4:0] $end
$var reg 5 Z in4 [4:0] $end
$var reg 1 [ loop2 $end
$var reg 5 \ mn [4:0] $end
$var reg 5 ] mx [4:0] $end
$var reg 4 ^ nxt_state [3:0] $end
$var reg 1 3 re $end
$var reg 5 _ resetAddr [4:0] $end
$var reg 1 2 resetComplete $end
$var reg 1 ` resetting $end
$var reg 4 a state [3:0] $end
$var reg 4 b temp_addr [3:0] $end
$var reg 1 1 we $end
$upscope $end
$scope module datapath_unit $end
$var wire 6 c actual_mem_data [5:0] $end
$var wire 1 ' clk $end
$var wire 5 d comp_gre_in1 [4:0] $end
$var wire 5 e comp_gre_in2 [4:0] $end
$var wire 5 f comp_les_in1 [4:0] $end
$var wire 5 g comp_les_in2 [4:0] $end
$var wire 4 h mem_addr [3:0] $end
$var wire 6 i mem_data [5:0] $end
$var wire 1 3 re $end
$var wire 1 1 we $end
$var wire 5 j tmp_2 [4:0] $end
$var wire 5 k tmp_1 [4:0] $end
$var wire 1 l dirty $end
$var wire 6 m data_out [5:0] $end
$var wire 5 n comp_les [4:0] $end
$var wire 5 o comp_gre [4:0] $end
$var parameter 32 p ADDR_WIDTH $end
$var parameter 32 q DATA_WIDTH $end
$scope module cmp $end
$var wire 5 r A [4:0] $end
$var wire 1 s A_gt_B $end
$var wire 5 t B [4:0] $end
$var wire 1 u eq0 $end
$var wire 1 v eq1 $end
$var wire 1 w eq2 $end
$var wire 1 x eq3 $end
$var wire 1 y eq4 $end
$var wire 1 z eq4_and_eq3 $end
$var wire 1 { eq4_and_gt3 $end
$var wire 1 | eq4_eq3_and_eq2 $end
$var wire 1 } eq4_eq3_and_gt2 $end
$var wire 1 ~ eq4_eq3_eq2_and_eq1 $end
$var wire 1 !" eq4_eq3_eq2_and_gt1 $end
$var wire 1 "" eq4_eq3_eq2_eq1_and_gt0 $end
$var wire 1 #" gt0 $end
$var wire 1 $" gt1 $end
$var wire 1 %" gt2 $end
$var wire 1 &" gt3 $end
$var wire 1 '" gt4 $end
$var wire 1 (" not_B0 $end
$var wire 1 )" not_B1 $end
$var wire 1 *" not_B2 $end
$var wire 1 +" not_B3 $end
$var wire 1 ," not_B4 $end
$var wire 1 -" or_temp1 $end
$var wire 1 ." or_temp2 $end
$var wire 1 /" or_temp3 $end
$var wire 5 0" smaller [4:0] $end
$var wire 5 1" greater [4:0] $end
$scope module greater_mux $end
$var wire 5 2" in0 [4:0] $end
$var wire 5 3" in1 [4:0] $end
$var wire 1 s sel $end
$var wire 5 4" out [4:0] $end
$scope module mux0 $end
$var wire 1 5" and_in0 $end
$var wire 1 6" and_in1 $end
$var wire 1 7" in0 $end
$var wire 1 8" in1 $end
$var wire 1 9" not_sel $end
$var wire 1 :" out $end
$var wire 1 s sel $end
$upscope $end
$scope module mux1 $end
$var wire 1 ;" and_in0 $end
$var wire 1 <" and_in1 $end
$var wire 1 =" in0 $end
$var wire 1 >" in1 $end
$var wire 1 ?" not_sel $end
$var wire 1 @" out $end
$var wire 1 s sel $end
$upscope $end
$scope module mux2 $end
$var wire 1 A" and_in0 $end
$var wire 1 B" and_in1 $end
$var wire 1 C" in0 $end
$var wire 1 D" in1 $end
$var wire 1 E" not_sel $end
$var wire 1 F" out $end
$var wire 1 s sel $end
$upscope $end
$scope module mux3 $end
$var wire 1 G" and_in0 $end
$var wire 1 H" and_in1 $end
$var wire 1 I" in0 $end
$var wire 1 J" in1 $end
$var wire 1 K" not_sel $end
$var wire 1 L" out $end
$var wire 1 s sel $end
$upscope $end
$scope module mux4 $end
$var wire 1 M" and_in0 $end
$var wire 1 N" and_in1 $end
$var wire 1 O" in0 $end
$var wire 1 P" in1 $end
$var wire 1 Q" not_sel $end
$var wire 1 R" out $end
$var wire 1 s sel $end
$upscope $end
$upscope $end
$scope module smaller_mux $end
$var wire 5 S" in0 [4:0] $end
$var wire 5 T" in1 [4:0] $end
$var wire 1 s sel $end
$var wire 5 U" out [4:0] $end
$scope module mux0 $end
$var wire 1 V" and_in0 $end
$var wire 1 W" and_in1 $end
$var wire 1 X" in0 $end
$var wire 1 Y" in1 $end
$var wire 1 Z" not_sel $end
$var wire 1 [" out $end
$var wire 1 s sel $end
$upscope $end
$scope module mux1 $end
$var wire 1 \" and_in0 $end
$var wire 1 ]" and_in1 $end
$var wire 1 ^" in0 $end
$var wire 1 _" in1 $end
$var wire 1 `" not_sel $end
$var wire 1 a" out $end
$var wire 1 s sel $end
$upscope $end
$scope module mux2 $end
$var wire 1 b" and_in0 $end
$var wire 1 c" and_in1 $end
$var wire 1 d" in0 $end
$var wire 1 e" in1 $end
$var wire 1 f" not_sel $end
$var wire 1 g" out $end
$var wire 1 s sel $end
$upscope $end
$scope module mux3 $end
$var wire 1 h" and_in0 $end
$var wire 1 i" and_in1 $end
$var wire 1 j" in0 $end
$var wire 1 k" in1 $end
$var wire 1 l" not_sel $end
$var wire 1 m" out $end
$var wire 1 s sel $end
$upscope $end
$scope module mux4 $end
$var wire 1 n" and_in0 $end
$var wire 1 o" and_in1 $end
$var wire 1 p" in0 $end
$var wire 1 q" in1 $end
$var wire 1 r" not_sel $end
$var wire 1 s" out $end
$var wire 1 s sel $end
$upscope $end
$upscope $end
$upscope $end
$scope module cmp_2 $end
$var wire 5 t" A [4:0] $end
$var wire 1 u" A_gt_B $end
$var wire 5 v" B [4:0] $end
$var wire 1 w" eq0 $end
$var wire 1 x" eq1 $end
$var wire 1 y" eq2 $end
$var wire 1 z" eq3 $end
$var wire 1 {" eq4 $end
$var wire 1 |" eq4_and_eq3 $end
$var wire 1 }" eq4_and_gt3 $end
$var wire 1 ~" eq4_eq3_and_eq2 $end
$var wire 1 !# eq4_eq3_and_gt2 $end
$var wire 1 "# eq4_eq3_eq2_and_eq1 $end
$var wire 1 ## eq4_eq3_eq2_and_gt1 $end
$var wire 1 $# eq4_eq3_eq2_eq1_and_gt0 $end
$var wire 1 %# gt0 $end
$var wire 1 &# gt1 $end
$var wire 1 '# gt2 $end
$var wire 1 (# gt3 $end
$var wire 1 )# gt4 $end
$var wire 1 *# not_B0 $end
$var wire 1 +# not_B1 $end
$var wire 1 ,# not_B2 $end
$var wire 1 -# not_B3 $end
$var wire 1 .# not_B4 $end
$var wire 1 /# or_temp1 $end
$var wire 1 0# or_temp2 $end
$var wire 1 1# or_temp3 $end
$var wire 5 2# smaller [4:0] $end
$var wire 5 3# greater [4:0] $end
$scope module greater_mux $end
$var wire 5 4# in0 [4:0] $end
$var wire 5 5# in1 [4:0] $end
$var wire 1 u" sel $end
$var wire 5 6# out [4:0] $end
$scope module mux0 $end
$var wire 1 7# and_in0 $end
$var wire 1 8# and_in1 $end
$var wire 1 9# in0 $end
$var wire 1 :# in1 $end
$var wire 1 ;# not_sel $end
$var wire 1 <# out $end
$var wire 1 u" sel $end
$upscope $end
$scope module mux1 $end
$var wire 1 =# and_in0 $end
$var wire 1 ># and_in1 $end
$var wire 1 ?# in0 $end
$var wire 1 @# in1 $end
$var wire 1 A# not_sel $end
$var wire 1 B# out $end
$var wire 1 u" sel $end
$upscope $end
$scope module mux2 $end
$var wire 1 C# and_in0 $end
$var wire 1 D# and_in1 $end
$var wire 1 E# in0 $end
$var wire 1 F# in1 $end
$var wire 1 G# not_sel $end
$var wire 1 H# out $end
$var wire 1 u" sel $end
$upscope $end
$scope module mux3 $end
$var wire 1 I# and_in0 $end
$var wire 1 J# and_in1 $end
$var wire 1 K# in0 $end
$var wire 1 L# in1 $end
$var wire 1 M# not_sel $end
$var wire 1 N# out $end
$var wire 1 u" sel $end
$upscope $end
$scope module mux4 $end
$var wire 1 O# and_in0 $end
$var wire 1 P# and_in1 $end
$var wire 1 Q# in0 $end
$var wire 1 R# in1 $end
$var wire 1 S# not_sel $end
$var wire 1 T# out $end
$var wire 1 u" sel $end
$upscope $end
$upscope $end
$scope module smaller_mux $end
$var wire 5 U# in0 [4:0] $end
$var wire 5 V# in1 [4:0] $end
$var wire 1 u" sel $end
$var wire 5 W# out [4:0] $end
$scope module mux0 $end
$var wire 1 X# and_in0 $end
$var wire 1 Y# and_in1 $end
$var wire 1 Z# in0 $end
$var wire 1 [# in1 $end
$var wire 1 \# not_sel $end
$var wire 1 ]# out $end
$var wire 1 u" sel $end
$upscope $end
$scope module mux1 $end
$var wire 1 ^# and_in0 $end
$var wire 1 _# and_in1 $end
$var wire 1 `# in0 $end
$var wire 1 a# in1 $end
$var wire 1 b# not_sel $end
$var wire 1 c# out $end
$var wire 1 u" sel $end
$upscope $end
$scope module mux2 $end
$var wire 1 d# and_in0 $end
$var wire 1 e# and_in1 $end
$var wire 1 f# in0 $end
$var wire 1 g# in1 $end
$var wire 1 h# not_sel $end
$var wire 1 i# out $end
$var wire 1 u" sel $end
$upscope $end
$scope module mux3 $end
$var wire 1 j# and_in0 $end
$var wire 1 k# and_in1 $end
$var wire 1 l# in0 $end
$var wire 1 m# in1 $end
$var wire 1 n# not_sel $end
$var wire 1 o# out $end
$var wire 1 u" sel $end
$upscope $end
$scope module mux4 $end
$var wire 1 p# and_in0 $end
$var wire 1 q# and_in1 $end
$var wire 1 r# in0 $end
$var wire 1 s# in1 $end
$var wire 1 t# not_sel $end
$var wire 1 u# out $end
$var wire 1 u" sel $end
$upscope $end
$upscope $end
$upscope $end
$scope module m $end
$var wire 4 v# addr [3:0] $end
$var wire 1 ' clk $end
$var wire 6 w# data [5:0] $end
$var wire 1 3 readEnable $end
$var wire 1 1 writeEnable $end
$var wire 1 l dirty $end
$var parameter 32 x# ADDR_WIDTH $end
$var parameter 33 y# DATA_WIDTH $end
$var reg 6 z# temp_data [5:0] $end
$upscope $end
$upscope $end
$scope module u_seven_segment_display $end
$var wire 1 ' clk $end
$var wire 5 {# number1 [4:0] $end
$var wire 5 |# number2 [4:0] $end
$var wire 1 + reset $end
$var wire 4 }# number2_tens [3:0] $end
$var wire 4 ~# number2_ones [3:0] $end
$var wire 4 !$ number1_tens [3:0] $end
$var wire 4 "$ number1_ones [3:0] $end
$var wire 3 #$ display_select [2:0] $end
$var parameter 7 $$ A $end
$var parameter 7 %$ B $end
$var parameter 7 &$ C $end
$var parameter 7 '$ D $end
$var parameter 7 ($ E $end
$var parameter 7 )$ EIGHT $end
$var parameter 7 *$ F $end
$var parameter 7 +$ FIVE $end
$var parameter 7 ,$ FOUR $end
$var parameter 7 -$ NINE $end
$var parameter 7 .$ ONE $end
$var parameter 7 /$ SEVEN $end
$var parameter 7 0$ SIX $end
$var parameter 7 1$ THREE $end
$var parameter 7 2$ TWO $end
$var parameter 7 3$ ZERO $end
$var reg 7 4$ a_to_g [6:0] $end
$var reg 8 5$ an [7:0] $end
$var reg 4 6$ digit_to_display [3:0] $end
$var reg 20 7$ refresh_counter [19:0] $end
$upscope $end
$upscope $end
$scope begin $ivl_for_loop0 $end
$var integer 32 8$ i [31:0] $end
$upscope $end
$upscope $end
$enddefinitions $end
$comment Show the parameter values. $end
$dumpall
b1 3$
b10010 2$
b110 1$
b100000 0$
b1111 /$
b1001111 .$
b100 -$
b1001100 ,$
b100100 +$
b111000 *$
b0 )$
b110000 ($
b1000010 '$
b110001 &$
b1100000 %$
b1000 $$
b110 y#
b100 x#
b101 q
b100 p
b100 U
b111 T
b110 S
b101 R
b11 Q
b10 P
b1 O
b0 N
b1000 M
b101 L
b100 K
b101 B
b100 A
b101 %
b100 $
$end
#0
$dumpvars
bx 8$
b0 7$
b1 6$
b11111110 5$
b1001111 4$
b0 #$
b0 "$
b0 !$
b1 ~#
b11 }#
b11111 |#
b0 {#
bx z#
bx w#
b0 v#
xu#
xt#
xs#
xr#
xq#
xp#
xo#
xn#
xm#
xl#
xk#
xj#
xi#
xh#
xg#
xf#
xe#
xd#
xc#
xb#
xa#
x`#
x_#
x^#
x]#
x\#
x[#
xZ#
xY#
xX#
bx W#
bx V#
bx U#
xT#
xS#
xR#
xQ#
xP#
xO#
xN#
xM#
xL#
xK#
xJ#
xI#
xH#
xG#
xF#
xE#
xD#
xC#
xB#
xA#
x@#
x?#
x>#
x=#
x<#
x;#
x:#
x9#
x8#
x7#
bx 6#
bx 5#
bx 4#
bx 3#
bx 2#
x1#
x0#
x/#
x.#
x-#
x,#
x+#
x*#
x)#
x(#
x'#
x&#
x%#
x$#
x##
x"#
x!#
x~"
x}"
x|"
x{"
xz"
xy"
xx"
xw"
bx v"
xu"
bx t"
xs"
xr"
xq"
xp"
xo"
xn"
xm"
xl"
xk"
xj"
xi"
xh"
xg"
xf"
xe"
xd"
xc"
xb"
xa"
x`"
x_"
x^"
x]"
x\"
x["
xZ"
xY"
xX"
xW"
xV"
bx U"
bx T"
bx S"
xR"
xQ"
xP"
xO"
xN"
xM"
xL"
xK"
xJ"
xI"
xH"
xG"
xF"
xE"
xD"
xC"
xB"
xA"
x@"
x?"
x>"
x="
x<"
x;"
x:"
x9"
x8"
x7"
x6"
x5"
bx 4"
bx 3"
bx 2"
bx 1"
bx 0"
x/"
x."
x-"
x,"
x+"
x*"
x)"
x("
x'"
x&"
x%"
x$"
x#"
x""
x!"
x~
x}
x|
x{
xz
xy
xx
xw
xv
xu
bx t
xs
bx r
bx o
bx n
bx m
xl
bx k
bx j
b0 i
b0 h
bx g
bx f
bx e
bx d
bx c
b0 b
b0 a
x`
b0 _
bx ^
b0 ]
b11111 \
x[
bx Z
bx Y
bx X
bx W
0V
bx J
bx I
bx H
b0 G
b0 F
b0 E
b0 D
b0 C
b1001111 @
bx ?
b11111110 >
bx =
bx <
bx ;
bx :
bx 9
bx 8
b0 7
b0 6
b11111 5
b0 4
x3
x2
x1
bz 0
z/
b0 .
b0 -
b100001001110111110111001001 ,
1+
0*
0)
b0 (
0'
b0 &
bx #
0"
1!
$end
#5000
1<#
1B#
1H#
1N#
b11111 j
b11111 3#
b11111 6#
1T#
1]#
1c#
1i#
1o#
b11111 <
b11111 H
b11111 n
b11111 2#
b11111 W#
1u#
17#
1=#
1C#
1I#
1O#
1X#
1^#
1d#
1j#
1p#
1;#
08#
1A#
0>#
1G#
0D#
1M#
0J#
1S#
0P#
1\#
0Y#
1b#
0_#
1h#
0e#
1n#
0k#
1t#
0q#
0u"
01#
00#
0/#
19"
1?"
1E"
1K"
1Q"
1Z"
1`"
1f"
1l"
1r"
0}"
0$#
0##
0!#
0s
0/"
0."
0-"
b0 #
0l
0%#
0&#
0'#
0(#
0)#
1"#
1~"
1|"
1~
1|
1z
0""
0!"
0}
0{
0:"
0@"
0F"
0L"
b0 =
b0 I
b0 o
b0 1"
b0 4"
0R"
0["
0a"
0g"
0m"
b0 k
b0 0"
b0 U"
0s"
b0 c
b0 w#
b0 ?
b0 J
b0 m
0*#
0+#
0,#
0-#
0.#
1w"
1x"
1y"
1z"
1{"
1("
1)"
1*"
1+"
1,"
05"
0;"
0A"
0G"
0M"
0W"
0]"
0c"
0i"
0o"
1u
1v
1w
1x
1y
0#"
0$"
0%"
0&"
0'"
06"
0<"
0B"
0H"
0N"
0V"
0\"
0b"
0h"
0n"
19#
1?#
1E#
1K#
1Q#
1[#
1a#
1g#
1m#
1s#
1:#
1@#
1F#
1L#
1R#
1Z#
1`#
1f#
1l#
1r#
07"
0="
0C"
0I"
0O"
0Y"
0_"
0e"
0k"
0q"
08"
0>"
0D"
0J"
0P"
0X"
0^"
0d"
0j"
0p"
02
03
11
1`
0[
b11111 8
b11111 Z
b11111 g
b11111 v"
b11111 4#
b11111 V#
b11111 9
b11111 Y
b11111 f
b11111 t"
b11111 5#
b11111 U#
b0 :
b0 X
b0 e
b0 t
b0 2"
b0 T"
b0 ;
b0 W
b0 d
b0 r
b0 3"
b0 S"
b0 ^
1'
#10000
0'
0+
#15000
b1 7
b1 F
b1 h
b1 v#
b1 7$
b1 _
1'
#20000
0'
#25000
b10 7
b10 F
b10 h
b10 v#
b10 7$
b10 _
1'
#30000
0'
#35000
b11 7
b11 F
b11 h
b11 v#
b11 7$
b11 _
1'
#40000
0'
#45000
b100 7
b100 F
b100 h
b100 v#
b100 7$
b100 _
1'
#50000
0'
#55000
b101 7
b101 F
b101 h
b101 v#
b101 7$
b101 _
1'
#60000
0'
#65000
b110 7
b110 F
b110 h
b110 v#
b110 7$
b110 _
1'
#70000
0'
#75000
b111 7
b111 F
b111 h
b111 v#
b111 7$
b111 _
1'
#80000
0'
#85000
b1000 7
b1000 F
b1000 h
b1000 v#
b1000 7$
b1000 _
1'
#90000
0'
#95000
b1001 7
b1001 F
b1001 h
b1001 v#
b1001 7$
b1001 _
1'
#100000
0'
#105000
b1010 7
b1010 F
b1010 h
b1010 v#
b1010 7$
b1010 _
1'
#110000
0'
#115000
b1011 7
b1011 F
b1011 h
b1011 v#
b1011 7$
b1011 _
1'
#120000
0'
#125000
b1100 7
b1100 F
b1100 h
b1100 v#
b1100 7$
b1100 _
1'
#130000
0'
#135000
b1101 7
b1101 F
b1101 h
b1101 v#
b1101 7$
b1101 _
1'
#140000
0'
#145000
b1110 7
b1110 F
b1110 h
b1110 v#
b1110 7$
b1110 _
1'
#150000
0'
#155000
b1111 7
b1111 F
b1111 h
b1111 v#
b1111 7$
b1111 _
1'
#160000
0'
#165000
b10000 7$
0`
1'
#170000
0'
#175000
b10001 7$
12
1'
#180000
0'
1)
#185000
b0 7
b0 F
b0 h
b0 v#
b100000 c
b100000 w#
b100000 6
b100000 E
b100000 i
b10010 7$
b1 a
b1 ^
1'
#190000
b100101 c
b100101 w#
b100101 6
b100101 E
b100101 i
b101 G
0'
1*
b101 (
b101 .
b101 D
b11010010110010111110111011110110 ,
#195000
b10 a
b10011 7$
b10 ^
1'
#200000
0'
0*
#205000
19"
06"
1?"
1E"
0B"
1K"
1Q"
1Z"
0W"
1`"
1f"
0c"
1l"
1r"
0/"
0s
0."
0B#
0N#
b101 j
b101 3#
b101 6#
0T#
0c#
0o#
b101 <
b101 H
b101 n
b101 2#
b101 W#
0u#
1:"
b101 =
b101 I
b101 o
b101 1"
b101 4"
1F"
0""
0}
1["
b101 k
b101 0"
b101 U"
1g"
1+#
1-#
1.#
0=#
0I#
0O#
0^#
0j#
0p#
0("
0*"
15"
1A"
0#"
0%"
1V"
1b"
0?#
0K#
0Q#
0a#
0m#
0s#
0@#
0L#
0R#
0`#
0l#
0r#
17"
1C"
1Y"
1e"
18"
1D"
1X"
1d"
b10100 7$
b11 a
b101 8
b101 Z
b101 g
b101 v"
b101 4#
b101 V#
b101 9
b101 Y
b101 f
b101 t"
b101 5#
b101 U#
b101 :
b101 X
b101 e
b101 t
b101 2"
b101 T"
b101 ;
b101 W
b101 d
b101 r
b101 3"
b101 S"
b11 ^
1'
#210000
b101110 c
b101110 w#
b1 7
b1 F
b1 h
b1 v#
b101110 6
b101110 E
b101110 i
b1110 G
0'
b1110 (
b1110 .
b1110 D
b10111011001101101100011111111 ,
b1 &
b1 -
b1 C
#215000
b1 a
b10101 7$
b1 ^
1'
#220000
0'
1*
#225000
b10110 7$
b10 a
b10 ^
1'
#230000
0'
0*
#235000
1H#
1i#
1F"
1g"
1C#
1d#
1A"
1b"
1;#
1A#
0>#
1G#
0D#
1M#
0J#
1S#
1\#
1b#
0_#
1h#
0e#
1n#
0k#
1t#
19"
1?"
0<"
1E"
0B"
1K"
0H"
1Q"
1Z"
1`"
0]"
1f"
0c"
1l"
0i"
1r"
0u"
00#
0s
0."
01#
0/#
0/"
0-"
0<#
1B#
b1110 j
b1110 3#
b1110 6#
1N#
0##
0}"
0]#
1c#
b1110 <
b1110 H
b1110 n
b1110 2#
b1110 W#
1o#
0:"
1@"
b1110 =
b1110 I
b1110 o
b1110 1"
b1110 4"
1L"
0!"
0{
0["
1a"
b1110 k
b1110 0"
b1110 U"
1m"
1*#
0+#
0-#
07#
1=#
1I#
0&#
0(#
0X#
1^#
1j#
1("
0)"
0+"
05"
1;"
1G"
0$"
0&"
0V"
1\"
1h"
09#
1?#
1K#
0[#
1a#
1m#
0:#
1@#
1L#
0Z#
1`#
1l#
07"
1="
1I"
0Y"
1_"
1k"
08"
1>"
1J"
0X"
1^"
1j"
b11 a
b10111 7$
b1110 8
b1110 Z
b1110 g
b1110 v"
b1110 4#
b1110 V#
b1110 9
b1110 Y
b1110 f
b1110 t"
b1110 5#
b1110 U#
b1110 :
b1110 X
b1110 e
b1110 t
b1110 2"
b1110 T"
b1110 ;
b1110 W
b1110 d
b1110 r
b1110 3"
b1110 S"
b11 ^
1'
#240000
b111110 c
b111110 w#
b10 7
b10 F
b10 h
b10 v#
b111110 6
b111110 E
b111110 i
b11110 G
0'
b11110 (
b11110 .
b11110 D
b11001111010111111011011100110100 ,
b10 &
b10 -
b10 C
#245000
b11000 7$
b1 a
b1 ^
1'
#250000
0'
1*
#255000
b10 a
b11001 7$
b10 ^
1'
#260000
0'
0*
#265000
1B#
1H#
1N#
1c#
1i#
1o#
1@"
1F"
1L"
1a"
1g"
1m"
1=#
1C#
1I#
1^#
1d#
1j#
1;"
1A"
1G"
1\"
1b"
1h"
1;#
1A#
0>#
1G#
0D#
1M#
0J#
1S#
0P#
1\#
1b#
0_#
1h#
0e#
1n#
0k#
1t#
0q#
19"
1?"
0<"
1E"
0B"
1K"
0H"
1Q"
0N"
1Z"
1`"
0]"
1f"
0c"
1l"
0i"
1r"
0o"
0u"
0s
01#
0/"
00#
0."
b11110 j
b11110 3#
b11110 6#
1T#
0/#
b11110 <
b11110 H
b11110 n
b11110 2#
b11110 W#
1u#
b11110 =
b11110 I
b11110 o
b11110 1"
b11110 4"
1R"
0-"
b11110 k
b11110 0"
b11110 U"
1s"
0.#
1O#
0)#
1p#
0,"
1M"
0'"
1n"
1Q#
1s#
1R#
1r#
1O"
1q"
1P"
1p"
b11010 7$
b11 a
b11110 8
b11110 Z
b11110 g
b11110 v"
b11110 4#
b11110 V#
b11110 9
b11110 Y
b11110 f
b11110 t"
b11110 5#
b11110 U#
b11110 :
b11110 X
b11110 e
b11110 t
b11110 2"
b11110 T"
b11110 ;
b11110 W
b11110 d
b11110 r
b11110 3"
b11110 S"
b11 ^
1'
#270000
b100110 c
b100110 w#
b11 7
b11 F
b11 h
b11 v#
b100110 6
b100110 E
b100110 i
b110 G
0'
b110 (
b110 .
b110 D
b10100011001001110101100010100101 ,
b11 &
b11 -
b11 C
#275000
b1 a
b11011 7$
b1 ^
1'
#280000
0'
1*
#285000
b11100 7$
b10 a
b10 ^
1'
#290000
0'
0*
#295000
0N#
b110 j
b110 3#
b110 6#
0T#
0o#
b110 <
b110 H
b110 n
b110 2#
b110 W#
0u#
0L"
b110 =
b110 I
b110 o
b110 1"
b110 4"
0R"
0m"
b110 k
b110 0"
b110 U"
0s"
1-#
1.#
0I#
0O#
0j#
0p#
1+"
1,"
0G"
0M"
0h"
0n"
0K#
0Q#
0m#
0s#
0L#
0R#
0l#
0r#
0I"
0O"
0k"
0q"
0J"
0P"
0j"
0p"
b11 a
b11101 7$
b110 8
b110 Z
b110 g
b110 v"
b110 4#
b110 V#
b110 9
b110 Y
b110 f
b110 t"
b110 5#
b110 U#
b110 :
b110 X
b110 e
b110 t
b110 2"
b110 T"
b110 ;
b110 W
b110 d
b110 r
b110 3"
b110 S"
b11 ^
1'
#300000
b111101 c
b111101 w#
b100 7
b100 F
b100 h
b100 v#
b111101 6
b111101 E
b111101 i
b11101 G
0'
b11101 (
b11101 .
b11101 D
b11111110101001110101110100100010 ,
b100 &
b100 -
b100 C
#305000
b11110 7$
b1 a
b1 ^
1'
#310000
0'
1*
#315000
b10 a
b11111 7$
b10 ^
1'
#320000
0'
0*
#325000
1H#
1i#
1F"
1g"
1C#
1d#
1A"
1b"
1;#
08#
1A#
1G#
0D#
1M#
0J#
1S#
0P#
1\#
0Y#
1b#
1h#
0e#
1n#
0k#
1t#
0q#
01#
19"
06"
1?"
1E"
0B"
1K"
0H"
1Q"
0N"
1Z"
0W"
1`"
1f"
0c"
1l"
0i"
1r"
0o"
0/"
0u"
00#
0s
0."
1<#
0B#
1N#
b11101 j
b11101 3#
b11101 6#
1T#
0$#
0}"
0/#
1]#
0c#
1o#
b11101 <
b11101 H
b11101 n
b11101 2#
b11101 W#
1u#
1:"
0@"
1L"
b11101 =
b11101 I
b11101 o
b11101 1"
b11101 4"
1R"
0""
0{
0-"
1["
0a"
1m"
b11101 k
b11101 0"
b11101 U"
1s"
0*#
1+#
0-#
0.#
17#
0=#
1I#
1O#
0%#
0(#
0)#
1X#
0^#
1j#
1p#
0("
1)"
0+"
0,"
15"
0;"
1G"
1M"
0#"
0&"
0'"
1V"
0\"
1h"
1n"
19#
0?#
1K#
1Q#
1[#
0a#
1m#
1s#
1:#
0@#
1L#
1R#
1Z#
0`#
1l#
1r#
17"
0="
1I"
1O"
1Y"
0_"
1k"
1q"
18"
0>"
1J"
1P"
1X"
0^"
1j"
1p"
b100000 7$
b11 a
b11101 8
b11101 Z
b11101 g
b11101 v"
b11101 4#
b11101 V#
b11101 9
b11101 Y
b11101 f
b11101 t"
b11101 5#
b11101 U#
b11101 :
b11101 X
b11101 e
b11101 t
b11101 2"
b11101 T"
b11101 ;
b11101 W
b11101 d
b11101 r
b11101 3"
b11101 S"
b11 ^
1'
#330000
b110001 c
b110001 w#
b101 7
b101 F
b101 h
b101 v#
b110001 6
b110001 E
b110001 i
b10001 G
0'
b10001 (
b10001 .
b10001 D
b11001000111000100100111000111011 ,
b101 &
b101 -
b101 C
#335000
b1 a
b100001 7$
b1 ^
1'
#340000
0'
1*
#345000
b100010 7$
b10 a
b10 ^
1'
#350000
0'
0*
#355000
0H#
b10001 j
b10001 3#
b10001 6#
0N#
0i#
b10001 <
b10001 H
b10001 n
b10001 2#
b10001 W#
0o#
0F"
b10001 =
b10001 I
b10001 o
b10001 1"
b10001 4"
0L"
0g"
b10001 k
b10001 0"
b10001 U"
0m"
1,#
1-#
0C#
0I#
0d#
0j#
1*"
1+"
0A"
0G"
0b"
0h"
0E#
0K#
0g#
0m#
0F#
0L#
0f#
0l#
0C"
0I"
0e"
0k"
0D"
0J"
0d"
0j"
b11 a
b100011 7$
b10001 8
b10001 Z
b10001 g
b10001 v"
b10001 4#
b10001 V#
b10001 9
b10001 Y
b10001 f
b10001 t"
b10001 5#
b10001 U#
b10001 :
b10001 X
b10001 e
b10001 t
b10001 2"
b10001 T"
b10001 ;
b10001 W
b10001 d
b10001 r
b10001 3"
b10001 S"
b11 ^
1'
#360000
b110010 c
b110010 w#
b110 7
b110 F
b110 h
b110 v#
b110010 6
b110010 E
b110010 i
b10010 G
0'
b10010 (
b10010 .
b10010 D
b10101001011011001010010001000000 ,
b110 &
b110 -
b110 C
#365000
b100100 7$
b1 a
b1 ^
1'
#370000
0'
1*
#375000
b10 a
b100101 7$
b10 ^
1'
#380000
0'
0*
